ExoMars2020/Network/traces/network.vcd
$date
     Nov 02, 2018       14:35:01
$end

$version
 SystemC 2.3.2-Accellera --- Oct  1 2018 18:40:03
$end

$timescale
     1 ps
$end

$scope module SystemC $end
$var wire   16  aaaaa  PanCam_channel [15:0]  $end
$var wire   16  aaaab  NavCam_channel [15:0]  $end
$var wire   16  aaaac  ISEM_channel [15:0]  $end
$var wire   16  aaaad  CLUPI_channel [15:0]  $end
$var wire   16  aaaae  Drill_channel [15:0]  $end
$var wire   16  aaaaf  Adron_channel [15:0]  $end
$var wire   16  aaaag  WISDOM_channel [15:0]  $end
$var wire   16  aaaah  Ma_MISS_channel [15:0]  $end
$var wire   16  aaaai  MicrOmega_channel [15:0]  $end
$var wire   16  aaaaj  RLS_channel [15:0]  $end
$var wire   16  aaaak  MOMA_channel [15:0]  $end
$var wire   16  aaaal  PrintUnit_channel [15:0]  $end
$upscope $end
$enddefinitions  $end

$comment
All initial values are dumped below at time 0 sec = 0 timescale units.
$end

$dumpvars
b100000 aaaaa
b100000 aaaab
b100000 aaaac
b100000 aaaad
b100000 aaaae
b100000 aaaaf
b100000 aaaag
b100000 aaaah
b100000 aaaai
b100000 aaaaj
b100000 aaaak
b0 aaaal
$end

#41667
b100001 aaaaa
b100010 aaaab
b100011 aaaac
b100100 aaaad
b100101 aaaae
b100110 aaaaf
b100111 aaaag
b101000 aaaah
b101001 aaaai
b101010 aaaaj
b101011 aaaak

#62500
b100000 aaaal

#83333
b101000 aaaal

#83334
b100101 aaaaa
b1101010 aaaab
b1111110 aaaac
b1000101 aaaad
b10 aaaae
b10100 aaaaf
b1011010 aaaag
b1000010 aaaah
b1111001 aaaai
b101001 aaaaj
b1001110 aaaak

#104167
b1000010 aaaal

#125001
b1111101 aaaah

#145834
b1111101 aaaal

#166668
b111000 aaaah

#187501
b111000 aaaal

#208335
b11011 aaaah

#229168
b11011 aaaal

#250002
b1010010 aaaah

#270835
b1010010 aaaal

#291669
b1011000 aaaah

#312502
b1011000 aaaal

#333336
b1011 aaaah

#354169
b1011 aaaal

#375003
b11110 aaaah

#395836
b11110 aaaal

#416670
b110101 aaaah

#437503
b110101 aaaal

#458337
b1101101 aaaah

#479170
b1101101 aaaal

#500004
b101111 aaaah

#520837
b101111 aaaal

#541671
b11 aaaah

#562504
b11 aaaal

#583338
b110 aaaah

#604171
b110 aaaal

#625005
b1010010 aaaah

#645838
b1010010 aaaal

#666672
b1001100 aaaah

#687505
b1001100 aaaal

#708339
b101100 aaaah

#729172
b101100 aaaal

#750006
b1000001 aaaah

#770839
b1000001 aaaal

#791673
b1101011 aaaah

#812506
b1101011 aaaal

#833340
b100011 aaaah

#854173
b100011 aaaal

#875007
b101001 aaaah

#895840
b101001 aaaal

#916674
b111010 aaaah

#937507
b111010 aaaal

#958341
b101110 aaaah

#979174
b101110 aaaal

#1000008
b1010000 aaaah

#1020841
b1010000 aaaal

#1041675
b101000 aaaah

#1062508
b101000 aaaal

#1083342
b10111 aaaah

#1104175
b10111 aaaal

#1125009
b110000101011001 aaaah

#1145842
b110000101011001 aaaal

#1166676
b1111111111111111 aaaah

#1187509
b1111111111111111 aaaal

#1208342
b101000 aaaal

#1229175
b100000 aaaal

#1250008
b1011101 aaaaa
b100001 aaaal

#1270841
b100101 aaaal

#1291674
b100000 aaaal

#1291675
b1001101 aaaaa

#1312507
b101000 aaaah
b1011101 aaaal

#1333340
b100000 aaaah
b1001101 aaaal

#1333342
b1101010 aaaaa

#1354173
b1 aaaal

#1375006
b1 aaaah
b1101010 aaaal

#1375009
b1100011011011101 aaaaa

#1395840
b1100010111101011 aaaal

#1416673
b1100010111101011 aaaah
b1100011011011101 aaaal

#1416676
b1111111111111111 aaaaa

#1437507
b1111111111111111 aaaal

#1458340
b1111111111111111 aaaah

#1479173
b100001 aaaal

#1500006
b100000 aaaal

#1520839
b1101111 aaaaj
b101010 aaaal

#1541672
b101001 aaaal

#1562505
b100000 aaaal

#1562506
b100011 aaaaj

#1583338
b100001 aaaaa
b1101111 aaaal

#1604171
b100000 aaaaa
b100011 aaaal

#1604173
b1100110 aaaaj

#1625004
b1 aaaal

#1645837
b1 aaaaa
b1100110 aaaal

#1645840
b11101 aaaaj

#1666671
b1100010111101011 aaaal

#1687504
b1100010111101011 aaaaa
b11101 aaaal

#1687507
b100010 aaaaj

#1708338
b1111111111111111 aaaal

#1729171
b1111111111111111 aaaaa
b100010 aaaal

#1729174
b110001 aaaaj

#1750007
b110001 aaaal

#1770841
b10101 aaaaj

#1791674
b10101 aaaal

#1812508
b1111101 aaaaj

#1833341
b1111101 aaaal

#1854175
b111 aaaaj

#1875008
b111 aaaal

#1895842
b1101100 aaaaj

#1916675
b1101100 aaaal

#1937509
b1110111 aaaaj

#1958342
b1110111 aaaal

#1979176
b10110 aaaaj

#2000009
b10110 aaaal

#2020843
b1110000 aaaaj

#2041676
b1110000 aaaal

#2062510
b111010 aaaaj

#2083343
b111010 aaaal

#2104177
b1001100 aaaaj

#2125010
b1001100 aaaal

#2145844
b1111 aaaaj

#2166677
b1111 aaaal

#2187511
b1001010 aaaaj

#2208344
b1001010 aaaal

#2229178
b1101101 aaaaj

#2250011
b1101101 aaaal

#2270845
b1110101 aaaaj

#2291678
b1110101 aaaal

#2312512
b1100110 aaaaj

#2333345
b1100110 aaaal

#2354179
b100101 aaaaj

#2375012
b100101 aaaal

#2395846
b111011 aaaaj

#2416679
b111011 aaaal

#2437513
b1110111 aaaaj

#2458346
b1110111 aaaal

#2479180
b100111 aaaaj

#2500013
b100111 aaaal

#2520847
b1001110010100100 aaaaj

#2541680
b1001110010100100 aaaal

#2562514
b1111111111111111 aaaaj

#2583347
b1111111111111111 aaaal

#2604180
b101010 aaaal

#2625013
b100000 aaaal

#2645846
b111100 aaaag
b100111 aaaal

#2666679
b1011010 aaaal

#2687512
b100000 aaaal

#2687513
b111011 aaaag

#2708345
b101010 aaaaj
b111100 aaaal

#2729178
b100000 aaaaj
b111011 aaaal

#2729180
b1000101 aaaag

#2750011
b1 aaaal

#2770844
b1 aaaaj
b1000101 aaaal

#2770847
b10 aaaag

#2791678
b1100010111101011 aaaal

#2812511
b1100010111101011 aaaaj
b10 aaaal

#2812514
b1010111 aaaag

#2833345
b1111111111111111 aaaal

#2854178
b1111111111111111 aaaaj
b1010111 aaaal

#2854181
b110000 aaaag

#2875014
b110000 aaaal

#2895848
b1110100 aaaag

#2916681
b1110100 aaaal

#2937515
b1000110 aaaag

#2958348
b1000110 aaaal

#2979182
b1011000 aaaag

#3000015
b1011000 aaaal

#3020849
b10 aaaag

#3041682
b10 aaaal

#3062516
b11010 aaaag

#3083349
b11010 aaaal

#3104183
b111101 aaaag

#3125016
b111101 aaaal

#3145850
b10110 aaaag

#3166683
b10110 aaaal

#3187517
b1101010 aaaag

#3208350
b1101010 aaaal

#3229184
b1101001 aaaag

#3250017
b1101001 aaaal

#3270851
b1011001 aaaag

#3291684
b1011001 aaaal

#3312518
b1111100 aaaag

#3333351
b1111100 aaaal

#3354185
b101100 aaaag

#3375018
b101100 aaaal

#3395852
b1100111 aaaag

#3416685
b1100111 aaaal

#3437519
b1000111 aaaag

#3458352
b1000111 aaaal

#3479186
b101011 aaaag

#3500019
b101011 aaaal

#3520853
b1001101 aaaag

#3541686
b1001101 aaaal

#3562520
b1000001 aaaag

#3583353
b1000001 aaaal

#3604187
b1001011 aaaag

#3625020
b1001011 aaaal

#3645854
b1110001011010011 aaaag

#3666687
b1110001011010011 aaaal

#3687521
b1111111111111111 aaaag

#3708354
b1111111111111111 aaaal

#3729187
b100111 aaaal

#3750020
b100000 aaaal

#3770853
b1111011 aaaac
b100011 aaaal

#3791686
b1111110 aaaal

#3812519
b100000 aaaal

#3812520
b100110 aaaac

#3833352
b100111 aaaag
b1111011 aaaal

#3854185
b100000 aaaag
b100110 aaaal

#3854187
b1100001 aaaac

#3875018
b1 aaaal

#3895851
b1 aaaag
b1100001 aaaal

#3895854
b10000 aaaac

#3916685
b1100010111101011 aaaal

#3937518
b1100010111101011 aaaag
b10000 aaaal

#3937521
b1110100 aaaac

#3958352
b1111111111111111 aaaal

#3979185
b1111111111111111 aaaag
b1110100 aaaal

#3979188
b1011000 aaaac

#4000021
b1011000 aaaal

#4020855
b100111 aaaac

#4041688
b100111 aaaal

#4062522
b1111001 aaaac

#4083355
b1111001 aaaal

#4104189
b1001101 aaaac

#4125022
b1001101 aaaal

#4145856
b110110 aaaac

#4166689
b110110 aaaal

#4187523
b1011011 aaaac

#4208356
b1011011 aaaal

#4229190
b1110 aaaac

#4250023
b1110 aaaal

#4270857
b1110001 aaaac

#4291690
b1110001 aaaal

#4312524
b10101 aaaac

#4333357
b10101 aaaal

#4354191
b1010101 aaaac

#4375024
b1010101 aaaal

#4395858
b100010 aaaac

#4416691
b100010 aaaal

#4437525
b11011 aaaac

#4458358
b11011 aaaal

#4479192
b1000101 aaaac

#4500025
b1000101 aaaal

#4520859
b1001 aaaac

#4541692
b1001 aaaal

#4562526
b100110 aaaac

#4583359
b100110 aaaal

#4604193
b10 aaaac

#4625026
b10 aaaal

#4645860
b1010011 aaaac

#4666693
b1010011 aaaal

#4687527
b11111 aaaac

#4708360
b11111 aaaal

#4729194
b101 aaaac

#4750027
b101 aaaal

#4770861
b111010110100 aaaac

#4791694
b111010110100 aaaal

#4812528
b1111111111111111 aaaac

#4833361
b1111111111111111 aaaal

#4854194
b100011 aaaal

#4875027
b100000 aaaal

#4895860
b1010010 aaaab
b100010 aaaal

#4916693
b1101010 aaaal

#4937526
b100000 aaaal

#4937527
b11101 aaaab

#4958359
b100011 aaaac
b1010010 aaaal

#4979192
b100000 aaaac
b11101 aaaal

#4979194
b1101100 aaaab

#5000025
b1 aaaal

#5020858
b1 aaaac
b1101100 aaaal

#5020861
b1101101 aaaab

#5041692
b1100010111101011 aaaal

#5062525
b1100010111101011 aaaac
b1101101 aaaal

#5062528
b100001 aaaab

#5083359
b1111111111111111 aaaal

#5104192
b1111111111111111 aaaac
b100001 aaaal

#5104195
b1010000 aaaab

#5125028
b1010000 aaaal

#5145862
b110110 aaaab

#5166695
b110110 aaaal

#5187529
b111010 aaaab

#5208362
b111010 aaaal

#5229196
b101101 aaaab

#5250029
b101101 aaaal

#5270863
b1000 aaaab

#5291696
b1000 aaaal

#5312530
b11001 aaaab

#5333363
b11001 aaaal

#5354197
b1000011 aaaab

#5375030
b1000011 aaaal

#5395864
b1100110 aaaab

#5416697
b1100110 aaaal

#5437531
b111 aaaab

#5458364
b111 aaaal

#5479198
b100010 aaaab

#5500031
b100010 aaaal

#5520865
b1010101 aaaab

#5541698
b1010101 aaaal

#5562532
b1000 aaaab

#5583365
b1000 aaaal

#5604199
b0 aaaab

#5625032
b0 aaaal

#5645866
b10110 aaaab

#5666699
b10110 aaaal

#5687533
b1101010 aaaab

#5708366
b1101010 aaaal

#5729200
b1011100 aaaab

#5750033
b1011100 aaaal

#5770867
b1111100 aaaab

#5791700
b1111100 aaaal

#5812534
b1111101 aaaab

#5833367
b1111101 aaaal

#5854201
b100010 aaaab

#5875034
b100010 aaaal

#5895868
b110100101010010 aaaab

#5916701
b110100101010010 aaaal

#5937535
b1111111111111111 aaaab

#5958368
b1111111111111111 aaaal

#5979201
b100010 aaaal

#6000034
b100000 aaaal

#6020867
b1010010 aaaad
b100100 aaaal

#6041700
b1000101 aaaal

#6062533
b100000 aaaal

#6062534
b11110 aaaad

#6083366
b100010 aaaab
b1010010 aaaal

#6104199
b100000 aaaab
b11110 aaaal

#6104201
b1100 aaaad

#6125032
b1 aaaal

#6145865
b1 aaaab
b1100 aaaal

#6145868
b1110000 aaaad

#6166699
b1100010111101011 aaaal

#6187532
b1100010111101011 aaaab
b1110000 aaaal

#6187535
b1010110 aaaad

#6208366
b1111111111111111 aaaal

#6229199
b1111111111111111 aaaab
b1010110 aaaal

#6229202
b1101000 aaaad

#6250035
b1101000 aaaal

#6270869
b1000111 aaaad

#6291702
b1000111 aaaal

#6312536
b11010 aaaad

#6333369
b11010 aaaal

#6354203
b1101010 aaaad

#6375036
b1101010 aaaal

#6395870
b110000 aaaad

#6416703
b110000 aaaal

#6437537
b10001 aaaad

#6458370
b10001 aaaal

#6479204
b11100 aaaad

#6500037
b11100 aaaal

#6520871
b1010010 aaaad

#6541704
b1010010 aaaal

#6562538
b1111010 aaaad

#6583371
b1111010 aaaal

#6604205
b1001 aaaad

#6625038
b1001 aaaal

#6645872
b1100100 aaaad

#6666705
b1100100 aaaal

#6687539
b1110 aaaad

#6708372
b1110 aaaal

#6729206
b1001 aaaad

#6750039
b1001 aaaal

#6770873
b111110 aaaad

#6791706
b111110 aaaal

#6812540
b1110011 aaaad

#6833373
b1110011 aaaal

#6854207
b1111100 aaaad

#6875040
b1111100 aaaal

#6895874
b101100 aaaad

#6916707
b101100 aaaal

#6937541
b1110100 aaaad

#6958374
b1110100 aaaal

#6979208
b100100 aaaad

#7000041
b100100 aaaal

#7020875
b1001000010101001 aaaad

#7041708
b1001000010101001 aaaal

#7062542
b1111111111111111 aaaad

#7083375
b1111111111111111 aaaal

#7104208
b100100 aaaal

#7125041
b100000 aaaal

#7145874
b111111 aaaae
b100101 aaaal

#7166707
b10 aaaal

#7187540
b100000 aaaal

#7187541
b10000 aaaae

#7208373
b100100 aaaad
b111111 aaaal

#7229206
b100000 aaaad
b10000 aaaal

#7229208
b1011100 aaaae

#7250039
b1 aaaal

#7270872
b1 aaaad
b1011100 aaaal

#7270875
b1111100 aaaae

#7291706
b1100010111101011 aaaal

#7312539
b1100010111101011 aaaad
b1111100 aaaal

#7312542
b0 aaaae

#7333373
b1111111111111111 aaaal

#7354206
b1111111111111111 aaaad
b0 aaaal

#7354209
b101101 aaaae

#7375042
b101101 aaaal

#7395876
b111011 aaaae

#7416709
b111011 aaaal

#7437543
b1010001 aaaae

#7458376
b1010001 aaaal

#7479210
b1010000 aaaae

#7500043
b1010000 aaaal

#7520877
b1010110 aaaae

#7541710
b1010110 aaaal

#7562544
b1111101 aaaae

#7583377
b1111101 aaaal

#7604211
b110101 aaaae

#7625044
b110101 aaaal

#7645878
b1000001 aaaae

#7666711
b1000001 aaaal

#7687545
b1001011 aaaae

#7708378
b1001011 aaaal

#7729212
b1001110 aaaae

#7750045
b1001110 aaaal

#7770879
b1000001 aaaae

#7791712
b1000001 aaaal

#7812546
b110101 aaaae

#7833379
b110101 aaaal

#7854213
b1000010 aaaae

#7875046
b1000010 aaaal

#7895880
b1001011 aaaae

#7916713
b1001011 aaaal

#7937547
b100011 aaaae

#7958380
b100011 aaaal

#7979214
b1111111 aaaae

#8000047
b1111111 aaaal

#8020881
b1000111 aaaae

#8041714
b1000111 aaaal

#8062548
b1001001 aaaae

#8083381
b1001001 aaaal

#8104215
b10100 aaaae

#8125048
b10100 aaaal

#8145882
b1110101010111011 aaaae

#8166715
b1110101010111011 aaaal

#8187549
b1111111111111111 aaaae

#8208382
b1111111111111111 aaaal

#8229215
b100101 aaaal

#8250048
b100000 aaaal

#8270881
b1010111 aaaaf
b100110 aaaal

#8291714
b10100 aaaal

#8312547
b100000 aaaal

#8312548
b1000101 aaaaf

#8333380
b100101 aaaae
b1010111 aaaal

#8354213
b100000 aaaae
b1000101 aaaal

#8354215
b1001101 aaaaf

#8375046
b1 aaaal

#8395879
b1 aaaae
b1001101 aaaal

#8395882
b10001 aaaaf

#8416713
b1100010111101011 aaaal

#8437546
b1100010111101011 aaaae
b10001 aaaal

#8437549
b101011 aaaaf

#8458380
b1111111111111111 aaaal

#8479213
b1111111111111111 aaaae
b101011 aaaal

#8479216
b110101 aaaaf

#8500049
b110101 aaaal

#8520883
b10111 aaaaf

#8541716
b10111 aaaal

#8562550
b1010000 aaaaf

#8583383
b1010000 aaaal

#8604217
b1010010 aaaaf

#8625050
b1010010 aaaal

#8645884
b1010110 aaaaf

#8666717
b1010110 aaaal

#8687551
b11011 aaaaf

#8708384
b11011 aaaal

#8729218
b10010 aaaaf

#8750051
b10010 aaaal

#8770885
b1111010 aaaaf

#8791718
b1111010 aaaal

#8812552
b1011 aaaaf

#8833385
b1011 aaaal

#8854219
b1000101 aaaaf

#8875052
b1000101 aaaal

#8895886
b1011000 aaaaf

#8916719
b1011000 aaaal

#8937553
b1010101 aaaaf

#8958386
b1010101 aaaal

#8979220
b111000 aaaaf

#9000053
b111000 aaaal

#9020887
b101100 aaaaf

#9041720
b101100 aaaal

#9062554
b1100 aaaaf

#9083387
b1100 aaaal

#9104221
b1101100 aaaaf

#9125054
b1101100 aaaal

#9145888
b110100 aaaaf

#9166721
b110100 aaaal

#9187555
b11101 aaaaf

#9208388
b11101 aaaal

#9229222
b1000110 aaaaf

#9250055
b1000110 aaaal

#9270889
b11101110011010 aaaaf

#9291722
b11101110011010 aaaal

#9312556
b1111111111111111 aaaaf

#9333389
b1111111111111111 aaaal

#9354222
b100110 aaaal

#9375055
b100000 aaaal

#9395888
b111000 aaaak
b101011 aaaal

#9416721
b1001110 aaaal

#9437554
b100000 aaaal

#9437555
b110100 aaaak

#9458387
b100110 aaaaf
b111000 aaaal

#9479220
b100000 aaaaf
b110100 aaaal

#9479222
b110001 aaaak

#9500053
b1 aaaal

#9520886
b1 aaaaf
b110001 aaaal

#9520889
b11001 aaaak

#9541720
b1100010111101011 aaaal

#9562553
b1100010111101011 aaaaf
b11001 aaaal

#9562556
b10001 aaaak

#9583387
b1111111111111111 aaaal

#9604220
b1111111111111111 aaaaf
b10001 aaaal

#9604223
b11001 aaaak

#9625056
b11001 aaaal

#9645890
b110100 aaaak

#9666723
b110100 aaaal

#9687557
b10110 aaaak

#9708390
b10110 aaaal

#9729224
b1100101 aaaak

#9750057
b1100101 aaaal

#9770891
b1110 aaaak

#9791724
b1110 aaaal

#9812558
b1111 aaaak

#9833391
b1111 aaaal

#9854225
b1010 aaaak

#9875058
b1010 aaaal

#9895892
b1001001 aaaak

#9916725
b1001001 aaaal

#9937559
b1111111 aaaak

#9958392
b1111111 aaaal

#9979226
b1001101 aaaak

#10000059
b1001101 aaaal

#10020893
b1010100 aaaak

#10041726
b1010100 aaaal

#10062560
b1111100 aaaak

#10083393
b1111100 aaaal

#10104227
b1111110 aaaak

#10125060
b1111110 aaaal

#10145894
b110010 aaaak

#10166727
b110010 aaaal

#10187561
b101010 aaaak

#10208394
b101010 aaaal

#10229228
b100101 aaaak

#10250061
b100101 aaaal

#10270895
b110100 aaaak

#10291728
b110100 aaaal

#10312562
b10101 aaaak

#10333395
b10101 aaaal

#10354229
b11 aaaak

#10375062
b11 aaaal

#10395896
b1011111001001110 aaaak

#10416729
b1011111001001110 aaaal

#10437563
b1111111111111111 aaaak

#10458396
b1111111111111111 aaaal

#10479229
b101011 aaaal

#10500062
b100000 aaaal

#10520895
b1111010 aaaai
b101001 aaaal

#10541728
b1111001 aaaal

#10562561
b100000 aaaal

#10562562
b1001011 aaaai

#10583394
b101011 aaaak
b1111010 aaaal

#10604227
b100000 aaaak
b1001011 aaaal

#10604229
b1110001 aaaai

#10625060
b1 aaaal

#10645893
b1 aaaak
b1110001 aaaal

#10645896
b111 aaaai

#10666727
b1100010111101011 aaaal

#10687560
b1100010111101011 aaaak
b111 aaaal

#10708394
b1111111111111111 aaaal

#10729227
b1111111111111111 aaaak
b111 aaaal

#10729230
b100110 aaaai

#10750063
b100110 aaaal

#10770897
b1101000 aaaai

#10791730
b1101000 aaaal

#10812564
b1001010 aaaai

#10833397
b1001010 aaaal

#10854231
b1111111 aaaai

#10875064
b1111111 aaaal

#10895898
b110000 aaaai

#10916731
b110000 aaaal

#10937565
b1111 aaaai

#10958398
b1111 aaaal

#10979232
b1010111 aaaai

#11000065
b1010111 aaaal

#11020899
b1101000 aaaai

#11041732
b1101000 aaaal

#11062566
b11100 aaaai

#11083399
b11100 aaaal

#11104233
b1110100 aaaai

#11125066
b1110100 aaaal

#11145900
b101 aaaai

#11166733
b101 aaaal

#11187567
b1111 aaaai

#11208400
b1111 aaaal

#11229234
b1000001 aaaai

#11250067
b1000001 aaaal

#11270901
b100 aaaai

#11291734
b100 aaaal

#11312568
b11101 aaaai

#11333401
b11101 aaaal

#11354235
b1001101 aaaai

#11375068
b1001101 aaaal

#11395902
b1100010 aaaai

#11416735
b1100010 aaaal

#11437569
b1100110 aaaai

#11458402
b1100110 aaaal

#11479236
b1101011 aaaai

#11500069
b1101011 aaaal

#11520903
b101111100100110 aaaai

#11541736
b101111100100110 aaaal

#11562570
b1111111111111111 aaaai

#11583403
b1111111111111111 aaaal

#11604236
b101001 aaaal

#11645903
b100000 aaaal

#11666736
b101001 aaaai

#11687569
b100000 aaaai

#11687570
b1 aaaal

#11708403
b1 aaaai

#11729237
b1100010111101011 aaaal

#11750070
b1100010111101011 aaaai

#11770904
b1111111111111111 aaaal

#11791737
b1111111111111111 aaaai

#101479173
b100000 aaaah

#101520840
b101000 aaaah

#101541673
b100000 aaaal

#101562506
b101000 aaaal

#101562507
b1101110 aaaah

#101583340
b1101110 aaaal

#101604174
b10110 aaaah

#101625007
b10110 aaaal

#101645841
b1001100 aaaah

#101666674
b1001100 aaaal

#101687508
b111010 aaaah

#101708341
b111010 aaaal

#101729175
b110 aaaah

#101750004
b100000 aaaaa

#101750008
b110 aaaal

#101770842
b10110 aaaah

#101791671
b100001 aaaaa

#101791675
b10110 aaaal

#101812509
b100000 aaaah

#101833338
b1100101 aaaaa

#101833342
b100000 aaaal

#101854176
b1100001 aaaah

#101875009
b1100001 aaaal

#101895843
b1000100 aaaah

#101916676
b1000100 aaaal

#101937510
b10010 aaaah

#101958343
b10010 aaaal

#101979177
b100010 aaaah

#102000010
b100010 aaaal

#102020844
b1100011 aaaah

#102041677
b1100011 aaaal

#102062511
b11011 aaaah

#102083344
b11011 aaaal

#102104178
b1011000 aaaah

#102125011
b1011000 aaaal

#102187512
b1110111 aaaah

#102208345
b1110111 aaaal

#102229179
b1000011 aaaah

#102250012
b1000011 aaaal

#102270846
b1110101 aaaah

#102291679
b1110101 aaaal

#102312513
b1101 aaaah

#102333346
b1101 aaaal

#102354180
b1000010 aaaah

#102375013
b1000010 aaaal

#102395847
b100101 aaaah

#102416680
b100101 aaaal

#102437514
b1100011 aaaah

#102458347
b1100011 aaaal

#102479181
b1011011 aaaah

#102500014
b1011011 aaaal

#102520848
b1000110 aaaah

#102541681
b1000110 aaaal

#102562515
b111110 aaaah

#102583348
b111110 aaaal

#102604182
b1001111010001100 aaaah

#102625015
b1001111010001100 aaaal

#102645849
b1111111111111111 aaaah

#102666682
b1111111111111111 aaaal

#102687515
b101000 aaaal

#102708348
b100000 aaaal

#102729181
b1011 aaaaa
b100001 aaaal

#102750014
b1100101 aaaal

#102770847
b100000 aaaal

#102770848
b101011 aaaaa

#102791680
b101000 aaaah
b1011 aaaal

#102812513
b100000 aaaah
b101011 aaaal

#102812515
b11001 aaaaa

#102833346
b1 aaaal

#102854179
b1 aaaah
b11001 aaaal

#102854182
b1001100000111101 aaaaa

#102875011
b100000 aaaaj

#102875013
b1100010111101011 aaaal

#102895846
b1100010111101011 aaaah
b1001100000111101 aaaal

#102895849
b1111111111111111 aaaaa

#102916678
b101010 aaaaj

#102916680
b1111111111111111 aaaal

#102937513
b1111111111111111 aaaah

#102958345
b1010010 aaaaj

#102958346
b100001 aaaal

#102979179
b100000 aaaal

#103000012
b1100000 aaaaj
b101010 aaaal

#103020845
b1010010 aaaal

#103041678
b100000 aaaal

#103041679
b1101000 aaaaj

#103062511
b100001 aaaaa
b1100000 aaaal

#103083344
b100000 aaaaa
b1101000 aaaal

#103083346
b1001010 aaaaj

#103104177
b1 aaaal

#103125010
b1 aaaaa
b1001010 aaaal

#103125013
b1000010 aaaaj

#103145844
b1100010111101011 aaaal

#103166677
b1100010111101011 aaaaa
b1000010 aaaal

#103166680
b1001010 aaaaj

#103187511
b1111111111111111 aaaal

#103208344
b1111111111111111 aaaaa
b1001010 aaaal

#103208347
b1000010 aaaaj

#103229180
b1000010 aaaal

#103250014
b1011000 aaaaj

#103270847
b1011000 aaaal

#103291681
b1110100 aaaaj

#103312514
b1110100 aaaal

#103333348
b1000001 aaaaj

#103354181
b1000001 aaaal

#103375015
b1001111 aaaaj

#103395848
b1001111 aaaal

#103416682
b1111110 aaaaj

#103437515
b1111110 aaaal

#103458349
b100101 aaaaj

#103479182
b100101 aaaal

#103500016
b111011 aaaaj

#103520849
b111011 aaaal

#103541683
b100111 aaaaj

#103562516
b100111 aaaal

#103583350
b1000000 aaaaj

#103604183
b1000000 aaaal

#103625017
b1110011 aaaaj

#103645850
b1110011 aaaal

#103666684
b10100 aaaaj

#103687517
b10100 aaaal

#103708351
b1101010 aaaaj

#103729184
b1101010 aaaal

#103750018
b101101 aaaaj

#103770851
b101101 aaaal

#103791685
b101 aaaaj

#103812518
b101 aaaal

#103833352
b1111111 aaaaj

#103854185
b1111111 aaaal

#103875019
b101 aaaaj

#103895852
b101 aaaal

#103916686
b1010001 aaaaj

#103937519
b1010001 aaaal

#103958353
b100100 aaaaj

#103979186
b100100 aaaal

#104000018
b100000 aaaag

#104000020
b1100011101101110 aaaaj

#104020853
b1100011101101110 aaaal

#104041685
b100111 aaaag

#104041687
b1111111111111111 aaaaj

#104062520
b1111111111111111 aaaal

#104083352
b1010011 aaaag

#104083353
b101010 aaaal

#104104186
b100000 aaaal

#104125019
b10110 aaaag
b100111 aaaal

#104145852
b1010011 aaaal

#104166685
b100000 aaaal

#104166686
b1100011 aaaag

#104187518
b101010 aaaaj
b10110 aaaal

#104208351
b100000 aaaaj
b1100011 aaaal

#104208353
b1100101 aaaag

#104229184
b1 aaaal

#104250017
b1 aaaaj
b1100101 aaaal

#104250020
b110 aaaag

#104270851
b1100010111101011 aaaal

#104291684
b1100010111101011 aaaaj
b110 aaaal

#104291687
b1101101 aaaag

#104312518
b1111111111111111 aaaal

#104333351
b1111111111111111 aaaaj
b1101101 aaaal

#104333354
b1011100 aaaag

#104354187
b1011100 aaaal

#104375021
b1100100 aaaag

#104395854
b1100100 aaaal

#104416688
b101 aaaag

#104437521
b101 aaaal

#104458355
b1011101 aaaag

#104479188
b1011101 aaaal

#104500022
b111111 aaaag

#104520855
b111111 aaaal

#104541689
b1111101 aaaag

#104562522
b1111101 aaaal

#104583356
b1000001 aaaag

#104604189
b1000001 aaaal

#104625023
b1010110 aaaag

#104645856
b1010110 aaaal

#104666690
b1101111 aaaag

#104687523
b1101111 aaaal

#104708357
b1011110 aaaag

#104729190
b1011110 aaaal

#104750024
b1001100 aaaag

#104770857
b1001100 aaaal

#104791691
b100101 aaaag

#104812524
b100101 aaaal

#104833358
b101101 aaaag

#104854191
b101101 aaaal

#104875025
b110110 aaaag

#104895858
b110110 aaaal

#104916692
b1000100 aaaag

#104937525
b1000100 aaaal

#104958359
b10 aaaag

#104979192
b10 aaaal

#105000026
b110110 aaaag

#105020859
b110110 aaaal

#105041693
b1001101 aaaag

#105062526
b1001101 aaaal

#105083360
b100011 aaaag

#105104193
b100011 aaaal

#105125025
b100000 aaaac

#105125027
b111000100110010 aaaag

#105145860
b111000100110010 aaaal

#105166692
b100011 aaaac

#105166694
b1111111111111111 aaaag

#105187527
b1111111111111111 aaaal

#105208359
b1100101 aaaac

#105208360
b100111 aaaal

#105229193
b100000 aaaal

#105250026
b110011 aaaac
b100011 aaaal

#105270859
b1100101 aaaal

#105291692
b100000 aaaal

#105291693
b1111100 aaaac

#105312525
b100111 aaaag
b110011 aaaal

#105333358
b100000 aaaag
b1111100 aaaal

#105333360
b111110 aaaac

#105354191
b1 aaaal

#105375024
b1 aaaag
b111110 aaaal

#105375027
b100101 aaaac

#105395858
b1100010111101011 aaaal

#105416691
b1100010111101011 aaaag
b100101 aaaal

#105416694
b1001111 aaaac

#105437525
b1111111111111111 aaaal

#105458358
b1111111111111111 aaaag
b1001111 aaaal

#105458361
b1111101 aaaac

#105479194
b1111101 aaaal

#105500028
b100110 aaaac

#105520861
b100110 aaaal

#105541695
b1110001 aaaac

#105562528
b1110001 aaaal

#105583362
b1011111 aaaac

#105604195
b1011111 aaaal

#105625029
b1110100 aaaac

#105645862
b1110100 aaaal

#105666696
b111100 aaaac

#105687529
b111100 aaaal

#105708363
b1111110 aaaac

#105729196
b1111110 aaaal

#105750030
b1101100 aaaac

#105770863
b1101100 aaaal

#105791697
b1100000 aaaac

#105812530
b1100000 aaaal

#105833364
b1110110 aaaac

#105854197
b1110110 aaaal

#105875031
b1010000 aaaac

#105895864
b1010000 aaaal

#105916698
b1001100 aaaac

#105937531
b1001100 aaaal

#105958365
b1101010 aaaac

#105979198
b1101010 aaaal

#106000032
b1101000 aaaac

#106020865
b1101000 aaaal

#106041699
b100000 aaaac

#106062532
b100000 aaaal

#106083366
b1010 aaaac

#106104199
b1010 aaaal

#106125033
b10101 aaaac

#106145866
b10101 aaaal

#106166700
b1110000 aaaac

#106187533
b1110000 aaaal

#106208367
b110000 aaaac

#106229200
b110000 aaaal

#106250032
b100000 aaaab

#106250034
b1110100010111001 aaaac

#106270867
b1110100010111001 aaaal

#106291699
b100010 aaaab

#106291701
b1111111111111111 aaaac

#106312534
b1111111111111111 aaaal

#106333366
b1000110 aaaab

#106333367
b100011 aaaal

#106354200
b100000 aaaal

#106375033
b1101100 aaaab
b100010 aaaal

#106395866
b1000110 aaaal

#106416699
b100000 aaaal

#106416700
b11100 aaaab

#106437532
b100011 aaaac
b1101100 aaaal

#106458365
b100000 aaaac
b11100 aaaal

#106458367
b101000 aaaab

#106479198
b1 aaaal

#106500031
b1 aaaac
b101000 aaaal

#106500034
b1101000 aaaab

#106520865
b1100010111101011 aaaal

#106541698
b1100010111101011 aaaac
b1101000 aaaal

#106541701
b111011 aaaab

#106562532
b1111111111111111 aaaal

