ExoMars2020/Network/traces/network.vcd
$date
     Nov 09, 2018       15:09:46
$end

$version
 SystemC 2.3.2-Accellera --- Oct  1 2018 18:40:03
$end

$timescale
     1 ps
$end

$scope module SystemC $end
$var wire   16  aaaaa  PanCam_channel_data [15:0]  $end
$var wire   32  aaaab  PanCam_channel_wid [31:0]  $end
$var wire   16  aaaac  NavCam_channel_data [15:0]  $end
$var wire   32  aaaad  NavCam_channel_wid [31:0]  $end
$var wire   16  aaaae  ISEM_channel_data [15:0]  $end
$var wire   32  aaaaf  ISEM_channel_wid [31:0]  $end
$var wire   16  aaaag  CLUPI_channel_data [15:0]  $end
$var wire   32  aaaah  CLUPI_channel_wid [31:0]  $end
$var wire   16  aaaai  Drill_channel_data [15:0]  $end
$var wire   32  aaaaj  Drill_channel_wid [31:0]  $end
$var wire   16  aaaak  Adron_channel_data [15:0]  $end
$var wire   32  aaaal  Adron_channel_wid [31:0]  $end
$var wire   16  aaaam  WISDOM_channel_data [15:0]  $end
$var wire   32  aaaan  WISDOM_channel_wid [31:0]  $end
$var wire   16  aaaao  Ma_MISS_channel_data [15:0]  $end
$var wire   32  aaaap  Ma_MISS_channel_wid [31:0]  $end
$var wire   16  aaaaq  MicrOmega_channel_data [15:0]  $end
$var wire   32  aaaar  MicrOmega_channel_wid [31:0]  $end
$var wire   16  aaaas  RLS_channel_data [15:0]  $end
$var wire   32  aaaat  RLS_channel_wid [31:0]  $end
$var wire   16  aaaau  MOMA_channel_data [15:0]  $end
$var wire   32  aaaav  MOMA_channel_wid [31:0]  $end
$var wire   16  aaaaw  PrintUnit_channel_data [15:0]  $end
$var wire   32  aaaax  PrintUnit_channel_wid [31:0]  $end
$var wire   16  aaaay  Adron_port_in [15:0]  $end
$var wire   16  aaaaz  Adron_port_out [15:0]  $end
$var wire   16  aaaba  WISDOM_port_in [15:0]  $end
$var wire   16  aaabb  WISDOM_port_out [15:0]  $end
$var wire   16  aaabc  PrintUnit_port_in [15:0]  $end
$var wire   16  aaabd  PrintUnit_port_out [15:0]  $end
$var wire   16  aaabe  router_port_adron_in [15:0]  $end
$var wire   16  aaabf  router_port_adron_out [15:0]  $end
$upscope $end
$enddefinitions  $end

$comment
All initial values are dumped below at time 0 sec = 0 timescale units.
$end

$dumpvars
b0 aaaaa
b0 aaaab
b0 aaaac
b0 aaaad
b0 aaaae
b0 aaaaf
b0 aaaag
b0 aaaah
b0 aaaai
b0 aaaaj
b100000 aaaak
b0 aaaal
b100110 aaaam
b1 aaaan
b0 aaaao
b0 aaaap
b0 aaaaq
b0 aaaar
b0 aaaas
b0 aaaat
b0 aaaau
b0 aaaav
b0 aaaaw
b0 aaaax
b0 aaaay
b100000 aaaaz
b0 aaaba
b100110 aaabb
b0 aaabc
b0 aaabd
b100000 aaabe
b0 aaabf
$end

#41667
b100110 aaaak
b100111 aaaam
b100110 aaaaz
b100111 aaabb

#62500
b100 aaaal
b100000 aaaaw
b110 aaaax
b100110 aaabe
b100110 aaabf

#83333
b100111 aaaak
b100110 aaaaw
b100110 aaaay
b100000 aaabc
b100111 aaabf

#83334
b111101101101111 aaaam
b111101101101111 aaabb

#104166
b1010100 aaaak
b0 aaaal
b100111 aaaay
b1010100 aaaaz
b100110 aaabc

#124999
b111101101101111 aaaak
b100 aaaal
b1010100 aaaaw
b1010100 aaabe
b111101101101111 aaabf

#125001
b1100011000101010 aaaam
b1100011000101010 aaabb

#145832
b111101101101111 aaaay
b1010100 aaabc

#145833
b1110110 aaaak
b0 aaaal
b1110110 aaaaz

#166666
b1100011000101010 aaaak
b100 aaaal
b1110110 aaaaw
b1110110 aaabe
b1100011000101010 aaabf

#166668
b1000000001110011 aaaam
b1000000001110011 aaabb

#187499
b1100011000101010 aaaay
b1110110 aaabc

#187500
b10001000 aaaak
b0 aaaal
b10001000 aaaaz

#208333
b1000000001110011 aaaak
b100 aaaal
b10001000 aaaaw
b10001000 aaabe
b1000000001110011 aaabf

#208335
b1111000110000011 aaaam
b1111000110000011 aaabb

#229166
b1000000001110011 aaaay
b10001000 aaabc

#229167
b1001101 aaaak
b0 aaaal
b1001101 aaaaz

#250000
b1111000110000011 aaaak
b100 aaaal
b1001101 aaaaw
b1001101 aaabe
b1111000110000011 aaabf

#250002
b1100011110110101 aaaam
b1100011110110101 aaabb

#270833
b1111000110000011 aaaay
b1001101 aaabc

#270834
b10011010 aaaak
b0 aaaal
b10011010 aaaaz

#291667
b1100011110110101 aaaak
b100 aaaal
b10011010 aaaaw
b10011010 aaabe
b1100011110110101 aaabf

#291669
b1010010011100001 aaaam
b1010010011100001 aaabb

#312500
b1100011110110101 aaaay
b10011010 aaabc

#312501
b11011010 aaaak
b0 aaaal
b11011010 aaaaz

#333334
b1010010011100001 aaaak
b100 aaaal
b11011010 aaaaw
b11011010 aaabe
b1010010011100001 aaabf

#333336
b1001010111111110 aaaam
b1001010111111110 aaabb

#354167
b1010010011100001 aaaay
b11011010 aaabc

#354168
b1111110 aaaak
b0 aaaal
b1111110 aaaaz

#375001
b1001010111111110 aaaak
b100 aaaal
b1111110 aaaaw
b1111110 aaabe
b1001010111111110 aaabf

#375003
b1100111010001001 aaaam
b1100111010001001 aaabb

#395834
b1001010111111110 aaaay
b1111110 aaabc

#395835
b11000000 aaaak
b0 aaaal
b11000000 aaaaz

#416668
b1100111010001001 aaaak
b100 aaaal
b11000000 aaaaw
b11000000 aaabe
b1100111010001001 aaabf

#416670
b11100011110100 aaaam
b11100011110100 aaabb

#437501
b1100111010001001 aaaay
b11000000 aaabc

#437502
b111000001 aaaak
b0 aaaal
b111000001 aaaaz

#458335
b11100011110100 aaaak
b100 aaaal
b111000001 aaaaw
b111000001 aaabe
b11100011110100 aaabf

#458337
b1011011111010 aaaam
b1011011111010 aaabb

#479168
b11100011110100 aaaay
b111000001 aaabc

#479169
b10010110 aaaak
b0 aaaal
b10010110 aaaaz

#500002
b1011011111010 aaaak
b100 aaaal
b10010110 aaaaw
b10010110 aaabe
b1011011111010 aaabf

#500004
b1001010000010110 aaaam
b1001010000010110 aaabb

#520835
b1011011111010 aaaay
b10010110 aaabc

#520836
b10100000 aaaak
b0 aaaal
b10100000 aaaaz

#541669
b1001010000010110 aaaak
b100 aaaal
b10100000 aaaaw
b10100000 aaabe
b1001010000010110 aaabf

#541671
b1001101001010010 aaaam
b1001101001010010 aaabb

#562502
b1001010000010110 aaaay
b10100000 aaabc

#562503
b1010 aaaak
b0 aaaal
b1010 aaaaz

#583336
b1001101001010010 aaaak
b100 aaaal
b1010 aaaaw
b1010 aaabe
b1001101001010010 aaabf

#583338
b100100011101 aaaam
b100100011101 aaabb

#604169
b1001101001010010 aaaay
b1010 aaabc

#604170
b101110101 aaaak
b0 aaaal
b101110101 aaaaz

#625003
b100100011101 aaaak
b100 aaaal
b101110101 aaaaw
b101110101 aaabe
b100100011101 aaabf

#625005
b1100000111111 aaaam
b1100000111111 aaabb

#645836
b100100011101 aaaay
b101110101 aaabc

#645837
b100010001 aaaak
b0 aaaal
b100010001 aaaaz

#666670
b1100000111111 aaaak
b100 aaaal
b100010001 aaaaw
b100010001 aaabe
b1100000111111 aaabf

#666672
b1010010001111000 aaaam
b1010010001111000 aaabb

#687503
b1100000111111 aaaay
b100010001 aaabc

#687504
b110101000 aaaak
b0 aaaal
b110101000 aaaaz

#708337
b1010010001111000 aaaak
b100 aaaal
b110101000 aaaaw
b110101000 aaabe
b1010010001111000 aaabf

#708339
b100101100110010 aaaam
b100101100110010 aaabb

#729170
b1010010001111000 aaaay
b110101000 aaabc

#729171
b100100111 aaaak
b0 aaaal
b100100111 aaaaz

#750004
b100101100110010 aaaak
b100 aaaal
b100100111 aaaaw
b100100111 aaabe
b100101100110010 aaabf

#750006
b1100100010010 aaaam
b1100100010010 aaabb

#770837
b100101100110010 aaaay
b100100111 aaabc

#770838
b101011101 aaaak
b0 aaaal
b101011101 aaaaz

#791671
b1100100010010 aaaak
b100 aaaal
b101011101 aaaaw
b101011101 aaabe
b1100100010010 aaabf

#791673
b101110000000110 aaaam
b101110000000110 aaabb

#812504
b1100100010010 aaaay
b101011101 aaabc

#812505
b101010000 aaaak
b0 aaaal
b101010000 aaaaz

#833338
b101110000000110 aaaak
b100 aaaal
b101010000 aaaaw
b101010000 aaabe
b101110000000110 aaabf

#833340
b1100000101101111 aaaam
b1100000101101111 aaabb

#854171
b101110000000110 aaaay
b101010000 aaabc

#854172
b1100011 aaaak
b0 aaaal
b1100011 aaaaz

#875005
b1100000101101111 aaaak
b100 aaaal
b1100011 aaaaw
b1100011 aaabe
b1100000101101111 aaabf

#875007
b110001011 aaaam
b110001011 aaabb

#895838
b1100000101101111 aaaay
b1100011 aaabc

#895839
b110111010 aaaak
b0 aaaal
b110111010 aaaaz

#916672
b110001011 aaaak
b100 aaaal
b110111010 aaaaw
b110111010 aaabe
b110001011 aaabf

#916674
b111001101010100 aaaam
b111001101010100 aaabb

#937505
b110001011 aaaay
b110111010 aaabc

#937506
b10000101 aaaak
b0 aaaal
b10000101 aaaaz

#958339
b111001101010100 aaaak
b100 aaaal
b10000101 aaaaw
b10000101 aaabe
b111001101010100 aaabf

#958341
b1110100111100 aaaam
b1110100111100 aaabb

#979172
b111001101010100 aaaay
b10000101 aaabc

#979173
b110001000 aaaak
b0 aaaal
b110001000 aaaaz

#1000006
b1110100111100 aaaak
b100 aaaal
b110001000 aaaaw
b110001000 aaabe
b1110100111100 aaabf

#1000008
b1010111101000011 aaaam
b1010111101000011 aaabb

#1020839
b1110100111100 aaaay
b110001000 aaabc

#1020840
b11001100 aaaak
b0 aaaal
b11001100 aaaaz

#1041673
b1010111101000011 aaaak
b100 aaaal
b11001100 aaaaw
b11001100 aaabe
b1010111101000011 aaabf

#1041675
b10000010111011 aaaam
b10000010111011 aaabb

#1062506
b1010111101000011 aaaay
b11001100 aaabc

#1062507
b110110110 aaaak
b0 aaaal
b110110110 aaaaz

#1083340
b10000010111011 aaaak
b100 aaaal
b110110110 aaaaw
b110110110 aaabe
b10000010111011 aaabf

#1083342
b100001100000110 aaaam
b100001100000110 aaabb

#1104173
b10000010111011 aaaay
b110110110 aaabc

#1104174
b11011000 aaaak
b0 aaaal
b11011000 aaaaz

#1125007
b100001100000110 aaaak
b100 aaaal
b11011000 aaaaw
b11011000 aaabe
b100001100000110 aaabf

#1125009
b110001111110101 aaaam
b110001111110101 aaabb

#1145840
b100001100000110 aaaay
b11011000 aaabc

#1145841
b11111010000100 aaaak
b0 aaaal
b11111010000100 aaaaz

#1166674
b110001111110101 aaaak
b100 aaaal
b11111010000100 aaaaw
b11111010000100 aaabe
b110001111110101 aaabf

#1166676
b1111111111111111 aaaam
b1111111111111111 aaabb

#1187507
b110001111110101 aaaay
b11111010000100 aaabc

#1187508
b1111111111111111 aaaak
b0 aaaal
b1111111111111111 aaaaz

#1208341
b100 aaaal
b1111111111111111 aaaaw
b1111111111111111 aaabe
b1111111111111111 aaabf

#1229174
b100110 aaaaw
b10 aaaax
b1111111111111111 aaaay
b1111111111111111 aaabc
b100110 aaabd

#1229175
b100111 aaaak
b0 aaaal
b100111 aaaaz

#1250008
b100111 aaabe

#1270841
b100000 aaaaw
b100000 aaabd

#1270842
b100110 aaaak
b100110 aaaaz

#1291675
b100 aaaal
b100111 aaaam
b101 aaaan
b100110 aaabe
b100110 aaabf

#1312508
b100000 aaaak
b100110 aaaam
b1 aaaaw
b100110 aaaay
b100111 aaaba
b1 aaabd
b100000 aaabf

#1333341
b1 aaaak
b100000 aaaay
b100110 aaaba
b1 aaabf

#1354174
b0 aaaal
b1 aaaay
b1 aaaaz

#1354175
b1100010111101011 aaaaw
b1100010111101011 aaabd

#1375007
b1 aaaam
b1 aaabe

#1375008
b1100010111101011 aaaak
b100 aaaal
b1100010111101011 aaabf

#1395840
b1 aaaba

#1395841
b0 aaaal
b1100010111101011 aaaay
b1100010111101011 aaaaz

#1395842
b1111111111111111 aaaaw
b1111111111111111 aaabd

#1416674
b1100010111101011 aaaam
b1100010111101011 aaabe

#1416675
b1111111111111111 aaaak
b100 aaaal
b1111111111111111 aaabf

#1437507
b1100010111101011 aaaba

#1437508
b0 aaaal
b1111111111111111 aaaay
b1111111111111111 aaaaz

#1458341
b1111111111111111 aaaam
b1111111111111111 aaabe

#1479174
b1111111111111111 aaaba

#101437508
b100000 aaaak
b100000 aaaaz

#101458341
b100000 aaabe

#101479174
b100110 aaaam
b1 aaaan
b100110 aaabb

#101479175
b100110 aaaak
b100110 aaaaz

#101500008
b100000 aaaaw
b110 aaaax
b100110 aaabe

#101520841
b100111 aaaam
b100110 aaaaw
b100111 aaabb
b100000 aaabc

#101520842
b110011110 aaaak
b110011110 aaaaz

#101541674
b100110 aaabc

#101541675
b100110 aaaak
b100 aaaal
b110011110 aaaaw
b110011110 aaabe
b100110 aaabf

#101562508
b100111 aaaak
b1111000000000 aaaam
b100110 aaaay
b1111000000000 aaabb
b110011110 aaabc
b100111 aaabf

#101583341
b1111000000000 aaaak
b100111 aaaay
b1111000000000 aaabf

#101604174
b110101101 aaaak
b0 aaaal
b1111000000000 aaaay
b110101101 aaaaz

#101604175
b100001010001011 aaaam
b100001010001011 aaabb

#101625007
b110101101 aaaaw
b110101101 aaabe

#101625008
b100001010001011 aaaak
b100 aaaal
b100001010001011 aaabf

#101645840
b110101101 aaabc

#101645841
b101 aaaak
b0 aaaal
b100001010001011 aaaay
b101 aaaaz

#101645842
b1111011011001101 aaaam
b1111011011001101 aaabb

#101666674
b101 aaaaw
b101 aaabe

#101666675
b1111011011001101 aaaak
b100 aaaal
b1111011011001101 aaabf

#101687507
b101 aaabc

#101687508
b111001101 aaaak
b0 aaaal
b1111011011001101 aaaay
b111001101 aaaaz

#101687509
b110000000110100 aaaam
b110000000110100 aaabb

#101708341
b111001101 aaaaw
b111001101 aaabe

#101708342
b110000000110100 aaaak
b100 aaaal
b110000000110100 aaabf

#101729174
b111001101 aaabc

#101729175
b110101010 aaaak
b0 aaaal
b110000000110100 aaaay
b110101010 aaaaz

#101729176
b1000000100000000 aaaam
b1000000100000000 aaabb

#101750008
b110101010 aaaaw
b110101010 aaabe

#101750009
b1000000100000000 aaaak
b100 aaaal
b1000000100000000 aaabf

#101770841
b110101010 aaabc

#101770842
b1001010 aaaak
b0 aaaal
b1000000100000000 aaaay
b1001010 aaaaz

#101770843
b1100111111101000 aaaam
b1100111111101000 aaabb

#101791675
b1001010 aaaaw
b1001010 aaabe

#101791676
b1100111111101000 aaaak
b100 aaaal
b1100111111101000 aaabf

#101812508
b1001010 aaabc

#101812509
b1000101 aaaak
b0 aaaal
b1100111111101000 aaaay
b1000101 aaaaz

#101812510
b1010101010101110 aaaam
b1010101010101110 aaabb

#101833342
b1000101 aaaaw
b1000101 aaabe

#101833343
b1010101010101110 aaaak
b100 aaaal
b1010101010101110 aaabf

#101854175
b1000101 aaabc

#101854176
b100000011 aaaak
b0 aaaal
b1010101010101110 aaaay
b100000011 aaaaz

#101854177
b1100110111010110 aaaam
b1100110111010110 aaabb

#101875009
b100000011 aaaaw
b100000011 aaabe

#101875010
b1100110111010110 aaaak
b100 aaaal
b1100110111010110 aaabf

#101895842
b100000011 aaabc

#101895843
b111011000 aaaak
b0 aaaal
b1100110111010110 aaaay
b111011000 aaaaz

#101895844
b110111111001011 aaaam
b110111111001011 aaabb

#101916676
b111011000 aaaaw
b111011000 aaabe

#101916677
b110111111001011 aaaak
b100 aaaal
b110111111001011 aaabf

#101937509
b111011000 aaabc

#101937510
b110110010 aaaak
b0 aaaal
b110111111001011 aaaay
b110110010 aaaaz

#101937511
b1110000001100110 aaaam
b1110000001100110 aaabb

#101958343
b110110010 aaaaw
b110110010 aaabe

#101958344
b1110000001100110 aaaak
b100 aaaal
b1110000001100110 aaabf

#101979176
b110110010 aaabc

#101979177
b101 aaaak
b0 aaaal
b1110000001100110 aaaay
b101 aaaaz

#101979178
b100111000010110 aaaam
b100111000010110 aaabb

#102000010
b101 aaaaw
b101 aaabe

#102000011
b100111000010110 aaaak
b100 aaaal
b100111000010110 aaabf

#102020843
b101 aaabc

#102020844
b111101011 aaaak
b0 aaaal
b100111000010110 aaaay
b111101011 aaaaz

#102020845
b1000001000110111 aaaam
b1000001000110111 aaabb

#102041677
b111101011 aaaaw
b111101011 aaabe

#102041678
b1000001000110111 aaaak
b100 aaaal
b1000001000110111 aaabf

#102062510
b111101011 aaabc

#102062511
b110101011 aaaak
b0 aaaal
b1000001000110111 aaaay
b110101011 aaaaz

#102062512
b110011100010 aaaam
b110011100010 aaabb

#102083344
b110101011 aaaaw
b110101011 aaabe

#102083345
b110011100010 aaaak
b100 aaaal
b110011100010 aaabf

#102104177
b110101011 aaabc

#102104178
b110001101 aaaak
b0 aaaal
b110011100010 aaaay
b110001101 aaaaz

#102104179
b1001011110100100 aaaam
b1001011110100100 aaabb

#102125011
b110001101 aaaaw
b110001101 aaabe

#102125012
b1001011110100100 aaaak
b100 aaaal
b1001011110100100 aaabf

#102145844
b110001101 aaabc

#102145845
b100000010 aaaak
b0 aaaal
b1001011110100100 aaaay
b100000010 aaaaz

#102145846
b1011110101101011 aaaam
b1011110101101011 aaabb

#102166678
b100000010 aaaaw
b100000010 aaabe

#102166679
b1011110101101011 aaaak
b100 aaaal
b1011110101101011 aaabf

#102187511
b100000010 aaabc

#102187512
b1101000 aaaak
b0 aaaal
b1011110101101011 aaaay
b1101000 aaaaz

#102187513
b1101100000100 aaaam
b1101100000100 aaabb

#102208345
b1101000 aaaaw
b1101000 aaabe

#102208346
b1101100000100 aaaak
b100 aaaal
b1101100000100 aaabf

#102229178
b1101000 aaabc

#102229179
b111111100 aaaak
b0 aaaal
b1101100000100 aaaay
b111111100 aaaaz

#102229180
b1101001101001101 aaaam
b1101001101001101 aaabb

#102250012
b111111100 aaaaw
b111111100 aaabe

#102250013
b1101001101001101 aaaak
b100 aaaal
b1101001101001101 aaabf

#102270845
b111111100 aaabc

#102270846
b1001 aaaak
b0 aaaal
b1101001101001101 aaaay
b1001 aaaaz

#102270847
b1000100000110010 aaaam
b1000100000110010 aaabb

#102291679
b1001 aaaaw
b1001 aaabe

#102291680
b1000100000110010 aaaak
b100 aaaal
b1000100000110010 aaabf

#102312512
b1001 aaabc

#102312513
b110010110 aaaak
b0 aaaal
b1000100000110010 aaaay
b110010110 aaaaz

#102312514
b1111000011000101 aaaam
b1111000011000101 aaabb

#102333346
b110010110 aaaaw
b110010110 aaabe

#102333347
b1111000011000101 aaaak
b100 aaaal
b1111000011000101 aaabf

#102354179
b110010110 aaabc

#102354180
b100110100 aaaak
b0 aaaal
b1111000011000101 aaaay
b100110100 aaaaz

#102354181
b110111111010111 aaaam
b110111111010111 aaabb

#102375013
b100110100 aaaaw
b100110100 aaabe

#102375014
b110111111010111 aaaak
b100 aaaal
b110111111010111 aaabf

#102395846
b100110100 aaabc

#102395847
b10110101 aaaak
b0 aaaal
b110111111010111 aaaay
b10110101 aaaaz

#102395848
b1000011000111000 aaaam
b1000011000111000 aaabb

#102416680
b10110101 aaaaw
b10110101 aaabe

#102416681
b1000011000111000 aaaak
b100 aaaal
b1000011000111000 aaabf

#102437513
b10110101 aaabc

#102437514
b1100110 aaaak
b0 aaaal
b1000011000111000 aaaay
b1100110 aaaaz

#102437515
b1111011101011111 aaaam
b1111011101011111 aaabb

#102458347
b1100110 aaaaw
b1100110 aaabe

#102458348
b1111011101011111 aaaak
b100 aaaal
b1111011101011111 aaabf

#102479180
b1100110 aaabc

#102479181
b10000111 aaaak
b0 aaaal
b1111011101011111 aaaay
b10000111 aaaaz

#102479182
b1010001111001000 aaaam
b1010001111001000 aaabb

#102500014
b10000111 aaaaw
b10000111 aaabe

#102500015
b1010001111001000 aaaak
b100 aaaal
b1010001111001000 aaabf

#102520847
b10000111 aaabc

#102520848
b100011 aaaak
b0 aaaal
b1010001111001000 aaaay
b100011 aaaaz

#102520849
b1100101110110010 aaaam
b1100101110110010 aaabb

#102541681
b100011 aaaaw
b100011 aaabe

#102541682
b1100101110110010 aaaak
b100 aaaal
b1100101110110010 aaabf

#102562514
b100011 aaabc

#102562515
b11111011 aaaak
b0 aaaal
b1100101110110010 aaaay
b11111011 aaaaz

#102562516
b101011101100001 aaaam
b101011101100001 aaabb

#102583348
b11111011 aaaaw
b11111011 aaabe

#102583349
b101011101100001 aaaak
b100 aaaal
b101011101100001 aaabf

#102604181
b11111011 aaabc

#102604182
b1110001010010100 aaaak
b0 aaaal
b101011101100001 aaaay
b1110001010010100 aaaaz

#102604183
b1010001000000000 aaaam
b1010001000000000 aaabb

#102625015
b1110001010010100 aaaaw
b1110001010010100 aaabe

#102625016
b1010001000000000 aaaak
b100 aaaal
b1010001000000000 aaabf

#102645848
b1110001010010100 aaabc

#102645849
b1111111111111111 aaaak
b0 aaaal
b1010001000000000 aaaay
b1111111111111111 aaaaz

#102645850
b1111111111111111 aaaam
b1111111111111111 aaabb

#102666682
b1111111111111111 aaaaw
b1111111111111111 aaabe

#102666683
b100 aaaal
b1111111111111111 aaabf

#102687515
b100110 aaaaw
b10 aaaax
b1111111111111111 aaabc
b100110 aaabd

#102687516
b100111 aaaak
b0 aaaal
b1111111111111111 aaaay
b100111 aaaaz

#102708349
b100111 aaabe

#102729182
b100000 aaaaw
b100000 aaabd

#102729183
b100110 aaaak
b100110 aaaaz

#102750016
b100 aaaal
b100111 aaaam
b101 aaaan
b100110 aaabe
b100110 aaabf

#102770849
b100000 aaaak
b100110 aaaam
b1 aaaaw
b100110 aaaay
b100111 aaaba
b1 aaabd
b100000 aaabf

#102791682
b1 aaaak
b100000 aaaay
b100110 aaaba
b1 aaabf

#102812515
b0 aaaal
b1 aaaay
b1 aaaaz

#102812516
b1100010111101011 aaaaw
b1100010111101011 aaabd

#102833348
b1 aaaam
b1 aaabe

#102833349
b1100010111101011 aaaak
b100 aaaal
b1100010111101011 aaabf

#102854181
b1 aaaba

#102854182
b0 aaaal
b1100010111101011 aaaay
b1100010111101011 aaaaz

#102854183
b1111111111111111 aaaaw
b1111111111111111 aaabd

#102875015
b1100010111101011 aaaam
b1100010111101011 aaabe

#102875016
b1111111111111111 aaaak
b100 aaaal
b1111111111111111 aaabf

#102895848
b1100010111101011 aaaba

#102895849
b0 aaaal
b1111111111111111 aaaay
b1111111111111111 aaaaz

#102916682
b1111111111111111 aaaam
b1111111111111111 aaabe

#102937515
b1111111111111111 aaaba

#202895849
b100000 aaaak
b100000 aaaaz

#202916682
b100000 aaabe

#202937515
b100110 aaaam
b1 aaaan
b100110 aaabb

#202937516
b100110 aaaak
b100110 aaaaz

#202958349
b100000 aaaaw
b110 aaaax
b100110 aaabe

#202979182
b100111 aaaam
b100110 aaaaw
b100111 aaabb
b100000 aaabc

#202979183
b11001110 aaaak
b11001110 aaaaz

#203000015
b100110 aaabc

#203000016
b100110 aaaak
b100 aaaal
b11001110 aaaaw
b11001110 aaabe
b100110 aaabf

#203020849
b100111 aaaak
b1101011010010110 aaaam
b100110 aaaay
b1101011010010110 aaabb
b11001110 aaabc
b100111 aaabf

#203041682
b1101011010010110 aaaak
b100111 aaaay
b1101011010010110 aaabf

#203062515
b1001000 aaaak
b0 aaaal
b1101011010010110 aaaay
b1001000 aaaaz

#203062516
b1111011000011111 aaaam
b1111011000011111 aaabb

#203083348
b1001000 aaaaw
b1001000 aaabe

#203083349
b1111011000011111 aaaak
b100 aaaal
b1111011000011111 aaabf

#203104181
b1001000 aaabc

#203104182
b11011110 aaaak
b0 aaaal
b1111011000011111 aaaay
b11011110 aaaaz

#203104183
b1100010000101011 aaaam
b1100010000101011 aaabb

#203125015
b11011110 aaaaw
b11011110 aaabe

#203125016
b1100010000101011 aaaak
b100 aaaal
b1100010000101011 aaabf

#203145848
b11011110 aaabc

#203145849
b111101110 aaaak
b0 aaaal
b1100010000101011 aaaay
b111101110 aaaaz

#203145850
b1011110101111101 aaaam
b1011110101111101 aaabb

#203166682
b111101110 aaaaw
b111101110 aaabe

#203166683
b1011110101111101 aaaak
b100 aaaal
b1011110101111101 aaabf

#203187515
b111101110 aaabc

#203187516
b101101001 aaaak
b0 aaaal
b1011110101111101 aaaay
b101101001 aaaaz

#203187517
b101100101100010 aaaam
b101100101100010 aaabb

#203208349
b101101001 aaaaw
b101101001 aaabe

#203208350
b101100101100010 aaaak
b100 aaaal
b101100101100010 aaabf

#203229182
b101101001 aaabc

#203229183
b110001101 aaaak
b0 aaaal
b101100101100010 aaaay
b110001101 aaaaz

#203229184
b100111110011110 aaaam
b100111110011110 aaabb

#203250016
b110001101 aaaaw
b110001101 aaabe

#203250017
b100111110011110 aaaak
b100 aaaal
b100111110011110 aaabf

#203270849
b110001101 aaabc

#203270850
b1111 aaaak
b0 aaaal
b100111110011110 aaaay
b1111 aaaaz

#203270851
b111011000111000 aaaam
b111011000111000 aaabb

#203291683
b1111 aaaaw
b1111 aaabe

#203291684
b111011000111000 aaaak
b100 aaaal
b111011000111000 aaabf

#203312516
b1111 aaabc

#203312517
b100111111 aaaak
b0 aaaal
b111011000111000 aaaay
b100111111 aaaaz

#203312518
b100011000001000 aaaam
b100011000001000 aaabb

#203333350
b100111111 aaaaw
b100111111 aaabe

#203333351
b100011000001000 aaaak
b100 aaaal
b100011000001000 aaabf

#203354183
b100111111 aaabc

#203354184
b100101001 aaaak
b0 aaaal
b100011000001000 aaaay
b100101001 aaaaz

#203354185
b1000110001111011 aaaam
b1000110001111011 aaabb

#203375017
b100101001 aaaaw
b100101001 aaabe

#203375018
b1000110001111011 aaaak
b100 aaaal
b1000110001111011 aaabf

#203395850
b100101001 aaabc

#203395851
b10010100 aaaak
b0 aaaal
b1000110001111011 aaaay
b10010100 aaaaz

#203395852
b111010011010000 aaaam
b111010011010000 aaabb

#203416684
b10010100 aaaaw
b10010100 aaabe

#203416685
b111010011010000 aaaak
b100 aaaal
b111010011010000 aaabf

#203437517
b10010100 aaabc

#203437518
b1001 aaaak
b0 aaaal
b111010011010000 aaaay
b1001 aaaaz

#203437519
b10001001001011 aaaam
b10001001001011 aaabb

#203458351
b1001 aaaaw
b1001 aaabe

#203458352
b10001001001011 aaaak
b100 aaaal
b10001001001011 aaabf

#203479184
b1001 aaabc

#203479185
b110100 aaaak
b0 aaaal
b10001001001011 aaaay
b110100 aaaaz

#203479186
b1100111010010101 aaaam
b1100111010010101 aaabb

#203500018
b110100 aaaaw
b110100 aaabe

#203500019
b1100111010010101 aaaak
b100 aaaal
b1100111010010101 aaabf

#203520851
b110100 aaabc

#203520852
b111100 aaaak
b0 aaaal
b1100111010010101 aaaay
b111100 aaaaz

#203520853
b111000001011011 aaaam
b111000001011011 aaabb

#203541685
b111100 aaaaw
b111100 aaabe

#203541686
b111000001011011 aaaak
b100 aaaal
b111000001011011 aaabf

#203562518
b111100 aaabc

#203562519
b100101011 aaaak
b0 aaaal
b111000001011011 aaaay
b100101011 aaaaz

#203562520
b111110000000 aaaam
b111110000000 aaabb

#203583352
b100101011 aaaaw
b100101011 aaabe

#203583353
b111110000000 aaaak
b100 aaaal
b111110000000 aaabf

#203604185
b100101011 aaabc

#203604186
b10111101 aaaak
b0 aaaal
b111110000000 aaaay
b10111101 aaaaz

#203604187
b111000111110100 aaaam
b111000111110100 aaabb

#203625019
b10111101 aaaaw
b10111101 aaabe

#203625020
b111000111110100 aaaak
b100 aaaal
b111000111110100 aaabf

#203645852
b10111101 aaabc

#203645853
b101100111 aaaak
b0 aaaal
b111000111110100 aaaay
b101100111 aaaaz

#203645854
b1000010111010001 aaaam
b1000010111010001 aaabb

#203666686
b101100111 aaaaw
b101100111 aaabe

#203666687
b1000010111010001 aaaak
b100 aaaal
b1000010111010001 aaabf

#203687519
b101100111 aaabc

#203687520
b101001001 aaaak
b0 aaaal
b1000010111010001 aaaay
b101001001 aaaaz

#203687521
b1111101101110100 aaaam
b1111101101110100 aaabb

#203708353
b101001001 aaaaw
b101001001 aaabe

#203708354
b1111101101110100 aaaak
b100 aaaal
b1111101101110100 aaabf

#203729186
b101001001 aaabc

#203729187
b101001011 aaaak
b0 aaaal
b1111101101110100 aaaay
b101001011 aaaaz

#203729188
b10100011100011 aaaam
b10100011100011 aaabb

#203750020
b101001011 aaaaw
b101001011 aaabe

#203750021
b10100011100011 aaaak
b100 aaaal
b10100011100011 aaabf

#203770853
b101001011 aaabc

#203770854
b1000101 aaaak
b0 aaaal
b10100011100011 aaaay
b1000101 aaaaz

#203770855
b1001111000111010 aaaam
b1001111000111010 aaabb

#203791687
b1000101 aaaaw
b1000101 aaabe

#203791688
b1001111000111010 aaaak
b100 aaaal
b1001111000111010 aaabf

#203812520
b1000101 aaabc

#203812521
b10100000 aaaak
b0 aaaal
b1001111000111010 aaaay
b10100000 aaaaz

#203812522
b110001111011110 aaaam
b110001111011110 aaabb

#203833354
b10100000 aaaaw
b10100000 aaabe

#203833355
b110001111011110 aaaak
b100 aaaal
b110001111011110 aaabf

#203854187
b10100000 aaabc

#203854188
b110000011 aaaak
b0 aaaal
b110001111011110 aaaay
b110000011 aaaaz

#203854189
b100000101010001 aaaam
b100000101010001 aaabb

#203875021
b110000011 aaaaw
b110000011 aaabe

#203875022
b100000101010001 aaaak
b100 aaaal
b100000101010001 aaabf

#203895854
b110000011 aaabc

#203895855
b100001001 aaaak
b0 aaaal
b100000101010001 aaaay
b100001001 aaaaz

#203895856
b11111111001100 aaaam
b11111111001100 aaabb

#203916688
b100001001 aaaaw
b100001001 aaabe

#203916689
b11111111001100 aaaak
b100 aaaal
b11111111001100 aaabf

#203937521
b100001001 aaabc

#203937522
b11101101 aaaak
b0 aaaal
b11111111001100 aaaay
b11101101 aaaaz

#203937523
b1110010000110110 aaaam
b1110010000110110 aaabb

#203958355
b11101101 aaaaw
b11101101 aaabe

