ExoMars2020/Network/traces/network.vcd
$date
     Nov 02, 2018       11:39:23
$end

$version
 SystemC 2.3.2-Accellera --- Oct  2 2018 15:12:53
$end

$timescale
     1 ps
$end

$scope module SystemC $end
$var wire   16  aaaaa  PanCam_channel [15:0]  $end
$var wire   16  aaaab  NavCam_channel [15:0]  $end
$var wire   16  aaaac  ISEM_channel [15:0]  $end
$var wire   16  aaaad  CLUPI_channel [15:0]  $end
$var wire   16  aaaae  Drill_channel [15:0]  $end
$var wire   16  aaaaf  Adron_channel [15:0]  $end
$var wire   16  aaaag  WISDOM_channel [15:0]  $end
$var wire   16  aaaah  Ma_MISS_channel [15:0]  $end
$var wire   16  aaaai  MicrOmega_channel [15:0]  $end
$var wire   16  aaaaj  RLS_channel [15:0]  $end
$var wire   16  aaaak  MOMA_channel [15:0]  $end
$var wire   16  aaaal  PrintUnit_channel [15:0]  $end
$upscope $end
$enddefinitions  $end

$comment
All initial values are dumped below at time 0 sec = 0 timescale units.
$end

$dumpvars
b100000 aaaaa
b100000 aaaab
b100000 aaaac
b100000 aaaad
b100000 aaaae
b100000 aaaaf
b100000 aaaag
b100000 aaaah
b100000 aaaai
b100000 aaaaj
b100000 aaaak
b0 aaaal
$end

#41667
b100001 aaaaa
b100010 aaaab
b100011 aaaac
b100100 aaaad
b100101 aaaae
b100110 aaaaf
b100111 aaaag
b101000 aaaah
b101001 aaaai
b101010 aaaaj
b101011 aaaak

#62500
b100000 aaaal

#83333
b101000 aaaal

#83334
b1011111101 aaaaa
b11101001 aaaab
b1110001100100101 aaaac
b11000011110111 aaaad
b11010000 aaaae
b100111011 aaaaf
b1001110010011011 aaaag
b100 aaaah
b100100 aaaai
b100000 aaaaj
b11011000 aaaak

#104167
b100 aaaal

#125001
b11001110 aaaah

#145834
b11001110 aaaal

#166668
b11100101 aaaah

#187501
b11100101 aaaal

#208335
b10110001 aaaah

#229168
b10110001 aaaal

#250002
b1000011 aaaah

#270835
b1000011 aaaal

#291669
b11011101 aaaah

#312502
b11011101 aaaal

#333336
b11010 aaaah

#354169
b11010 aaaal

#375003
b11000110 aaaah

#395836
b11000110 aaaal

#416670
b10100011 aaaah

#437503
b10100011 aaaal

#458337
b11010011 aaaah

#479170
b11010011 aaaal

#500004
b1110011 aaaah

#520837
b1110011 aaaal

#541671
b10011010 aaaah

#562504
b10011010 aaaal

#583338
b1110111 aaaah

#604171
b1110111 aaaal

#625005
b10010 aaaah

#645838
b10010 aaaal

#666672
b1110 aaaah

#687505
b1110 aaaal

#708339
b11110101 aaaah

#729172
b11110101 aaaal

#750006
b1110100 aaaah

#770839
b1110100 aaaal

#791673
b10111111 aaaah

#812506
b10111111 aaaal

#833340
b1101101 aaaah

#854173
b1101101 aaaal

#875007
b1110001 aaaah

#895840
b1110001 aaaal

#916674
b1010110 aaaah

#937507
b1010110 aaaal

#958341
b101111 aaaah

#979174
b101111 aaaal

#1000008
b1001110 aaaah

#1020841
b1001110 aaaal

#1041675
b11101000 aaaah

#1062508
b11101000 aaaal

#1083342
b10100110 aaaah

#1104175
b10100110 aaaal

#1125009
b111010100100100 aaaah

#1145842
b111010100100100 aaaal

#1166676
b1111111111111111 aaaah

#1187509
b1111111111111111 aaaal

#1208342
b101000 aaaal

#1229175
b100000 aaaal

#1250008
b11101011 aaaaa
b100001 aaaal

#1270841
b1011111101 aaaal

#1291674
b100000 aaaal

#1291675
b1111001011 aaaaa

#1312507
b101000 aaaah
b11101011 aaaal

#1333340
b100000 aaaah
b1111001011 aaaal

#1333342
b111011110 aaaaa

#1354173
b1 aaaal

#1375006
b1 aaaah
b111011110 aaaal

#1375009
b1000010000000111 aaaaa

#1395840
b1100010111101011 aaaal

#1416673
b1100010111101011 aaaah
b1000010000000111 aaaal

#1416676
b1111111111111111 aaaaa

#1437507
b1111111111111111 aaaal

#1458340
b1111111111111111 aaaah

#1479173
b100001 aaaal

#1500006
b100000 aaaal

#1520839
b10100010 aaaaj
b101010 aaaal

#1541672
b100000 aaaal

#1562506
b1001011 aaaaj

#1583338
b100001 aaaaa
b10100010 aaaal

#1604171
b100000 aaaaa
b1001011 aaaal

#1604173
b11111101 aaaaj

#1625004
b1 aaaal

#1645837
b1 aaaaa
b11111101 aaaal

#1645840
b10101011 aaaaj

#1666671
b1100010111101011 aaaal

#1687504
b1100010111101011 aaaaa
b10101011 aaaal

#1687507
b111001 aaaaj

#1708338
b1111111111111111 aaaal

#1729171
b1111111111111111 aaaaa
b111001 aaaal

#1729174
b11001011 aaaaj

#1750007
b11001011 aaaal

#1770841
b1111100 aaaaj

#1791674
b1111100 aaaal

#1812508
b1111011 aaaaj

#1833341
b1111011 aaaal

#1854175
b11010 aaaaj

#1875008
b11010 aaaal

#1895842
b1100010 aaaaj

#1916675
b1100010 aaaal

#1937509
b10000 aaaaj

#1958342
b10000 aaaal

#1979176
b1110011 aaaaj

#2000009
b1110011 aaaal

#2020843
b10110010 aaaaj

#2041676
b10110010 aaaal

#2062510
b11000011 aaaaj

#2083343
b11000011 aaaal

#2104177
b10010110 aaaaj

#2125010
b10010110 aaaal

#2145844
b1101000 aaaaj

#2166677
b1101000 aaaal

#2187511
b11000000 aaaaj

#2208344
b11000000 aaaal

#2229178
b101110 aaaaj

#2250011
b101110 aaaal

#2270845
b10100011 aaaaj

#2291678
b10100011 aaaal

#2312512
b11100011 aaaaj

#2333345
b11100011 aaaal

#2354179
b11011110 aaaaj

#2375012
b11011110 aaaal

#2395846
b1111000 aaaaj

#2416679
b1111000 aaaal

#2437513
b10101110 aaaaj

#2458346
b10101110 aaaal

#2479180
b1000001 aaaaj

#2500013
b1000001 aaaal

#2520847
b100100111000000 aaaaj

#2541680
b100100111000000 aaaal

#2562514
b1111111111111111 aaaaj

#2583347
b1111111111111111 aaaal

#2604180
b101010 aaaal

#2625013
b100000 aaaal

#2645846
b10110111111 aaaag
b100111 aaaal

#2666679
b1001110010011011 aaaal

#2687512
b100000 aaaal

#2687513
b1110101110010110 aaaag

#2708345
b101010 aaaaj
b10110111111 aaaal

#2729178
b100000 aaaaj
b1110101110010110 aaaal

#2729180
b100010000111010 aaaag

#2750011
b1 aaaal

#2770844
b1 aaaaj
b100010000111010 aaaal

#2770847
b110010001011011 aaaag

#2791678
b1100010111101011 aaaal

#2812511
b1100010111101011 aaaaj
b110010001011011 aaaal

#2812514
b1111100110100 aaaag

#2833345
b1111111111111111 aaaal

#2854178
b1111111111111111 aaaaj
b1111100110100 aaaal

#2854181
b1000010100110 aaaag

#2875014
b1000010100110 aaaal

#2895848
b1110000100000010 aaaag

#2916681
b1110000100000010 aaaal

#2937515
b101000100110111 aaaag

#2958348
b101000100110111 aaaal

#2979182
b1101001100110 aaaag

#3000015
b1101001100110 aaaal

#3020849
b110101100001111 aaaag

#3041682
b110101100001111 aaaal

#3062516
b11100000100110 aaaag

#3083349
b11100000100110 aaaal

#3104183
b101001011111110 aaaag

#3125016
b101001011111110 aaaal

#3145850
b1001000101101 aaaag

#3166683
b1001000101101 aaaal

#3187517
b11011001000 aaaag

#3208350
b11011001000 aaaal

#3229184
b1111001001011011 aaaag

#3250017
b1111001001011011 aaaal

#3270851
b1001001111001000 aaaag

#3291684
b1001001111001000 aaaal

#3312518
b111010000001111 aaaag

#3333351
b111010000001111 aaaal

#3354185
b11001111101 aaaag

#3375018
b11001111101 aaaal

#3395852
b11000011011011 aaaag

#3416685
b11000011011011 aaaal

#3437519
b101101111100101 aaaag

#3458352
b101101111100101 aaaal

#3479186
b100000111001100 aaaag

#3500019
b100000111001100 aaaal

#3520853
b1110111100110 aaaag

#3541686
b1110111100110 aaaal

#3562520
b1000000111111000 aaaag

#3583353
b1000000111111000 aaaal

#3604187
b101111110110000 aaaag

#3625020
b101111110110000 aaaal

#3645854
b1010000001001101 aaaag

#3666687
b1010000001001101 aaaal

#3687521
b1111111111111111 aaaag

#3708354
b1111111111111111 aaaal

#3729187
b100111 aaaal

#3750020
b100000 aaaal

#3770853
b111111100101011 aaaac
b100011 aaaal

#3791686
b1110001100100101 aaaal

#3812519
b100000 aaaal

#3812520
b1010000010011101 aaaac

#3833352
b100111 aaaag
b111111100101011 aaaal

#3854185
b100000 aaaag
b1010000010011101 aaaal

#3854187
b100111000000001 aaaac

#3875018
b1 aaaal

#3895851
b1 aaaag
b100111000000001 aaaal

#3895854
b1010100001011000 aaaac

#3916685
b1100010111101011 aaaal

#3937518
b1100010111101011 aaaag
b1010100001011000 aaaal

#3937521
b1111001110 aaaac

#3958352
b1111111111111111 aaaal

#3979185
b1111111111111111 aaaag
b1111001110 aaaal

#3979188
b1110010110111001 aaaac

#4000021
b1110010110111001 aaaal

#4020855
b1100100010011100 aaaac

#4041688
b1100100010011100 aaaal

#4062522
b1101000000000010 aaaac

#4083355
b1101000000000010 aaaal

#4104189
b1101110111100100 aaaac

#4125022
b1101110111100100 aaaal

#4145856
b1000100010111110 aaaac

#4166689
b1000100010111110 aaaal

#4187523
b1110001100011000 aaaac

#4208356
b1110001100011000 aaaal

#4229190
b1100110110000101 aaaac

#4250023
b1100110110000101 aaaal

#4270857
b1110010110110110 aaaac

#4291690
b1110010110110110 aaaal

#4312524
b10111011101010 aaaac

#4333357
b10111011101010 aaaal

#4354191
b1010000111001 aaaac

#4375024
b1010000111001 aaaal

#4395858
b111100010100001 aaaac

#4416691
b111100010100001 aaaal

#4437525
b1101100011110100 aaaac

#4458358
b1101100011110100 aaaal

#4479192
b1111000110000010 aaaac

#4500025
b1111000110000010 aaaal

#4520859
b11101100100111 aaaac

#4541692
b11101100100111 aaaal

#4562526
b110101010111100 aaaac

#4583359
b110101010111100 aaaal

#4604193
b101101101110001 aaaac

#4625026
b101101101110001 aaaal

#4645860
b100111010011110 aaaac

#4666693
b100111010011110 aaaal

#4687527
b1111111001000011 aaaac

#4708360
b1111111001000011 aaaal

#4729194
b10100101100100 aaaac

#4750027
b10100101100100 aaaal

#4770861
b111010011111000 aaaac

#4791694
b111010011111000 aaaal

#4812528
b1111111111111111 aaaac

#4833361
b1111111111111111 aaaal

#4854194
b100011 aaaal

#4875027
b100000 aaaal

#4895860
b10100110 aaaab
b100010 aaaal

#4916693
b11101001 aaaal

#4937526
b100000 aaaal

#4937527
b10010010 aaaab

#4958359
b100011 aaaac
b10100110 aaaal

#4979192
b100000 aaaac
b10010010 aaaal

#4979194
b10101000 aaaab

#5000025
b1 aaaal

#5020858
b1 aaaac
b10101000 aaaal

#5020861
b11110000 aaaab

#5041692
b1100010111101011 aaaal

#5062525
b1100010111101011 aaaac
b11110000 aaaal

#5062528
b11011000 aaaab

#5083359
b1111111111111111 aaaal

#5104192
b1111111111111111 aaaac
b11011000 aaaal

#5104195
b11101 aaaab

#5125028
b11101 aaaal

#5145862
b1110 aaaab

#5166695
b1110 aaaal

#5187529
b1100010 aaaab

#5208362
b1100010 aaaal

#5229196
b11000010 aaaab

#5250029
b11000010 aaaal

#5270863
b10111011 aaaab

#5291696
b10111011 aaaal

#5312530
b11101110 aaaab

#5333363
b11101110 aaaal

#5354197
b10110011 aaaab

#5375030
b10110011 aaaal

#5395864
b1110110 aaaab

#5416697
b1110110 aaaal

#5437531
b11101111 aaaab

#5458364
b11101111 aaaal

#5479198
b1100010 aaaab

#5500031
b1100010 aaaal

#5520865
b110010 aaaab

#5541698
b110010 aaaal

#5562532
b111000 aaaab

#5583365
b111000 aaaal

#5604199
b1010011 aaaab

#5625032
b1010011 aaaal

#5645866
b1100000 aaaab

#5666699
b1100000 aaaal

#5687533
b1001010 aaaab

#5708366
b1001010 aaaal

#5729200
b10001101 aaaab

#5750033
b10001101 aaaal

#5770867
b1011010 aaaab

#5791700
b1011010 aaaal

#5812534
b11101100 aaaab

#5833367
b11101100 aaaal

#5854201
b11001100 aaaab

#5875034
b11001100 aaaal

#5895868
b1101101100000100 aaaab

#5916701
b1101101100000100 aaaal

#5937535
b1111111111111111 aaaab

#5958368
b1111111111111111 aaaal

#5979201
b100010 aaaal

#6000034
b100000 aaaal

#6020867
b11111111011010 aaaad
b100100 aaaal

#6041700
b11000011110111 aaaal

#6062533
b100000 aaaal

#6062534
b111111100 aaaad

#6083366
b100010 aaaab
b11111111011010 aaaal

#6104199
b100000 aaaab
b111111100 aaaal

#6104201
b1111010011110 aaaad

#6125032
b1 aaaal

#6145865
b1 aaaab
b1111010011110 aaaal

#6145868
b1000001100011 aaaad

#6166699
b1100010111101011 aaaal

#6187532
b1100010111101011 aaaab
b1000001100011 aaaal

#6187535
b11100000000100 aaaad

#6208366
b1111111111111111 aaaal

#6229199
b1111111111111111 aaaab
b11100000000100 aaaal

#6229202
b1111101000 aaaad

#6250035
b1111101000 aaaal

#6270869
b10110110010 aaaad

#6291702
b10110110010 aaaal

#6312536
b11111000110011 aaaad

#6333369
b11111000110011 aaaal

#6354203
b11111000010001 aaaad

#6375036
b11111000010001 aaaal

#6395870
b11101111001110 aaaad

#6416703
b11101111001110 aaaal

#6437537
b11100000011001 aaaad

#6458370
b11100000011001 aaaal

#6479204
b1010100011110 aaaad

#6500037
b1010100011110 aaaal

#6520871
b100110110101 aaaad

#6541704
b100110110101 aaaal

#6562538
b10011100101011 aaaad

#6583371
b10011100101011 aaaal

#6604205
b100001001100 aaaad

#6625038
b100001001100 aaaal

#6645872
b1001101001001 aaaad

#6666705
b1001101001001 aaaal

#6687539
b10010010101101 aaaad

#6708372
b10010010101101 aaaal

#6729206
b110010010111 aaaad

#6750039
b110010010111 aaaal

#6770873
b1011001100010 aaaad

#6791706
b1011001100010 aaaal

#6812540
b10110001011011 aaaad

#6833373
b10110001011011 aaaal

#6854207
b10101100000100 aaaad

#6875040
b10101100000100 aaaal

#6895874
b11001001010001 aaaad

#6916707
b11001001010001 aaaal

#6937541
b1100000100010 aaaad

#6958374
b1100000100010 aaaal

#6979208
b1001 aaaad

#7000041
b1001 aaaal

#7020875
b1011011011010010 aaaad

#7041708
b1011011011010010 aaaal

#7062542
b1111111111111111 aaaad

#7083375
b1111111111111111 aaaal

#7104208
b100100 aaaal

#7125041
b100000 aaaal

#7145874
b100 aaaae
b100101 aaaal

#7166707
b11010000 aaaal

#7187540
b100000 aaaal

#7187541
b11010110 aaaae

#7208373
b100100 aaaad
b100 aaaal

#7229206
b100000 aaaad
b11010110 aaaal

#7229208
b10011001 aaaae

#7250039
b1 aaaal

#7270872
b1 aaaad
b10011001 aaaal

#7291706
b1100010111101011 aaaal

#7312539
b1100010111101011 aaaad
b10011001 aaaal

#7312542
b11000101 aaaae

#7333373
b1111111111111111 aaaal

#7354206
b1111111111111111 aaaad
b11000101 aaaal

#7354209
b0 aaaae

#7375042
b0 aaaal

#7395876
b10010101 aaaae

#7416709
b10010101 aaaal

#7437543
b1000010 aaaae

#7458376
b1000010 aaaal

#7479210
b10111100 aaaae

#7500043
b10111100 aaaal

#7520877
b11000101 aaaae

#7541710
b11000101 aaaal

#7562544
b11111000 aaaae

#7583377
b11111000 aaaal

#7604211
b11000 aaaae

#7625044
b11000 aaaal

#7645878
b10011000 aaaae

#7666711
b10011000 aaaal

#7687545
b100111 aaaae

#7708378
b100111 aaaal

#7729212
b10001111 aaaae

#7750045
b10001111 aaaal

#7770879
b110101 aaaae

#7791712
b110101 aaaal

#7812546
b1001 aaaae

#7833379
b1001 aaaal

#7854213
b1000100 aaaae

#7875046
b1000100 aaaal

#7895880
b10010011 aaaae

#7916713
b10010011 aaaal

#7937547
b11011100 aaaae

#7958380
b11011100 aaaal

#7979214
b1100001 aaaae

#8000047
b1100001 aaaal

#8020881
b10010110 aaaae

#8041714
b10010110 aaaal

#8062548
b10111010 aaaae

#8083381
b10111010 aaaal

#8104215
b1000 aaaae

#8125048
b1000 aaaal

#8145882
b110011001010000 aaaae

#8166715
b110011001010000 aaaal

#8187549
b1111111111111111 aaaae

#8208382
b1111111111111111 aaaal

#8229215
b100101 aaaal

#8250048
b100000 aaaal

#8270881
b100110101 aaaaf
b100110 aaaal

#8291714
b100111011 aaaal

#8312547
b100000 aaaal

#8312548
b101011100 aaaaf

#8333380
b100101 aaaae
b100110101 aaaal

#8354213
b100000 aaaae
b101011100 aaaal

#8354215
b1100001 aaaaf

#8375046
b1 aaaal

#8395879
b1 aaaae
b1100001 aaaal

#8395882
b1100101 aaaaf

#8416713
b1100010111101011 aaaal

#8437546
b1100010111101011 aaaae
b1100101 aaaal

#8437549
b110110001 aaaaf

#8458380
b1111111111111111 aaaal

#8479213
b1111111111111111 aaaae
b110110001 aaaal

#8479216
b110101100 aaaaf

#8500049
b110101100 aaaal

#8520883
b101011100 aaaaf

#8541716
b101011100 aaaal

#8562550
b100101 aaaaf

#8583383
b100101 aaaal

#8604217
b10111111 aaaaf

#8625050
b10111111 aaaal

#8645884
b101001000 aaaaf

#8666717
b101001000 aaaal

#8687551
b111010101 aaaaf

#8708384
b111010101 aaaal

#8729218
b10011100 aaaaf

#8750051
b10011100 aaaal

#8770885
b111110110 aaaaf

#8791718
b111110110 aaaal

#8812552
b110001010 aaaaf

#8833385
b110001010 aaaal

#8854219
b100111010 aaaaf

#8875052
b100111010 aaaal

#8895886
b11011001 aaaaf

#8916719
b11011001 aaaal

#8937553
b11001010 aaaaf

#8958386
b11001010 aaaal

#8979220
b11010101 aaaaf

#9000053
b11010101 aaaal

#9020887
b100100101 aaaaf

#9041720
b100100101 aaaal

#9062554
b101010010 aaaaf

#9083387
b101010010 aaaal

#9104221
b11010 aaaaf

#9125054
b11010 aaaal

#9145888
b10 aaaaf

#9166721
b10 aaaal

#9187555
b110000101 aaaaf

#9208388
b110000101 aaaal

#9229222
b110110000 aaaaf

#9250055
b110110000 aaaal

#9270889
b1011000001101011 aaaaf

#9291722
b1011000001101011 aaaal

#9312556
b1111111111111111 aaaaf

#9333389
b1111111111111111 aaaal

#9354222
b100110 aaaal

#9375055
b100000 aaaal

#9395888
b100000 aaaak
b101011 aaaal

#9416721
b11011000 aaaal

#9437554
b100000 aaaal

#9437555
b1010110 aaaak

#9458387
b100110 aaaaf

#9479220
b100000 aaaaf
b1010110 aaaal

#9479222
b1110010 aaaak

#9500053
b1 aaaal

#9520886
b1 aaaaf
b1110010 aaaal

#9520889
b10001001 aaaak

#9541720
b1100010111101011 aaaal

#9562553
b1100010111101011 aaaaf
b10001001 aaaal

#9562556
b10001 aaaak

#9583387
b1111111111111111 aaaal

#9604220
b1111111111111111 aaaaf
b10001 aaaal

#9604223
b1110000 aaaak

#9625056
b1110000 aaaal

#9645890
b10010110 aaaak

#9666723
b10010110 aaaal

#9687557
b10001100 aaaak

#9708390
b10001100 aaaal

#9729224
b1101101 aaaak

#9750057
b1101101 aaaal

#9770891
b111100 aaaak

#9791724
b111100 aaaal

#9812558
b100 aaaak

#9833391
b100 aaaal

#9854225
b1101111 aaaak

#9875058
b1101111 aaaal

#9895892
b10001100 aaaak

#9916725
b10001100 aaaal

#9937559
b1001 aaaak

#9958392
b1001 aaaal

#9979226
b11100101 aaaak

#10000059
b11100101 aaaal

#10020893
b1110000 aaaak

#10041726
b1110000 aaaal

#10062560
b1111 aaaak

#10083393
b1111 aaaal

#10104227
b11000001 aaaak

#10125060
b11000001 aaaal

#10145894
b11011011 aaaak

#10166727
b11011011 aaaal

#10187561
b10010101 aaaak

#10208394
b10010101 aaaal

#10229228
b10100010 aaaak

#10250061
b10100010 aaaal

#10270895
b11110011 aaaak

#10291728
b11110011 aaaal

#10312562
b100 aaaak

#10333395
b100 aaaal

#10354229
b1011000 aaaak

#10375062
b1011000 aaaal

#10395896
b110111110000011 aaaak

#10416729
b110111110000011 aaaal

#10437563
b1111111111111111 aaaak

#10458396
b1111111111111111 aaaal

#10479229
b101011 aaaal

#10500062
b100000 aaaal

#10520895
b11100010 aaaai
b101001 aaaal

#10541728
b100100 aaaal

#10562561
b100000 aaaal

#10562562
b1000101 aaaai

#10583394
b101011 aaaak
b11100010 aaaal

#10604227
b100000 aaaak
b1000101 aaaal

#10604229
b10011011 aaaai

#10625060
b1 aaaal

#10645893
b1 aaaak
b10011011 aaaal

#10645896
b1001100 aaaai

#10666727
b1100010111101011 aaaal

#10687560
b1100010111101011 aaaak
b1001100 aaaal

#10687563
b1110001 aaaai

#10708394
b1111111111111111 aaaal

#10729227
b1111111111111111 aaaak
b1110001 aaaal

#10729230
b111111 aaaai

#10750063
b111111 aaaal

#10770897
b10000001 aaaai

#10791730
b10000001 aaaal

#10812564
b10111101 aaaai

#10833397
b10111101 aaaal

#10854231
b111 aaaai

#10875064
b111 aaaal

#10895898
b11001111 aaaai

#10916731
b11001111 aaaal

#10937565
b11100101 aaaai

#10958398
b11100101 aaaal

#10979232
b1111 aaaai

#11000065
b1111 aaaal

#11020899
b11001011 aaaai

#11041732
b11001011 aaaal

#11062566
b1001000 aaaai

#11083399
b1001000 aaaal

#11104233
b101 aaaai

#11125066
b101 aaaal

#11145900
b11 aaaai

#11166733
b11 aaaal

#11187567
b1001110 aaaai

#11208400
b1001110 aaaal

#11229234
b11011110 aaaai

#11250067
b11011110 aaaal

#11270901
b11000 aaaai

#11291734
b11000 aaaal

#11312568
b10111100 aaaai

#11333401
b10111100 aaaal

#11354235
b11000001 aaaai

#11375068
b11000001 aaaal

#11395902
b11101111 aaaai

#11416735
b11101111 aaaal

#11437569
b1110111 aaaai

#11458402
b1110111 aaaal

#11479236
b110101 aaaai

#11500069
b110101 aaaal

#11520903
b111010100010000 aaaai

#11541736
b111010100010000 aaaal

#11562570
b1111111111111111 aaaai

#11583403
b1111111111111111 aaaal

#11604236
b101001 aaaal

#11645903
b100000 aaaal

#11666736
b101001 aaaai

#11687569
b100000 aaaai

#11687570
b1 aaaal

#11708403
b1 aaaai

#11729237
b1100010111101011 aaaal

#11750070
b1100010111101011 aaaai

#11770904
b1111111111111111 aaaal

#11791737
b1111111111111111 aaaai

#101479173
b100000 aaaah

#101520840
b101000 aaaah

#101541673
b100000 aaaal

#101562506
b101000 aaaal

#101562507
b11000100 aaaah

#101583340
b11000100 aaaal

#101604174
b1111001 aaaah

#101625007
b1111001 aaaal

#101645841
b10101001 aaaah

#101666674
b10101001 aaaal

#101687508
b110011 aaaah

#101708341
b110011 aaaal

#101729175
b11110010 aaaah

#101750004
b100000 aaaaa

#101750008
b11110010 aaaal

#101770842
b100101 aaaah

#101791671
b100001 aaaaa

#101791675
b100101 aaaal

#101812509
b110011 aaaah

#101833338
b101101101 aaaaa

#101833342
b110011 aaaal

#101854176
b11001110 aaaah

#101875009
b11001110 aaaal

#101895843
b10110001 aaaah

#101916676
b10110001 aaaal

#101937510
b11000 aaaah

#101958343
b11000 aaaal

#101979177
b10101110 aaaah

#102000010
b10101110 aaaal

#102020844
b10011001 aaaah

#102041677
b10011001 aaaal

#102062511
b11010 aaaah

#102083344
b11010 aaaal

#102104178
b11111001 aaaah

#102125011
b11111001 aaaal

#102145845
b1101111 aaaah

#102166678
b1101111 aaaal

#102187512
b101011 aaaah

#102208345
b101011 aaaal

#102229179
b10101101 aaaah

#102250012
b10101101 aaaal

#102270846
b11000100 aaaah

#102291679
b11000100 aaaal

#102312513
b11001100 aaaah

#102333346
b11001100 aaaal

#102354180
b100 aaaah

#102375013
b100 aaaal

#102395847
b11110010 aaaah

#102416680
b11110010 aaaal

#102437514
b11100010 aaaah

#102458347
b11100010 aaaal

#102479181
b10011010 aaaah

#102500014
b10011010 aaaal

#102520848
b111010 aaaah

#102541681
b111010 aaaal

#102562515
b1000011 aaaah

#102583348
b1000011 aaaal

#102604182
b1001011110001101 aaaah

#102625015
b1001011110001101 aaaal

#102645849
b1111111111111111 aaaah

#102666682
b1111111111111111 aaaal

#102687515
b101000 aaaal

#102708348
b100000 aaaal

#102729181
b1101011001 aaaaa
b100001 aaaal

#102750014
b101101101 aaaal

#102770847
b100000 aaaal

#102770848
b111000110 aaaaa

#102791680
b101000 aaaah
b1101011001 aaaal

#102812513
b100000 aaaah
b111000110 aaaal

#102812515
b1001111100 aaaaa

#102833346
b1 aaaal

#102854179
b1 aaaah
b1001111100 aaaal

#102854182
b1111010110111011 aaaaa

#102875011
b100000 aaaaj

#102875013
b1100010111101011 aaaal

#102895846
b1100010111101011 aaaah
b1111010110111011 aaaal

#102895849
b1111111111111111 aaaaa

#102916678
b101010 aaaaj

#102916680
b1111111111111111 aaaal

#102937513
b1111111111111111 aaaah

#102958345
b111101 aaaaj

#102958346
b100001 aaaal

#102979179
b100000 aaaal

#103000012
b11110110 aaaaj
b101010 aaaal

#103020845
b111101 aaaal

#103041678
b100000 aaaal

#103041679
b1101010 aaaaj

#103062511
b100001 aaaaa
b11110110 aaaal

#103083344
b100000 aaaaa
b1101010 aaaal

#103083346
b10100011 aaaaj

#103104177
b1 aaaal

#103125010
b1 aaaaa
b10100011 aaaal

#103125013
b10010111 aaaaj

#103145844
b1100010111101011 aaaal

#103166677
b1100010111101011 aaaaa
b10010111 aaaal

#103166680
b11011001 aaaaj

#103187511
b1111111111111111 aaaal

#103208344
b1111111111111111 aaaaa
b11011001 aaaal

#103208347
b1011111 aaaaj

#103229180
b1011111 aaaal

#103250014
b10010001 aaaaj

#103270847
b10010001 aaaal

#103291681
b10011000 aaaaj

#103312514
b10011000 aaaal

#103333348
b1111011 aaaaj

#103354181
b1111011 aaaal

#103375015
b1 aaaaj

#103395848
b1 aaaal

#103416682
b11100001 aaaaj

#103437515
b11100001 aaaal

#103458349
b10101010 aaaaj

#103479182
b10101010 aaaal

#103500016
b10110010 aaaaj

#103520849
b10110010 aaaal

#103541683
b1110100 aaaaj

#103562516
b1110100 aaaal

#103583350
b11011101 aaaaj

#103604183
b11011101 aaaal

#103625017
b10000111 aaaaj

#103645850
b10000111 aaaal

#103666684
b11101001 aaaaj

#103687517
b11101001 aaaal

#103708351
b11000 aaaaj

#103729184
b11000 aaaal

#103750018
b110011 aaaaj

#103770851
b110011 aaaal

#103791685
b11011 aaaaj

#103812518
b11011 aaaal

#103833352
b1010000 aaaaj

#103854185
b1010000 aaaal

#103875019
b10000010 aaaaj

#103895852
b10000010 aaaal

#103916686
b101101 aaaaj

#103937519
b101101 aaaal

#103958353
b11110110 aaaaj

#103979186
b11110110 aaaal

#104000018
b100000 aaaag

#104000020
b1001011000101001 aaaaj

#104020853
b1001011000101001 aaaal

#104041685
b100111 aaaag

#104041687
b1111111111111111 aaaaj

#104062520
b1111111111111111 aaaal

#104083352
b101000000010001 aaaag

#104083353
b101010 aaaal

#104104186
b100000 aaaal

#104125019
b1111001101000011 aaaag
b100111 aaaal

#104145852
b101000000010001 aaaal

#104166685
b100000 aaaal

#104166686
b1101110111101101 aaaag

#104187518
b101010 aaaaj
b1111001101000011 aaaal

#104208351
b100000 aaaaj
b1101110111101101 aaaal

#104208353
b1001010111110 aaaag

#104229184
b1 aaaal

#104250017
b1 aaaaj
b1001010111110 aaaal

#104250020
b1010011100101 aaaag

#104270851
b1100010111101011 aaaal

#104291684
b1100010111101011 aaaaj
b1010011100101 aaaal

#104291687
b10000111111000 aaaag

#104312518
b1111111111111111 aaaal

#104333351
b1111111111111111 aaaaj
b10000111111000 aaaal

#104333354
b1100110011000110 aaaag

#104354187
b1100110011000110 aaaal

#104375021
b10101000100101 aaaag

#104395854
b10101000100101 aaaal

#104416688
b101000111010001 aaaag

#104437521
b101000111010001 aaaal

#104458355
b10001011100001 aaaag

#104479188
b10001011100001 aaaal

#104500022
b100001100001010 aaaag

#104520855
b100001100001010 aaaal

#104541689
b1101011111100011 aaaag

#104562522
b1101011111100011 aaaal

#104583356
b11011101111 aaaag

#104604189
b11011101111 aaaal

#104625023
b11000101111011 aaaag

#104645856
b11000101111011 aaaal

#104666690
b101010001100101 aaaag

#104687523
b101010001100101 aaaal

#104708357
b1001101001010101 aaaag

#104729190
b1001101001010101 aaaal

#104750024
b100110101111100 aaaag

#104770857
b100110101111100 aaaal

#104791691
b111111110101010 aaaag

#104812524
b111111110101010 aaaal

#104833358
b11000010011101 aaaag

#104854191
b11000010011101 aaaal

#104875025
b111001001000001 aaaag

#104895858
b111001001000001 aaaal

#104916692
b1010011100011110 aaaag

#104937525
b1010011100011110 aaaal

#104958359
b11100000001100 aaaag

#104979192
b11100000001100 aaaal

#105000026
b11111110001100 aaaag

#105020859
b11111110001100 aaaal

#105041693
b10111011010010 aaaag

#105062526
b10111011010010 aaaal

#105083360
b101011011100001 aaaag

#105104193
b101011011100001 aaaal

#105125025
b100000 aaaac

#105125027
b1111110000011001 aaaag

#105145860
b1111110000011001 aaaal

#105166692
b100011 aaaac

#105166694
b1111111111111111 aaaag

#105187527
b1111111111111111 aaaal

#105208359
b1101000111001010 aaaac

#105208360
b100111 aaaal

#105229193
b100000 aaaal

#105250026
b100110111011000 aaaac
b100011 aaaal

#105270859
b1101000111001010 aaaal

#105291692
b100000 aaaal

#105291693
b111000010001011 aaaac

#105312525
b100111 aaaag
b100110111011000 aaaal

#105333358
b100000 aaaag
b111000010001011 aaaal

#105333360
b110000111 aaaac

#105354191
b1 aaaal

#105375024
b1 aaaag
b110000111 aaaal

#105375027
b1001101010001 aaaac

#105395858
b1100010111101011 aaaal

#105416691
b1100010111101011 aaaag
b1001101010001 aaaal

#105416694
b1010110000001011 aaaac

#105437525
b1111111111111111 aaaal

#105458358
b1111111111111111 aaaag
b1010110000001011 aaaal

#105458361
b111010101100001 aaaac

#105479194
b111010101100001 aaaal

#105500028
b1100011111101101 aaaac

#105520861
b1100011111101101 aaaal

#105541695
b111010111101 aaaac

#105562528
b111010111101 aaaal

#105583362
b1001100100010110 aaaac

#105604195
b1001100100010110 aaaal

#105625029
b1000110101010101 aaaac

#105645862
b1000110101010101 aaaal

#105666696
b100100001001010 aaaac

#105687529
b100100001001010 aaaal

#105708363
b11010100100100 aaaac

#105729196
b11010100100100 aaaal

#105750030
b1011010000011100 aaaac

