ExoMars2020/Network/traces/network.vcd
$date
     Nov 02, 2018       13:42:11
$end

$version
 SystemC 2.3.2-Accellera --- Oct  2 2018 15:12:53
$end

$timescale
     1 ps
$end

$scope module SystemC $end
$var wire   16  aaaaa  PanCam_channel [15:0]  $end
$var wire   16  aaaab  NavCam_channel [15:0]  $end
$var wire   16  aaaac  ISEM_channel [15:0]  $end
$var wire   16  aaaad  CLUPI_channel [15:0]  $end
$var wire   16  aaaae  Drill_channel [15:0]  $end
$var wire   16  aaaaf  Adron_channel [15:0]  $end
$var wire   16  aaaag  WISDOM_channel [15:0]  $end
$var wire   16  aaaah  Ma_MISS_channel [15:0]  $end
$var wire   16  aaaai  MicrOmega_channel [15:0]  $end
$var wire   16  aaaaj  RLS_channel [15:0]  $end
$var wire   16  aaaak  MOMA_channel [15:0]  $end
$var wire   16  aaaal  PrintUnit_channel [15:0]  $end
$upscope $end
$enddefinitions  $end

$comment
All initial values are dumped below at time 0 sec = 0 timescale units.
$end

$dumpvars
b100000 aaaaa
b100000 aaaab
b100000 aaaac
b100000 aaaad
b100000 aaaae
b100000 aaaaf
b100000 aaaag
b100000 aaaah
b100000 aaaai
b100000 aaaaj
b100000 aaaak
b0 aaaal
$end

#41667
b100001 aaaaa
b100010 aaaab
b100011 aaaac
b100100 aaaad
b100101 aaaae
b100110 aaaaf
b100111 aaaag
b101000 aaaah
b101001 aaaai
b101010 aaaaj
b101011 aaaak

#62500
b100000 aaaal

#83333
b101000 aaaal

#83334
b1110111010 aaaaa
b11101100 aaaab
b1011010110001010 aaaac
b1001011110111 aaaad
b10001101 aaaae
b100100000 aaaaf
b1100010000111100 aaaag
b0 aaaah
b1101101 aaaai
b1011101 aaaaj
b10011010 aaaak

#104167
b0 aaaal

#125001
b11001000 aaaah

#145834
b11001000 aaaal

#166668
b11010000 aaaah

#187501
b11010000 aaaal

#208335
b1000000 aaaah

#229168
b1000000 aaaal

#250002
b1011001 aaaah

#270835
b1011001 aaaal

#291669
b1101010 aaaah

#312502
b1101010 aaaal

#333336
b110100 aaaah

#354169
b110100 aaaal

#375003
b1100001 aaaah

#395836
b1100001 aaaal

#416670
b1001000 aaaah

#437503
b1001000 aaaal

#458337
b10000000 aaaah

#479170
b10000000 aaaal

#500004
b100001 aaaah

#520837
b100001 aaaal

#541671
b111110 aaaah

#562504
b111110 aaaal

#583338
b11010111 aaaah

#604171
b11010111 aaaal

#625005
b101 aaaah

#645838
b101 aaaal

#666672
b10110100 aaaah

#687505
b10110100 aaaal

#708339
b1011 aaaah

#729172
b1011 aaaal

#750006
b1111001 aaaah

#770839
b1111001 aaaal

#791673
b11000 aaaah

#812506
b11000 aaaal

#833340
b101011 aaaah

#854173
b101011 aaaal

#875007
b110010 aaaah

#895840
b110010 aaaal

#916674
b10101100 aaaah

#937507
b10101100 aaaal

#958341
b100010 aaaah

#979174
b100010 aaaal

#1000008
b1010 aaaah

#1020841
b1010 aaaal

#1041675
b1111011 aaaah

#1062508
b1111011 aaaal

#1083342
b100100 aaaah

#1104175
b100100 aaaal

#1125009
b111101000101010 aaaah

#1145842
b111101000101010 aaaal

#1166676
b1111111111111111 aaaah

#1187509
b1111111111111111 aaaal

#1208342
b101000 aaaal

#1229175
b100000 aaaal

#1250008
b1100010001 aaaaa
b100001 aaaal

#1270841
b1110111010 aaaal

#1291674
b100000 aaaal

#1291675
b1100110010 aaaaa

#1312507
b101000 aaaah
b1100010001 aaaal

#1333340
b100000 aaaah
b1100110010 aaaal

#1333342
b100101 aaaaa

#1354173
b1 aaaal

#1375006
b1 aaaah
b100101 aaaal

#1375009
b1010100101100100 aaaaa

#1395840
b1100010111101011 aaaal

#1416673
b1100010111101011 aaaah
b1010100101100100 aaaal

#1416676
b1111111111111111 aaaaa

#1437507
b1111111111111111 aaaal

#1458340
b1111111111111111 aaaah

#1479173
b100001 aaaal

#1500006
b100000 aaaal

#1520839
b11101010 aaaaj
b101010 aaaal

#1541672
b1011101 aaaal

#1562505
b100000 aaaal

#1562506
b1010111 aaaaj

#1583338
b100001 aaaaa
b11101010 aaaal

#1604171
b100000 aaaaa
b1010111 aaaal

#1604173
b100011 aaaaj

#1625004
b1 aaaal

#1645837
b1 aaaaa
b100011 aaaal

#1645840
b100010 aaaaj

#1666671
b1100010111101011 aaaal

#1687504
b1100010111101011 aaaaa
b100010 aaaal

#1687507
b11101111 aaaaj

#1708338
b1111111111111111 aaaal

#1729171
b1111111111111111 aaaaa
b11101111 aaaal

#1729174
b1100000 aaaaj

#1750007
b1100000 aaaal

#1770841
b11001111 aaaaj

#1791674
b11001111 aaaal

#1812508
b10101011 aaaaj

#1833341
b10101011 aaaal

#1854175
b111001 aaaaj

#1875008
b111001 aaaal

#1895842
b11000010 aaaaj

#1916675
b11000010 aaaal

#1937509
b10000001 aaaaj

#1958342
b10000001 aaaal

#1979176
b11110111 aaaaj

#2000009
b11110111 aaaal

#2020843
b10010101 aaaaj

#2041676
b10010101 aaaal

#2062510
b111001 aaaaj

#2083343
b111001 aaaal

#2104177
b1100110 aaaaj

#2125010
b1100110 aaaal

#2145844
b1000111 aaaaj

#2166677
b1000111 aaaal

#2187511
b1101011 aaaaj

#2208344
b1101011 aaaal

#2229178
b1001010 aaaaj

#2250011
b1001010 aaaal

#2270845
b111 aaaaj

#2291678
b111 aaaal

#2312512
b11101111 aaaaj

#2333345
b11101111 aaaal

#2354179
b11001000 aaaaj

#2375012
b11001000 aaaal

#2395846
b10111010 aaaaj

#2416679
b10111010 aaaal

#2437513
b1111000 aaaaj

#2458346
b1111000 aaaal

#2479180
b1010101 aaaaj

#2500013
b1010101 aaaal

#2520847
b1110111001111100 aaaaj

#2541680
b1110111001111100 aaaal

#2562514
b1111111111111111 aaaaj

#2583347
b1111111111111111 aaaal

#2604180
b101010 aaaal

#2625013
b100000 aaaal

#2645846
b110010010011101 aaaag
b100111 aaaal

#2666679
b1100010000111100 aaaal

#2687512
b100000 aaaal

#2687513
b1101010010010111 aaaag

#2708345
b101010 aaaaj
b110010010011101 aaaal

#2729178
b100000 aaaaj
b1101010010010111 aaaal

#2729180
b100110001000001 aaaag

#2750011
b1 aaaal

#2770844
b1 aaaaj
b100110001000001 aaaal

#2770847
b1100011000011101 aaaag

#2791678
b1100010111101011 aaaal

#2812511
b1100010111101011 aaaaj
b1100011000011101 aaaal

#2812514
b1011000111001111 aaaag

#2833345
b1111111111111111 aaaal

#2854178
b1111111111111111 aaaaj
b1011000111001111 aaaal

#2854181
b101100010110000 aaaag

#2875014
b101100010110000 aaaal

#2895848
b11101000010011 aaaag

#2916681
b11101000010011 aaaal

#2937515
b1011000100110 aaaag

#2958348
b1011000100110 aaaal

#2979182
b1000011011100000 aaaag

#3000015
b1000011011100000 aaaal

#3020849
b1000001001010001 aaaag

#3041682
b1000001001010001 aaaal

#3062516
b1100011000101010 aaaag

#3083349
b1100011000101010 aaaal

#3104183
b111001001011000 aaaag

#3125016
b111001001011000 aaaal

#3145850
b111000100010000 aaaag

#3166683
b111000100010000 aaaal

#3187517
b1000010101100010 aaaag

#3208350
b1000010101100010 aaaal

#3229184
b111100110100100 aaaag

#3250017
b111100110100100 aaaal

#3270851
b110111110110011 aaaag

#3291684
b110111110110011 aaaal

#3312518
b1000101111010111 aaaag

#3333351
b1000101111010111 aaaal

#3354185
b1000010101100010 aaaag

#3375018
b1000010101100010 aaaal

#3395852
b1101010110001101 aaaag

#3416685
b1101010110001101 aaaal

#3437519
b101010101111111 aaaag

#3458352
b101010101111111 aaaal

#3479186
b1011111100100 aaaag

#3500019
b1011111100100 aaaal

#3520853
b10110110010010 aaaag

#3541686
b10110110010010 aaaal

#3562520
b1101011010010010 aaaag

#3583353
b1101011010010010 aaaal

#3604187
b110001111010101 aaaag

#3625020
b110001111010101 aaaal

#3645854
b1101101001001110 aaaag

#3666687
b1101101001001110 aaaal

#3687521
b1111111111111111 aaaag

#3708354
b1111111111111111 aaaal

#3729187
b100111 aaaal

#3750020
b100000 aaaal

#3770853
b1000110111110100 aaaac
b100011 aaaal

#3791686
b1011010110001010 aaaal

#3812519
b100000 aaaal

#3812520
b1101010110000110 aaaac

#3833352
b100111 aaaag
b1000110111110100 aaaal

#3854185
b100000 aaaag
b1101010110000110 aaaal

#3854187
b111010011010110 aaaac

#3875018
b1 aaaal

#3895851
b1 aaaag
b111010011010110 aaaal

#3895854
b1011111000011011 aaaac

#3916685
b1100010111101011 aaaal

#3937518
b1100010111101011 aaaag
b1011111000011011 aaaal

#3937521
b1010000001101100 aaaac

#3958352
b1111111111111111 aaaal

#3979185
b1111111111111111 aaaag
b1010000001101100 aaaal

#3979188
b1100111111011001 aaaac

#4000021
b1100111111011001 aaaal

#4020855
b10110100110110 aaaac

#4041688
b10110100110110 aaaal

#4062522
b110101110100111 aaaac

#4083355
b110101110100111 aaaal

#4104189
b1000110010001001 aaaac

#4125022
b1000110010001001 aaaal

#4145856
b110110111011111 aaaac

#4166689
b110110111011111 aaaal

#4187523
b1001011000101000 aaaac

#4208356
b1001011000101000 aaaal

#4229190
b10011110001001 aaaac

#4250023
b10011110001001 aaaal

#4270857
b1100101001101110 aaaac

#4291690
b1100101001101110 aaaal

#4312524
b1100100001100100 aaaac

#4333357
b1100100001100100 aaaal

#4354191
b1111010000100000 aaaac

#4375024
b1111010000100000 aaaal

#4395858
b111111111111010 aaaac

#4416691
b111111111111010 aaaal

#4437525
b1101110110010010 aaaac

#4458358
b1101110110010010 aaaal

#4479192
b1111001110010100 aaaac

#4500025
b1111001110010100 aaaal

#4520859
b110110000001001 aaaac

#4541692
b110110000001001 aaaal

#4562526
b111001010111011 aaaac

#4583359
b111001010111011 aaaal

#4604193
b1000001011100000 aaaac

#4625026
b1000001011100000 aaaal

#4645860
b1001001011110010 aaaac

#4666693
b1001001011110010 aaaal

#4687527
b111110001001101 aaaac

#4708360
b111110001001101 aaaal

#4729194
b10000011111100 aaaac

#4750027
b10000011111100 aaaal

#4770861
b1010110000100110 aaaac

#4791694
b1010110000100110 aaaal

#4812528
b1111111111111111 aaaac

#4833361
b1111111111111111 aaaal

#4854194
b100011 aaaal

#4875027
b100000 aaaal

#4895860
b11010111 aaaab
b100010 aaaal

#4916693
b11101100 aaaal

#4937526
b100000 aaaal

#4937527
b10001011 aaaab

#4958359
b100011 aaaac
b11010111 aaaal

#4979192
b100000 aaaac
b10001011 aaaal

#4979194
b1000111 aaaab

#5000025
b1 aaaal

#5020858
b1 aaaac
b1000111 aaaal

#5020861
b10100000 aaaab

#5041692
b1100010111101011 aaaal

#5062525
b1100010111101011 aaaac
b10100000 aaaal

#5062528
b10010111 aaaab

#5083359
b1111111111111111 aaaal

#5104192
b1111111111111111 aaaac
b10010111 aaaal

#5104195
b1011000 aaaab

#5125028
b1011000 aaaal

#5145862
b1110111 aaaab

#5166695
b1110111 aaaal

#5187529
b101 aaaab

#5208362
b101 aaaal

#5229196
b1110010 aaaab

#5250029
b1110010 aaaal

#5270863
b10111110 aaaab

#5291696
b10111110 aaaal

#5312530
b10 aaaab

#5333363
b10 aaaal

#5354197
b11001111 aaaab

#5375030
b11001111 aaaal

#5395864
b100 aaaab

#5416697
b100 aaaal

#5437531
b11011000 aaaab

#5458364
b11011000 aaaal

#5479198
b10010000 aaaab

#5500031
b10010000 aaaal

#5520865
b10010001 aaaab

#5541698
b10010001 aaaal

#5562532
b10101011 aaaab

#5583365
b10101011 aaaal

#5604199
b10010000 aaaab

#5625032
b10010000 aaaal

#5645866
b11101101 aaaab

#5666699
b11101101 aaaal

#5687533
b110 aaaab

#5708366
b110 aaaal

#5729200
b10111001 aaaab

#5750033
b10111001 aaaal

#5770867
b11101 aaaab

#5791700
b11101 aaaal

#5812534
b11 aaaab

#5833367
b11 aaaal

#5854201
b1100111 aaaab

#5875034
b1100111 aaaal

#5895868
b1100110111111100 aaaab

#5916701
b1100110111111100 aaaal

#5937535
b1111111111111111 aaaab

#5958368
b1111111111111111 aaaal

#5979201
b100010 aaaal

#6000034
b100000 aaaal

#6020867
b10011010100001 aaaad
b100100 aaaal

#6041700
b1001011110111 aaaal

#6062533
b100000 aaaal

#6062534
b1100100110101 aaaad

#6083366
b100010 aaaab
b10011010100001 aaaal

#6104199
b100000 aaaab
b1100100110101 aaaal

#6104201
b11000100001111 aaaad

#6125032
b1 aaaal

#6145865
b1 aaaab
b11000100001111 aaaal

#6145868
b1010110100001 aaaad

#6166699
b1100010111101011 aaaal

#6187532
b1100010111101011 aaaab
b1010110100001 aaaal

#6187535
b11101101110111 aaaad

#6208366
b1111111111111111 aaaal

#6229199
b1111111111111111 aaaab
b11101101110111 aaaal

#6229202
b1101010011100 aaaad

#6250035
b1101010011100 aaaal

#6270869
b11001011000010 aaaad

#6291702
b11001011000010 aaaal

#6312536
b11000101001000 aaaad

#6333369
b11000101001000 aaaal

#6354203
b1111100111 aaaad

#6375036
b1111100111 aaaal

#6395870
b1001111011001 aaaad

#6416703
b1001111011001 aaaal

#6437537
b1000011000101 aaaad

#6458370
b1000011000101 aaaal

#6479204
b10010111010100 aaaad

#6500037
b10010111010100 aaaal

#6520871
b11010000111100 aaaad

#6541704
b11010000111100 aaaal

#6562538
b11011100101100 aaaad

#6583371
b11011100101100 aaaal

#6604205
b10110111100111 aaaad

#6625038
b10110111100111 aaaal

#6645872
b11101000101 aaaad

#6666705
b11101000101 aaaal

#6687539
b11000110101 aaaad

#6708372
b11000110101 aaaal

#6729206
b1111000011001 aaaad

#6750039
b1111000011001 aaaal

#6770873
b1011110010011 aaaad

#6791706
b1011110010011 aaaal

#6812540
b11100001010 aaaad

#6833373
b11100001010 aaaal

#6854207
b110111100011 aaaad

#6875040
b110111100011 aaaal

#6895874
b1000100110110 aaaad

#6916707
b1000100110110 aaaal

#6937541
b10101101011111 aaaad

#6958374
b10101101011111 aaaal

#6979208
b1101011101010 aaaad

#7000041
b1101011101010 aaaal

#7020875
b11001011000010 aaaad

#7041708
b11001011000010 aaaal

#7062542
b1111111111111111 aaaad

#7083375
b1111111111111111 aaaal

#7104208
b100100 aaaal

#7125041
b100000 aaaal

#7145874
b101010 aaaae
b100101 aaaal

#7166707
b10001101 aaaal

#7187540
b100000 aaaal

#7187541
b10111010 aaaae

#7208373
b100100 aaaad
b101010 aaaal

#7229206
b100000 aaaad
b10111010 aaaal

#7229208
b110011 aaaae

#7250039
b1 aaaal

#7270872
b1 aaaad
b110011 aaaal

#7270875
b101000 aaaae

#7291706
b1100010111101011 aaaal

#7312539
b1100010111101011 aaaad
b101000 aaaal

#7312542
b10110000 aaaae

#7333373
b1111111111111111 aaaal

#7354206
b1111111111111111 aaaad
b10110000 aaaal

#7354209
b11111010 aaaae

#7375042
b11111010 aaaal

#7395876
b11111111 aaaae

#7416709
b11111111 aaaal

#7437543
b100101 aaaae

#7458376
b100101 aaaal

#7479210
b1000100 aaaae

#7500043
b1000100 aaaal

#7520877
b1011101 aaaae

#7541710
b1011101 aaaal

#7562544
b1100000 aaaae

#7583377
b1100000 aaaal

#7604211
b1111101 aaaae

#7625044
b1111101 aaaal

#7645878
b10011 aaaae

#7666711
b10011 aaaal

#7687545
b11010010 aaaae

#7708378
b11010010 aaaal

#7729212
b100 aaaae

#7750045
b100 aaaal

#7770879
b10010010 aaaae

#7791712
b10010010 aaaal

#7812546
b10101111 aaaae

#7833379
b10101111 aaaal

#7854213
b10111111 aaaae

#7875046
b10111111 aaaal

#7895880
b101010 aaaae

#7916713
b101010 aaaal

#7937547
b100111 aaaae

#7958380
b100111 aaaal

#7979214
b1000110 aaaae

#8000047
b1000110 aaaal

#8020881
b1010100 aaaae

#8041714
b1010100 aaaal

#8062548
b1010011 aaaae

#8083381
b1010011 aaaal

#8104215
b1110011 aaaae

#8125048
b1110011 aaaal

#8145882
b1000001101111011 aaaae

#8166715
b1000001101111011 aaaal

#8187549
b1111111111111111 aaaae

#8208382
b1111111111111111 aaaal

#8229215
b100101 aaaal

#8250048
b100000 aaaal

#8270881
b100100 aaaaf
b100110 aaaal

#8291714
b100100000 aaaal

#8312547
b100000 aaaal

#8312548
b111011 aaaaf

#8333380
b100101 aaaae
b100100 aaaal

#8354213
b100000 aaaae
b111011 aaaal

#8354215
b110111000 aaaaf

#8375046
b1 aaaal

#8395879
b1 aaaae
b110111000 aaaal

#8395882
b100101111 aaaaf

#8416713
b1100010111101011 aaaal

#8437546
b1100010111101011 aaaae
b100101111 aaaal

#8437549
b11110011 aaaaf

#8458380
b1111111111111111 aaaal

#8479213
b1111111111111111 aaaae
b11110011 aaaal

#8479216
b111011110 aaaaf

#8500049
b111011110 aaaal

#8520883
b101011010 aaaaf

#8541716
b101011010 aaaal

#8562550
b111000 aaaaf

#8583383
b111000 aaaal

#8604217
b111100001 aaaaf

#8625050
b111100001 aaaal

#8645884
b110110000 aaaaf

#8666717
b110110000 aaaal

#8687551
b10011010 aaaaf

#8708384
b10011010 aaaal

#8729218
b1010100 aaaaf

#8750051
b1010100 aaaal

#8770885
b101111111 aaaaf

#8791718
b101111111 aaaal

#8812552
b1000101 aaaaf

#8833385
b1000101 aaaal

#8854219
b100000011 aaaaf

#8875052
b100000011 aaaal

#8895886
b10000010 aaaaf

#8916719
b10000010 aaaal

#8937553
b100110011 aaaaf

#8958386
b100110011 aaaal

#8979220
b111011101 aaaaf

#9000053
b111011101 aaaal

#9020887
b11110100 aaaaf

#9041720
b11110100 aaaal

#9062554
b111001 aaaaf

#9083387
b111001 aaaal

#9104221
b11011100 aaaaf

#9125054
b11011100 aaaal

#9145888
b10010011 aaaaf

#9166721
b10010011 aaaal

#9187555
b110101110 aaaaf

#9208388
b110101110 aaaal

#9229222
b11000100 aaaaf

#9250055
b11000100 aaaal

#9270889
b110110010010 aaaaf

#9291722
b110110010010 aaaal

#9312556
b1111111111111111 aaaaf

#9333389
b1111111111111111 aaaal

#9354222
b100110 aaaal

#9375055
b100000 aaaal

#9395888
b10100100 aaaak
b101011 aaaal

#9416721
b10011010 aaaal

#9437554
b100000 aaaal

#9437555
b1000011 aaaak

#9458387
b100110 aaaaf
b10100100 aaaal

#9479220
b100000 aaaaf
b1000011 aaaal

#9479222
b11011101 aaaak

#9500053
b1 aaaal

#9520886
b1 aaaaf
b11011101 aaaal

#9520889
b10100000 aaaak

#9541720
b1100010111101011 aaaal

#9562553
b1100010111101011 aaaaf
b10100000 aaaal

#9562556
b11100100 aaaak

#9583387
b1111111111111111 aaaal

#9604220
b1111111111111111 aaaaf
b11100100 aaaal

#9604223
b11010 aaaak

#9625056
b11010 aaaal

#9645890
b100 aaaak

#9666723
b100 aaaal

#9687557
b1000001 aaaak

#9708390
b1000001 aaaal

#9729224
b1011111 aaaak

#9750057
b1011111 aaaal

#9770891
b10111010 aaaak

#9791724
b10111010 aaaal

#9854225
b11000000 aaaak

#9875058
b11000000 aaaal

#9895892
b11011011 aaaak

#9916725
b11011011 aaaal

#9937559
b11000 aaaak

#9958392
b11000 aaaal

#9979226
b10101100 aaaak

#10000059
b10101100 aaaal

#10020893
b10110111 aaaak

#10041726
b10110111 aaaal

#10062560
b11001 aaaak

#10083393
b11001 aaaal

#10104227
b11011100 aaaak

#10125060
b11011100 aaaal

#10145894
b1110101 aaaak

#10166727
b1110101 aaaal

#10187561
b1111010 aaaak

#10208394
b1111010 aaaal

#10229228
b10110110 aaaak

#10250061
b10110110 aaaal

#10270895
b11101001 aaaak

#10291728
b11101001 aaaal

#10312562
b10101011 aaaak

#10333395
b10101011 aaaal

#10354229
b11010001 aaaak

#10375062
b11010001 aaaal

#10395896
b1100011111110100 aaaak

#10416729
b1100011111110100 aaaal

#10437563
b1111111111111111 aaaak

#10458396
b1111111111111111 aaaal

#10479229
b101011 aaaal

#10500062
b100000 aaaal

#10520895
b1001011 aaaai
b101001 aaaal

#10541728
b1101101 aaaal

#10562561
b100000 aaaal

#10562562
b11001 aaaai

#10583394
b101011 aaaak
b1001011 aaaal

#10604227
b100000 aaaak
b11001 aaaal

#10604229
b1111111 aaaai

#10625060
b1 aaaal

#10645893
b1 aaaak
b1111111 aaaal

#10645896
b11101001 aaaai

#10666727
b1100010111101011 aaaal

#10687560
b1100010111101011 aaaak
b11101001 aaaal

#10687563
b1001101 aaaai

#10708394
b1111111111111111 aaaal

#10729227
b1111111111111111 aaaak
b1001101 aaaal

#10729230
b1111110 aaaai

#10750063
b1111110 aaaal

#10770897
b1111011 aaaai

#10791730
b1111011 aaaal

#10812564
b110110 aaaai

#10833397
b110110 aaaal

#10854231
b1011101 aaaai

#10875064
b1011101 aaaal

#10895898
b110001 aaaai

#10916731
b110001 aaaal

#10937565
b10110010 aaaai

#10958398
b10110010 aaaal

#10979232
b11111111 aaaai

#11000065
b11111111 aaaal

#11020899
b1010111 aaaai

#11041732
b1010111 aaaal

#11062566
b11001110 aaaai

#11083399
b11001110 aaaal

#11104233
b10001100 aaaai

#11125066
b10001100 aaaal

#11145900
b11011111 aaaai

#11166733
b11011111 aaaal

#11187567
b10110110 aaaai

#11208400
b10110110 aaaal

#11229234
b11001011 aaaai

#11250067
b11001011 aaaal

#11270901
b1011100 aaaai

#11291734
b1011100 aaaal

#11312568
b1111011 aaaai

#11333401
b1111011 aaaal

#11354235
b11000001 aaaai

#11375068
b11000001 aaaal

#11395902
b11010 aaaai

#11416735
b11010 aaaal

#11437569
b1010010 aaaai

#11458402
b1010010 aaaal

#11479236
b1011 aaaai

#11500069
b1011 aaaal

#11520903
b1100011001001111 aaaai

#11541736
b1100011001001111 aaaal

#11562570
b1111111111111111 aaaai

#11583403
b1111111111111111 aaaal

#11604236
b101001 aaaal

#11645903
b100000 aaaal

#11666736
b101001 aaaai

#11687569
b100000 aaaai

#11687570
b1 aaaal

#11708403
b1 aaaai

#11729237
b1100010111101011 aaaal

#11750070
b1100010111101011 aaaai

#11770904
b1111111111111111 aaaal

#11791737
b1111111111111111 aaaai

#101479173
b100000 aaaah

#101520840
b101000 aaaah

#101541673
b100000 aaaal

#101562506
b101000 aaaal

#101562507
b11010 aaaah

#101583340
b11010 aaaal

#101604174
b110000 aaaah

#101625007
b110000 aaaal

#101645841
b10001001 aaaah

#101666674
b10001001 aaaal

#101687508
b11100110 aaaah

#101708341
b11100110 aaaal

#101729175
b1001110 aaaah

#101750004
b100000 aaaaa

#101750008
b1001110 aaaal

#101770842
b110100 aaaah

#101791671
b100001 aaaaa

#101791675
b110100 aaaal

#101812509
b1000111 aaaah

#101833338
b1110100100 aaaaa

#101833342
b1000111 aaaal

#101854176
b100100 aaaah

#101875009
b100100 aaaal

#101895843
b11011100 aaaah

#101916676
b11011100 aaaal

#101937510
b11010001 aaaah

#101958343
b11010001 aaaal

#101979177
b10000011 aaaah

#102000010
b10000011 aaaal

#102020844
b1111111 aaaah

#102041677
b1111111 aaaal

#102062511
b1100111 aaaah

#102083344
b1100111 aaaal

#102104178
b10110110 aaaah

#102125011
b10110110 aaaal

#102145845
b11001001 aaaah

#102166678
b11001001 aaaal

#102187512
b110 aaaah

#102208345
b110 aaaal

#102229179
b11001 aaaah

#102250012
b11001 aaaal

#102270846
b1100101 aaaah

#102291679
b1100101 aaaal

#102312513
b10100101 aaaah

#102333346
b10100101 aaaal

#102354180
b1100110 aaaah

#102375013
b1100110 aaaal

#102395847
b10111100 aaaah

#102416680
b10111100 aaaal

#102437514
b1100110 aaaah

#102458347
b1100110 aaaal

#102479181
b10000011 aaaah

#102500014
b10000011 aaaal

#102520848
b1000001 aaaah

#102541681
b1000001 aaaal

#102562515
b1110111 aaaah

#102583348
b1110111 aaaal

#102604182
b1111010000010100 aaaah

#102625015
b1111010000010100 aaaal

#102645849
b1111111111111111 aaaah

#102666682
b1111111111111111 aaaal

#102687515
b101000 aaaal

#102708348
b100000 aaaal

#102729181
b111101000 aaaaa
b100001 aaaal

#102750014
b1110100100 aaaal

#102770847
b100000 aaaal

#102770848
b1010100011 aaaaa

#102791680
b101000 aaaah
b111101000 aaaal

#102812513
b100000 aaaah
b1010100011 aaaal

#102812515
b1001111111 aaaaa

#102833346
b1 aaaal

#102854179
b1 aaaah
b1001111111 aaaal

#102854182
b110010000000111 aaaaa

#102875011
b100000 aaaaj

#102875013
b1100010111101011 aaaal

#102895846
b1100010111101011 aaaah
b110010000000111 aaaal

#102895849
b1111111111111111 aaaaa

#102916678
b101010 aaaaj

#102916680
b1111111111111111 aaaal

#102937513
b1111111111111111 aaaah

#102958345
b1101011 aaaaj

#102958346
b100001 aaaal

#102979179
b100000 aaaal

#103000012
b10111100 aaaaj
b101010 aaaal

#103020845
b1101011 aaaal

#103041678
b100000 aaaal

#103041679
b10101 aaaaj

#103062511
b100001 aaaaa
b10111100 aaaal

#103083344
b100000 aaaaa
b10101 aaaal

#103083346
b11011001 aaaaj

#103104177
b1 aaaal

#103125010
b1 aaaaa
b11011001 aaaal

#103125013
b111001 aaaaj

#103145844
b1100010111101011 aaaal

#103166677
b1100010111101011 aaaaa
b111001 aaaal

#103166680
b1011010 aaaaj

#103187511
b1111111111111111 aaaal

#103208344
b1111111111111111 aaaaa
b1011010 aaaal

#103208347
b1011111 aaaaj

#103229180
b1011111 aaaal

#103250014
b1100010 aaaaj

#103270847
b1100010 aaaal

#103291681
b101010 aaaaj

#103312514
b101010 aaaal

#103333348
b10 aaaaj

#103354181
b10 aaaal

#103375015
b111000 aaaaj

#103395848
b111000 aaaal

#103416682
b11101110 aaaaj

#103437515
b11101110 aaaal

#103458349
b10011110 aaaaj

#103479182
b10011110 aaaal

#103500016
b11010010 aaaaj

#103520849
b11010010 aaaal

#103541683
b10100110 aaaaj

#103562516
b10100110 aaaal

#103583350
b10101111 aaaaj

#103604183
b10101111 aaaal

#103625017
b11010010 aaaaj

#103645850
b11010010 aaaal

#103666684
b11001101 aaaaj

#103687517
b11001101 aaaal

#103708351
b11111100 aaaaj

#103729184
b11111100 aaaal

#103750018
b10100011 aaaaj

#103770851
b10100011 aaaal

#103791685
b10011001 aaaaj

#103812518
b10011001 aaaal

#103833352
b10000000 aaaaj

#103854185
b10000000 aaaal

#103875019
b10010010 aaaaj

#103895852
b10010010 aaaal

#103916686
b1101000 aaaaj

#103937519
b1101000 aaaal

#103958353
b1100101 aaaaj

#103979186
b1100101 aaaal

#104000018
b100000 aaaag

#104000020
b101101000111010 aaaaj

#104020853
b101101000111010 aaaal

#104041685
b100111 aaaag

#104041687
b1111111111111111 aaaaj

#104062520
b1111111111111111 aaaal

#104083352
b11111111000001 aaaag

#104083353
b101010 aaaal

#104104186
b100000 aaaal

#104125019
b1100000101100100 aaaag
b100111 aaaal

#104145852
b11111111000001 aaaal

#104166685
b100000 aaaal

#104166686
b1100001011111 aaaag

#104187518
b101010 aaaaj
b1100000101100100 aaaal

#104208351
b100000 aaaaj
b1100001011111 aaaal

#104208353
b110011000000100 aaaag

#104229184
b1 aaaal

#104250017
b1 aaaaj
b110011000000100 aaaal

#104250020
b10101110100010 aaaag

#104270851
b1100010111101011 aaaal

#104291684
b1100010111101011 aaaaj
b10101110100010 aaaal

#104291687
b10100011110100 aaaag

#104312518
b1111111111111111 aaaal

#104333351
b1111111111111111 aaaaj
b10100011110100 aaaal

#104333354
b11011010101101 aaaag

#104354187
b11011010101101 aaaal

#104375021
b1001000001001110 aaaag

#104395854
b1001000001001110 aaaal

#104416688
b1010000000010100 aaaag

#104437521
b1010000000010100 aaaal

#104458355
b1100110011100111 aaaag

#104479188
b1100110011100111 aaaal

#104500022
b111111100100101 aaaag

#104520855
b111111100100101 aaaal

#104541689
b111110000100 aaaag

#104562522
b111110000100 aaaal

#104583356
b111010110011111 aaaag

#104604189
b111010110011111 aaaal

#104625023
b111010100100010 aaaag

#104645856
b111010100100010 aaaal

#104666690
b1101110111010111 aaaag

#104687523
b1101110111010111 aaaal

#104708357
b1000111110111111 aaaag

#104729190
b1000111110111111 aaaal

#104750024
b1011011000010000 aaaag

#104770857
b1011011000010000 aaaal

#104791691
b1110110101010101 aaaag

#104812524
b1110110101010101 aaaal

#104833358
b111100111110100 aaaag

#104854191
b111100111110100 aaaal

#104875025
b101101000010110 aaaag

#104895858
b101101000010110 aaaal

#104916692
b1010011001100100 aaaag

#104937525
b1010011001100100 aaaal

#104958359
b11110011011101 aaaag

#104979192
b11110011011101 aaaal

#105000026
b1001101111011111 aaaag

#105020859
b1001101111011111 aaaal

#105041693
b111001101010110 aaaag

#105062526
b111001101010110 aaaal

#105083360
b10000000000011 aaaag

#105104193
b10000000000011 aaaal

#105125025
b100000 aaaac

#105125027
b1101110000011001 aaaag

#105145860
b1101110000011001 aaaal

#105166692
b100011 aaaac

#105166694
b1111111111111111 aaaag

#105187527
b1111111111111111 aaaal

#105208359
b1110101011011011 aaaac

#105208360
b100111 aaaal

#105229193
b100000 aaaal

#105250026
b1101111100111011 aaaac
b100011 aaaal

#105270859
b1110101011011011 aaaal

#105291692
b100000 aaaal

#105291693
b10101101100010 aaaac

#105312525
b100111 aaaag
b1101111100111011 aaaal

#105333358
b100000 aaaag
b10101101100010 aaaal

#105333360
b1110101101101001 aaaac

#105354191
b1 aaaal

#105375024
b1 aaaag
b1110101101101001 aaaal

#105375027
b110011111000100 aaaac

#105395858
b1100010111101011 aaaal

#105416691
b1100010111101011 aaaag
b110011111000100 aaaal

#105416694
b1001101110110101 aaaac

#105437525
b1111111111111111 aaaal

#105458358
b1111111111111111 aaaag
b1001101110110101 aaaal

#105458361
b1100001100000101 aaaac

#105479194
b1100001100000101 aaaal

#105500028
b1110000110100011 aaaac

#105520861
b1110000110100011 aaaal

#105541695
b1110010010011101 aaaac

#105562528
b1110010010011101 aaaal

#105583362
b11100001100101 aaaac

#105604195
b11100001100101 aaaal

#105625029
b1101000011011101 aaaac

#105645862
b1101000011011101 aaaal

#105666696
b1100100100101000 aaaac

#105687529
b1100100100101000 aaaal

