ExoMars2020/Network/traces/network.vcd
$date
     Nov 14, 2018       15:31:47
$end

$version
 SystemC 2.3.2-Accellera --- Oct  1 2018 18:40:03
$end

$timescale
     1 ps
$end

$scope module SystemC $end
$var wire   16  aaaaa  PanCam_channel_data [15:0]  $end
$var wire   32  aaaab  PanCam_channel_wid [31:0]  $end
$var wire   16  aaaac  NavCam_channel_data [15:0]  $end
$var wire   32  aaaad  NavCam_channel_wid [31:0]  $end
$var wire   16  aaaae  ISEM_channel_data [15:0]  $end
$var wire   32  aaaaf  ISEM_channel_wid [31:0]  $end
$var wire   16  aaaag  CLUPI_channel_data [15:0]  $end
$var wire   32  aaaah  CLUPI_channel_wid [31:0]  $end
$var wire   16  aaaai  Drill_channel_data [15:0]  $end
$var wire   32  aaaaj  Drill_channel_wid [31:0]  $end
$var wire   16  aaaak  Adron_channel_data [15:0]  $end
$var wire   32  aaaal  Adron_channel_wid [31:0]  $end
$var wire   16  aaaam  WISDOM_channel_data [15:0]  $end
$var wire   32  aaaan  WISDOM_channel_wid [31:0]  $end
$var wire   16  aaaao  Ma_MISS_channel_data [15:0]  $end
$var wire   32  aaaap  Ma_MISS_channel_wid [31:0]  $end
$var wire   16  aaaaq  MicrOmega_channel_data [15:0]  $end
$var wire   32  aaaar  MicrOmega_channel_wid [31:0]  $end
$var wire   16  aaaas  RLS_channel_data [15:0]  $end
$var wire   32  aaaat  RLS_channel_wid [31:0]  $end
$var wire   16  aaaau  MOMA_channel_data [15:0]  $end
$var wire   32  aaaav  MOMA_channel_wid [31:0]  $end
$var wire   16  aaaaw  PrintUnit_channel_data [15:0]  $end
$var wire   32  aaaax  PrintUnit_channel_wid [31:0]  $end
$var wire   16  aaaay  Adron_port_in [15:0]  $end
$var wire   16  aaaaz  Adron_port_out [15:0]  $end
$var wire   16  aaaba  WISDOM_port_in [15:0]  $end
$var wire   16  aaabb  WISDOM_port_out [15:0]  $end
$var wire   16  aaabc  PrintUnit_port_in [15:0]  $end
$var wire   16  aaabd  PrintUnit_port_out [15:0]  $end
$var wire   16  aaabe  router_port_adron_in [15:0]  $end
$var wire   16  aaabf  router_port_adron_out [15:0]  $end
$upscope $end
$enddefinitions  $end

$comment
All initial values are dumped below at time 0 sec = 0 timescale units.
$end

$dumpvars
b100111 aaaaa
b0 aaaab
b0 aaaac
b0 aaaad
b0 aaaae
b0 aaaaf
b0 aaaag
b0 aaaah
b0 aaaai
b0 aaaaj
b100000 aaaak
b1 aaaal
b100110 aaaam
b10 aaaan
b100111 aaaao
b11 aaaap
b0 aaaaq
b0 aaaar
b0 aaaas
b0 aaaat
b0 aaaau
b0 aaaav
b0 aaaaw
b0 aaaax
b0 aaaay
b100000 aaaaz
b0 aaaba
b100110 aaabb
b0 aaabc
b0 aaabd
b100111 aaabe
b0 aaabf
$end

#41667
b100001 aaaaa
b100110 aaaak
b100111 aaaam
b101000 aaaao
b100110 aaaaz
b100111 aaabb

#62500
b111 aaaal
b1000 aaaan
b100000 aaaaw
b1010 aaaax
b100001 aaabe

#83333
b100111 aaaak
b101000 aaaam
b100110 aaaaw
b100110 aaaay
b100111 aaaba
b100000 aaabc

#83334
b1111011010 aaaaa
b1110010 aaaao

#104166
b100110111 aaaak
b1 aaaal
b11000111011 aaaam
b10 aaaan
b100111 aaaay
b100110111 aaaaz
b101000 aaaba
b11000111011 aaabb
b100110 aaabc

#124999
b11000111011 aaaak
b111 aaaal
b1110010 aaaam
b1000 aaaan
b100110111 aaaaw

#125001
b11010100 aaaao

#145832
b11000111011 aaaay
b1110010 aaaba
b100110111 aaabc

#145833
b111100 aaaak
b1 aaaal
b100110111011101 aaaam
b10 aaaan
b111100 aaaaz
b100110111011101 aaabb

#166666
b100110111011101 aaaak
b111 aaaal
b11010100 aaaam
b1000 aaaan
b111100 aaaaw

#166668
b111100 aaaao

#187499
b100110111011101 aaaay
b11010100 aaaba
b111100 aaabc

#187500
b10011001 aaaak
b1 aaaal
b1000110001001000 aaaam
b10 aaaan
b10011001 aaaaz
b1000110001001000 aaabb

#208333
b1000110001001000 aaaak
b111 aaaal
b111100 aaaam
b1000 aaaan
b10011001 aaaaw

#208335
b10001100 aaaao

#229166
b1000110001001000 aaaay
b111100 aaaba
b10011001 aaabc

#229167
b10111101 aaaak
b1 aaaal
b1011001111011101 aaaam
b10 aaaan
b10111101 aaaaz
b1011001111011101 aaabb

#250000
b1011001111011101 aaaak
b111 aaaal
b10001100 aaaam
b1000 aaaan
b10111101 aaaaw

#250002
b11111111 aaaao

#270833
b1011001111011101 aaaay
b10001100 aaaba
b10111101 aaabc

#270834
b101100000 aaaak
b1 aaaal
b100000000101001 aaaam
b10 aaaan
b101100000 aaaaz
b100000000101001 aaabb

#291667
b100000000101001 aaaak
b111 aaaal
b11111111 aaaam
b1000 aaaan
b101100000 aaaaw

#291669
b1010000 aaaao

#312500
b100000000101001 aaaay
b11111111 aaaba
b101100000 aaabc

#312501
b100010000 aaaak
b1 aaaal
b1011011000000 aaaam
b10 aaaan
b100010000 aaaaz
b1011011000000 aaabb

#333334
b1011011000000 aaaak
b111 aaaal
b1010000 aaaam
b1000 aaaan
b100010000 aaaaw

#333336
b11000100 aaaao

#354167
b1011011000000 aaaay
b1010000 aaaba
b100010000 aaabc

#354168
b10001011 aaaak
b1 aaaal
b1100000101110110 aaaam
b10 aaaan
b10001011 aaaaz
b1100000101110110 aaabb

#375001
b1100000101110110 aaaak
b111 aaaal
b11000100 aaaam
b1000 aaaan
b10001011 aaaaw

#375003
b11010 aaaao

#395834
b1100000101110110 aaaay
b11000100 aaaba
b10001011 aaabc

#395835
b11010111 aaaak
b1 aaaal
b1110000001000111 aaaam
b10 aaaan
b11010111 aaaaz
b1110000001000111 aaabb

#416668
b1110000001000111 aaaak
b111 aaaal
b11010 aaaam
b1000 aaaan
b11010111 aaaaw

#416670
b10111100 aaaao

#437501
b1110000001000111 aaaay
b11010 aaaba
b11010111 aaabc

#437502
b11011111 aaaak
b1 aaaal
b11111000010 aaaam
b10 aaaan
b11011111 aaaaz
b11111000010 aaabb

#458335
b11111000010 aaaak
b111 aaaal
b10111100 aaaam
b1000 aaaan
b11011111 aaaaw

#458337
b10010 aaaao

#479168
b11111000010 aaaay
b10111100 aaaba
b11011111 aaabc

#479169
b111100 aaaak
b1 aaaal
b11000011100100 aaaam
b10 aaaan
b111100 aaaaz
b11000011100100 aaabb

#500002
b11000011100100 aaaak
b111 aaaal
b10010 aaaam
b1000 aaaan
b111100 aaaaw

#500004
b10101001 aaaao

#520835
b11000011100100 aaaay
b10010 aaaba
b111100 aaabc

#520836
b110111111 aaaak
b1 aaaal
b1111001001001100 aaaam
b10 aaaan
b110111111 aaaaz
b1111001001001100 aaabb

#541669
b1111001001001100 aaaak
b111 aaaal
b10101001 aaaam
b1000 aaaan
b110111111 aaaaw

#541671
b1011010 aaaao

#562502
b1111001001001100 aaaay
b10101001 aaaba
b110111111 aaabc

#562503
b10000011 aaaak
b1 aaaal
b1110101100100000 aaaam
b10 aaaan
b10000011 aaaaz
b1110101100100000 aaabb

#583336
b1110101100100000 aaaak
b111 aaaal
b1011010 aaaam
b1000 aaaan
b10000011 aaaaw

#583338
b1101110 aaaao

#604169
b1110101100100000 aaaay
b1011010 aaaba
b10000011 aaabc

#604170
b100100100 aaaak
b1 aaaal
b101001000101001 aaaam
b10 aaaan
b100100100 aaaaz
b101001000101001 aaabb

#625003
b101001000101001 aaaak
b111 aaaal
b1101110 aaaam
b1000 aaaan
b100100100 aaaaw

#625005
b11011101 aaaao

#645836
b101001000101001 aaaay
b1101110 aaaba
b100100100 aaabc

#645837
b10001101 aaaak
b1 aaaal
b111010110100011 aaaam
b10 aaaan
b10001101 aaaaz
b111010110100011 aaabb

#666670
b111010110100011 aaaak
b111 aaaal
b11011101 aaaam
b1000 aaaan
b10001101 aaaaw

#666672
b1101101 aaaao

#687503
b111010110100011 aaaay
b11011101 aaaba
b10001101 aaabc

#687504
b110110000 aaaak
b1 aaaal
b1111100111011101 aaaam
b10 aaaan
b110110000 aaaaz
b1111100111011101 aaabb

#708337
b1111100111011101 aaaak
b111 aaaal
b1101101 aaaam
b1000 aaaan
b110110000 aaaaw

#708339
b1101010 aaaao

#729170
b1111100111011101 aaaay
b1101101 aaaba
b110110000 aaabc

#729171
b1100110 aaaak
b1 aaaal
b101001001101101 aaaam
b10 aaaan
b1100110 aaaaz
b101001001101101 aaabb

#750004
b101001001101101 aaaak
b111 aaaal
b1101010 aaaam
b1000 aaaan
b1100110 aaaaw

#750006
b10 aaaao

#770837
b101001001101101 aaaay
b1101010 aaaba
b1100110 aaabc

#770838
b11011000 aaaak
b1 aaaal
b1100111110101011 aaaam
b10 aaaan
b11011000 aaaaz
b1100111110101011 aaabb

#791671
b1100111110101011 aaaak
b111 aaaal
b10 aaaam
b1000 aaaan
b11011000 aaaaw

#791673
b11001000 aaaao

#812504
b1100111110101011 aaaay
b10 aaaba
b11011000 aaabc

#812505
b110011110 aaaak
b1 aaaal
b1111100110110100 aaaam
b10 aaaan
b110011110 aaaaz
b1111100110110100 aaabb

#833338
b1111100110110100 aaaak
b111 aaaal
b11001000 aaaam
b1000 aaaan
b110011110 aaaaw

#833340
b1110101 aaaao

#854171
b1111100110110100 aaaay
b11001000 aaaba
b110011110 aaabc

#854172
b11010011 aaaak
b1 aaaal
b1100001110101001 aaaam
b10 aaaan
b11010011 aaaaz
b1100001110101001 aaabb

#875005
b1100001110101001 aaaak
b111 aaaal
b1110101 aaaam
b1000 aaaan
b11010011 aaaaw

#875007
b110011 aaaao

#895838
b1100001110101001 aaaay
b1110101 aaaba
b11010011 aaabc

#895839
b100101011 aaaak
b1 aaaal
b1101110101111001 aaaam
b10 aaaan
b100101011 aaaaz
b1101110101111001 aaabb

#916672
b1101110101111001 aaaak
b111 aaaal
b110011 aaaam
b1000 aaaan
b100101011 aaaaw

#916674
b10001100 aaaao

#937505
b1101110101111001 aaaay
b110011 aaaba
b100101011 aaabc

#937506
b111101000 aaaak
b1 aaaal
b110010011100111 aaaam
b10 aaaan
b111101000 aaaaz
b110010011100111 aaabb

#958339
b110010011100111 aaaak
b111 aaaal
b10001100 aaaam
b1000 aaaan
b111101000 aaaaw

#958341
b10110101 aaaao

#979172
b110010011100111 aaaay
b10001100 aaaba
b111101000 aaabc

#979173
b10011010 aaaak
b1 aaaal
b11011000100011 aaaam
b10 aaaan
b10011010 aaaaz
b11011000100011 aaabb

#1000006
b11011000100011 aaaak
b111 aaaal
b10110101 aaaam
b1000 aaaan
b10011010 aaaaw

#1000008
b11011100 aaaao

#1020839
b11011000100011 aaaay
b10110101 aaaba
b10011010 aaabc

#1020840
b100001011 aaaak
b1 aaaal
b11011001010001 aaaam
b10 aaaan
b100001011 aaaaz
b11011001010001 aaabb

#1041673
b11011001010001 aaaak
b111 aaaal
b11011100 aaaam
b1000 aaaan
b100001011 aaaaw

#1041675
b10101011 aaaao

#1062506
b11011001010001 aaaay
b11011100 aaaba
b100001011 aaabc

#1062507
b10010110 aaaak
b1 aaaal
b1110111100100 aaaam
b10 aaaan
b10010110 aaaaz
b1110111100100 aaabb

#1083340
b1110111100100 aaaak
b111 aaaal
b10101011 aaaam
b1000 aaaan
b10010110 aaaaw

#1083342
b111101 aaaao

#1104173
b1110111100100 aaaay
b10101011 aaaba
b10010110 aaabc

#1104174
b11100111 aaaak
b1 aaaal
b10010110000000 aaaam
b10 aaaan
b11100111 aaaaz
b10010110000000 aaabb

#1125007
b10010110000000 aaaak
b111 aaaal
b111101 aaaam
b1000 aaaan
b11100111 aaaaw

#1125009
b110101000000000 aaaao

#1145840
b10010110000000 aaaay
b111101 aaaba
b11100111 aaabc

#1145841
b1101010011001000 aaaak
b1 aaaal
b1110111011100 aaaam
b10 aaaan
b1101010011001000 aaaaz
b1110111011100 aaabb

#1166674
b1110111011100 aaaak
b111 aaaal
b110101000000000 aaaam
b1000 aaaan
b1101010011001000 aaaaw

#1166676
b1111111111111111 aaaao

#1187507
b1110111011100 aaaay
b110101000000000 aaaba
b1101010011001000 aaabc

#1187508
b1111111111111111 aaaak
b1 aaaal
b1111111111111111 aaaam
b10 aaaan
b1111111111111111 aaaaz
b1111111111111111 aaabb

#1208341
b111 aaaal
b1000 aaaan
b1111111111111111 aaaaw

#1229174
b100111 aaaam
b100110 aaaaw
b100 aaaax
b1111111111111111 aaaay
b1111111111111111 aaaba
b1111111111111111 aaabc
b100110 aaabd

#1229175
b100111 aaaak
b1 aaaal
b100111 aaaaz

#1250007
b10010011 aaaaa
b100001 aaaam
b100111 aaaba
b1111011010 aaabe

#1270840
b1111011010 aaaam
b100001 aaaba
b10010011 aaabe

#1270841
b100000 aaaaw
b100000 aaabd

#1270842
b100110 aaaak
b100110 aaaaz

#1291673
b101000 aaaam
b10 aaaan
b1111011010 aaaba
b101000 aaabb

#1291674
b1110111011 aaaaa

#1291675
b111 aaaal

#1312506
b10010011 aaaam
b1000 aaaan
b1110111011 aaabe

#1312508
b100000 aaaak
b1 aaaaw
b100110 aaaay
b1 aaabd

#1333339
b1110111011 aaaam
b10010011 aaaba

#1333341
b10010000 aaaaa
b1 aaaak
b100000 aaaay

#1354172
b100111 aaaam
b10 aaaan
b1110111011 aaaba
b100111 aaabb

#1354174
b1 aaaal
b1 aaaay
b1 aaaaz
b10010000 aaabe

#1354175
b1100010111101011 aaaaw
b1100010111101011 aaabd

#1375005
b10010000 aaaam
b1000 aaaan
b101000 aaaao
b1001 aaaap

#1375008
b110110011 aaaaa

#1395838
b100111 aaaao
b10010000 aaaba

#1395839
b1 aaaam
b10 aaaan
b1 aaabb

#1395841
b110110011 aaabe

#1395842
b1111111111111111 aaaaw
b1111111111111111 aaabd

#1416672
b110110011 aaaam
b1000 aaaan
b1 aaaao

#1416675
b1111111111111111 aaaaa

#1437505
b110110011 aaaba

#1437506
b1100010111101011 aaaam
b10 aaaan
b1100010111101011 aaabb

#1437508
b1111111111111111 aaabe

#1458339
b1111111111111111 aaaam
b1000 aaaan
b1100010111101011 aaaao

#1479172
b100111 aaaam
b1111111111111111 aaaba

#1500005
b1100010111101011 aaaak
b111 aaaal
b100110 aaaam
b100111 aaaba

#1520838
b1111111111111111 aaaak
b1 aaaam
b1100010111101011 aaaay
b1100010111101011 aaaaz
b100110 aaaba

#1541671
b1111111111111111 aaaam
b10 aaaan
b1111111111111111 aaaay
b1 aaaba
b1111111111111111 aaabb

#1562504
b1100010111101011 aaaam
b1000 aaaan
b1111111111111111 aaaao

#1562505
b1 aaaal
b1111111111111111 aaaaz

#1583337
b1100010111101011 aaaba

#1583338
b1111111111111111 aaaam

#1604171
b100001 aaaam
b10 aaaan
b1111111111111111 aaaba
b100001 aaabb

#1645838
b100111 aaaam
b100111 aaabb

#1666671
b100001 aaaaa
b110 aaaab
b100001 aaabf

#1687504
b100111 aaaaa
b100111 aaabf

#1687505
b1 aaaam
b1 aaabb

#1708338
b1 aaaaa
b1 aaabf

#1729172
b1100010111101011 aaaam
b1100010111101011 aaabb

#1750005
b1100010111101011 aaaaa
b1100010111101011 aaabf

#1770839
b1111111111111111 aaaam
b1111111111111111 aaabb

#1791672
b1111111111111111 aaaaa
b1111111111111111 aaabf

