ExoMars2020/Network/traces/network.vcd
$date
     Nov 09, 2018       15:45:22
$end

$version
 SystemC 2.3.2-Accellera --- Oct  1 2018 18:40:03
$end

$timescale
     1 ps
$end

$scope module SystemC $end
$var wire   16  aaaaa  PanCam_channel_data [15:0]  $end
$var wire   32  aaaab  PanCam_channel_wid [31:0]  $end
$var wire   16  aaaac  NavCam_channel_data [15:0]  $end
$var wire   32  aaaad  NavCam_channel_wid [31:0]  $end
$var wire   16  aaaae  ISEM_channel_data [15:0]  $end
$var wire   32  aaaaf  ISEM_channel_wid [31:0]  $end
$var wire   16  aaaag  CLUPI_channel_data [15:0]  $end
$var wire   32  aaaah  CLUPI_channel_wid [31:0]  $end
$var wire   16  aaaai  Drill_channel_data [15:0]  $end
$var wire   32  aaaaj  Drill_channel_wid [31:0]  $end
$var wire   16  aaaak  Adron_channel_data [15:0]  $end
$var wire   32  aaaal  Adron_channel_wid [31:0]  $end
$var wire   16  aaaam  WISDOM_channel_data [15:0]  $end
$var wire   32  aaaan  WISDOM_channel_wid [31:0]  $end
$var wire   16  aaaao  Ma_MISS_channel_data [15:0]  $end
$var wire   32  aaaap  Ma_MISS_channel_wid [31:0]  $end
$var wire   16  aaaaq  MicrOmega_channel_data [15:0]  $end
$var wire   32  aaaar  MicrOmega_channel_wid [31:0]  $end
$var wire   16  aaaas  RLS_channel_data [15:0]  $end
$var wire   32  aaaat  RLS_channel_wid [31:0]  $end
$var wire   16  aaaau  MOMA_channel_data [15:0]  $end
$var wire   32  aaaav  MOMA_channel_wid [31:0]  $end
$var wire   16  aaaaw  PrintUnit_channel_data [15:0]  $end
$var wire   32  aaaax  PrintUnit_channel_wid [31:0]  $end
$var wire   16  aaaay  Adron_port_in [15:0]  $end
$var wire   16  aaaaz  Adron_port_out [15:0]  $end
$var wire   16  aaaba  WISDOM_port_in [15:0]  $end
$var wire   16  aaabb  WISDOM_port_out [15:0]  $end
$var wire   16  aaabc  PrintUnit_port_in [15:0]  $end
$var wire   16  aaabd  PrintUnit_port_out [15:0]  $end
$var wire   16  aaabe  router_port_adron_in [15:0]  $end
$var wire   16  aaabf  router_port_adron_out [15:0]  $end
$upscope $end
$enddefinitions  $end

$comment
All initial values are dumped below at time 0 sec = 0 timescale units.
$end

$dumpvars
b100111 aaaaa
b0 aaaab
b0 aaaac
b0 aaaad
b0 aaaae
b0 aaaaf
b0 aaaag
b0 aaaah
b0 aaaai
b0 aaaaj
b100000 aaaak
b1 aaaal
b100110 aaaam
b10 aaaan
b100111 aaaao
b11 aaaap
b0 aaaaq
b0 aaaar
b0 aaaas
b0 aaaat
b0 aaaau
b0 aaaav
b0 aaaaw
b0 aaaax
b0 aaaay
b100000 aaaaz
b0 aaaba
b100110 aaabb
b0 aaabc
b0 aaabd
b100111 aaabe
b0 aaabf
$end

#41667
b100001 aaaaa
b100110 aaaak
b100111 aaaam
b101000 aaaao
b100110 aaaaz
b100111 aaabb

#62500
b111 aaaal
b1000 aaaan
b100000 aaaaw
b1010 aaaax
b100001 aaabe

#83333
b100111 aaaak
b101000 aaaam
b100110 aaaaw
b100110 aaaay
b100111 aaaba
b100000 aaabc

#83334
b1011011111 aaaaa
b10100011 aaaao

#104166
b100011011 aaaak
b1 aaaal
b111100110110001 aaaam
b10 aaaan
b100111 aaaay
b100011011 aaaaz
b101000 aaaba
b111100110110001 aaabb
b100110 aaabc

#124999
b111100110110001 aaaak
b111 aaaal
b10100011 aaaam
b1000 aaaan
b100011011 aaaaw

#125001
b10010101 aaaao

#145832
b111100110110001 aaaay
b10100011 aaaba
b100011011 aaabc

#145833
b110111 aaaak
b1 aaaal
b1001010010111110 aaaam
b10 aaaan
b110111 aaaaz
b1001010010111110 aaabb

#166666
b1001010010111110 aaaak
b111 aaaal
b10010101 aaaam
b1000 aaaan
b110111 aaaaw

#166668
b1001 aaaao

#187499
b1001010010111110 aaaay
b10010101 aaaba
b110111 aaabc

#187500
b101000100 aaaak
b1 aaaal
b111100110111010 aaaam
b10 aaaan
b101000100 aaaaz
b111100110111010 aaabb

#208333
b111100110111010 aaaak
b111 aaaal
b1001 aaaam
b1000 aaaan
b101000100 aaaaw

#208335
b10111001 aaaao

#229166
b111100110111010 aaaay
b1001 aaaba
b101000100 aaabc

#229167
b100011011 aaaak
b1 aaaal
b10100111000101 aaaam
b10 aaaan
b100011011 aaaaz
b10100111000101 aaabb

#250000
b10100111000101 aaaak
b111 aaaal
b10111001 aaaam
b1000 aaaan
b100011011 aaaaw

#250002
b100111 aaaao

#270833
b10100111000101 aaaay
b10111001 aaaba
b100011011 aaabc

#270834
b10000000 aaaak
b1 aaaal
b100000100001010 aaaam
b10 aaaan
b10000000 aaaaz
b100000100001010 aaabb

#291667
b100000100001010 aaaak
b111 aaaal
b100111 aaaam
b1000 aaaan
b10000000 aaaaw

#291669
b1000000 aaaao

#312500
b100000100001010 aaaay
b100111 aaaba
b10000000 aaabc

#312501
b101111101 aaaak
b1 aaaal
b1111111001110101 aaaam
b10 aaaan
b101111101 aaaaz
b1111111001110101 aaabb

#333334
b1111111001110101 aaaak
b111 aaaal
b1000000 aaaam
b1000 aaaan
b101111101 aaaaw

#333336
b10000110 aaaao

#354167
b1111111001110101 aaaay
b1000000 aaaba
b101111101 aaabc

#354168
b1001110 aaaak
b1 aaaal
b1101011010011100 aaaam
b10 aaaan
b1001110 aaaaz
b1101011010011100 aaabb

#375001
b1101011010011100 aaaak
b111 aaaal
b10000110 aaaam
b1000 aaaan
b1001110 aaaaw

#375003
b11011101 aaaao

#395834
b1101011010011100 aaaay
b10000110 aaaba
b1001110 aaabc

#395835
b1001001 aaaak
b1 aaaal
b1011100111110110 aaaam
b10 aaaan
b1001001 aaaaz
b1011100111110110 aaabb

#416668
b1011100111110110 aaaak
b111 aaaal
b11011101 aaaam
b1000 aaaan
b1001001 aaaaw

#416670
b1100011 aaaao

#437501
b1011100111110110 aaaay
b11011101 aaaba
b1001001 aaabc

#437502
b101111000 aaaak
b1 aaaal
b1010000101110111 aaaam
b10 aaaan
b101111000 aaaaz
b1010000101110111 aaabb

#458335
b1010000101110111 aaaak
b111 aaaal
b1100011 aaaam
b1000 aaaan
b101111000 aaaaw

#458337
b1001111 aaaao

#479168
b1010000101110111 aaaay
b1100011 aaaba
b101111000 aaabc

#479169
b101011111 aaaak
b1 aaaal
b1111110100111101 aaaam
b10 aaaan
b101011111 aaaaz
b1111110100111101 aaabb

#500002
b1111110100111101 aaaak
b111 aaaal
b1001111 aaaam
b1000 aaaan
b101011111 aaaaw

#500004
b11001 aaaao

#520835
b1111110100111101 aaaay
b1001111 aaaba
b101011111 aaabc

#520836
b110111110 aaaak
b1 aaaal
b1011010101000001 aaaam
b10 aaaan
b110111110 aaaaz
b1011010101000001 aaabb

#541669
b1011010101000001 aaaak
b111 aaaal
b11001 aaaam
b1000 aaaan
b110111110 aaaaw

#541671
b10101111 aaaao

#562502
b1011010101000001 aaaay
b11001 aaaba
b110111110 aaabc

#562503
b101010000 aaaak
b1 aaaal
b101110001111101 aaaam
b10 aaaan
b101010000 aaaaz
b101110001111101 aaabb

#583336
b101110001111101 aaaak
b111 aaaal
b10101111 aaaam
b1000 aaaan
b101010000 aaaaw

#583338
b10010111 aaaao

#604169
b101110001111101 aaaay
b10101111 aaaba
b101010000 aaabc

#604170
b11110011 aaaak
b1 aaaal
b100110100100001 aaaam
b10 aaaan
b11110011 aaaaz
b100110100100001 aaabb

#625003
b100110100100001 aaaak
b111 aaaal
b10010111 aaaam
b1000 aaaan
b11110011 aaaaw

#625005
b10100 aaaao

#645836
b100110100100001 aaaay
b10010111 aaaba
b11110011 aaabc

#645837
b100000 aaaak
b1 aaaal
b110001001101010 aaaam
b10 aaaan
b100000 aaaaz
b110001001101010 aaabb

#666670
b110001001101010 aaaak
b111 aaaal
b10100 aaaam
b1000 aaaan
b100000 aaaaw

#666672
b11110110 aaaao

#687503
b110001001101010 aaaay
b10100 aaaba
b100000 aaabc

#687504
b111000 aaaak
b1 aaaal
b111011001111001 aaaam
b10 aaaan
b111000 aaaaz
b111011001111001 aaabb

#708337
b111011001111001 aaaak
b111 aaaal
b11110110 aaaam
b1000 aaaan
b111000 aaaaw

#708339
b11111101 aaaao

#729170
b111011001111001 aaaay
b11110110 aaaba
b111000 aaabc

#729171
b100111110 aaaak
b1 aaaal
b1011000111001100 aaaam
b10 aaaan
b100111110 aaaaz
b1011000111001100 aaabb

#750004
b1011000111001100 aaaak
b111 aaaal
b11111101 aaaam
b1000 aaaan
b100111110 aaaaw

#750006
b1010111 aaaao

#770837
b1011000111001100 aaaay
b11111101 aaaba
b100111110 aaabc

#770838
b111101011 aaaak
b1 aaaal
b1100011011110100 aaaam
b10 aaaan
b111101011 aaaaz
b1100011011110100 aaabb

#791671
b1100011011110100 aaaak
b111 aaaal
b1010111 aaaam
b1000 aaaan
b111101011 aaaaw

#791673
b11000100 aaaao

#812504
b1100011011110100 aaaay
b1010111 aaaba
b111101011 aaabc

#812505
b100110001 aaaak
b1 aaaal
b1010101010111101 aaaam
b10 aaaan
b100110001 aaaaz
b1010101010111101 aaabb

#833338
b1010101010111101 aaaak
b111 aaaal
b11000100 aaaam
b1000 aaaan
b100110001 aaaaw

#833340
b11110 aaaao

#854171
b1010101010111101 aaaay
b11000100 aaaba
b100110001 aaabc

#854172
b111111 aaaak
b1 aaaal
b111111110111110 aaaam
b10 aaaan
b111111 aaaaz
b111111110111110 aaabb

#875005
b111111110111110 aaaak
b111 aaaal
b11110 aaaam
b1000 aaaan
b111111 aaaaw

#875007
b10111101 aaaao

#895838
b111111110111110 aaaay
b11110 aaaba
b111111 aaabc

#895839
b1111101 aaaak
b1 aaaal
b100011000010001 aaaam
b10 aaaan
b1111101 aaaaz
b100011000010001 aaabb

#916672
b100011000010001 aaaak
b111 aaaal
b10111101 aaaam
b1000 aaaan
b1111101 aaaaw

#916674
b1101 aaaao

#937505
b100011000010001 aaaay
b10111101 aaaba
b1111101 aaabc

#937506
b10010001 aaaak
b1 aaaal
b1101001010101100 aaaam
b10 aaaan
b10010001 aaaaz
b1101001010101100 aaabb

#958339
b1101001010101100 aaaak
b111 aaaal
b1101 aaaam
b1000 aaaan
b10010001 aaaaw

#958341
b10110 aaaao

#979172
b1101001010101100 aaaay
b1101 aaaba
b10010001 aaabc

#979173
b101000110 aaaak
b1 aaaal
b1100011011001 aaaam
b10 aaaan
b101000110 aaaaz
b1100011011001 aaabb

#1000006
b1100011011001 aaaak
b111 aaaal
b10110 aaaam
b1000 aaaan
b101000110 aaaaw

#1000008
b10101 aaaao

#1020839
b1100011011001 aaaay
b10110 aaaba
b101000110 aaabc

#1020840
b10100 aaaak
b1 aaaal
b1110100011110111 aaaam
b10 aaaan
b10100 aaaaz
b1110100011110111 aaabb

#1041673
b1110100011110111 aaaak
b111 aaaal
b10101 aaaam
b1000 aaaan
b10100 aaaaw

#1041675
b111110 aaaao

#1062506
b1110100011110111 aaaay
b10101 aaaba
b10100 aaabc

#1062507
b110010101 aaaak
b1 aaaal
b1110110000011011 aaaam
b10 aaaan
b110010101 aaaaz
b1110110000011011 aaabb

#1083340
b1110110000011011 aaaak
b111 aaaal
b111110 aaaam
b1000 aaaan
b110010101 aaaaw

#1083342
b0 aaaao

#1104173
b1110110000011011 aaaay
b111110 aaaba
b110010101 aaabc

#1104174
b101010101 aaaak
b1 aaaal
b1100111111000011 aaaam
b10 aaaan
b101010101 aaaaz
b1100111111000011 aaabb

#1125007
b1100111111000011 aaaak
b111 aaaal
b0 aaaam
b1000 aaaan
b101010101 aaaaw

#1125009
b11011111111 aaaao

#1145840
b1100111111000011 aaaay
b0 aaaba
b101010101 aaabc

#1145841
b100110011010 aaaak
b1 aaaal
b11100100100010 aaaam
b10 aaaan
b100110011010 aaaaz
b11100100100010 aaabb

#1166674
b11100100100010 aaaak
b111 aaaal
b11011111111 aaaam
b1000 aaaan
b100110011010 aaaaw

#1166676
b1111111111111111 aaaao

#1187507
b11100100100010 aaaay
b11011111111 aaaba
b100110011010 aaabc

#1187508
b1111111111111111 aaaak
b1 aaaal
b1111111111111111 aaaam
b10 aaaan
b1111111111111111 aaaaz
b1111111111111111 aaabb

#1208341
b111 aaaal
b1000 aaaan
b1111111111111111 aaaaw

#1229174
b100111 aaaam
b100110 aaaaw
b100 aaaax
b1111111111111111 aaaay
b1111111111111111 aaaba
b1111111111111111 aaabc
b100110 aaabd

#1229175
b100111 aaaak
b1 aaaal
b101000 aaaam
b10 aaaan
b100111 aaaaz
b100111 aaaba
b101000 aaabb

#1250007
b11110011 aaaaa
b100001 aaaam
b1000 aaaan
b1011011111 aaabe

#1270840
b1011011111 aaaam
b100001 aaaba
b11110011 aaabe

#1270841
b100000 aaaaw
b100000 aaabd

#1270842
b100110 aaaak
b100110 aaaaz

#1291673
b11110011 aaaam
b1011011111 aaaba

#1291674
b11111 aaaaa

#1291675
b111 aaaal

#1312506
b100111 aaaam
b10 aaaan
b11110011 aaaba
b100111 aaabb

#1312507
b11111 aaabe

#1312508
b100000 aaaak
b1 aaaaw
b100110 aaaay
b1 aaabd

#1333339
b11111 aaaam
b1000 aaaan
b101000 aaaao
b1001 aaaap

#1333341
b10000010 aaaaa
b1 aaaak
b100000 aaaay

#1354172
b100111 aaaao
b11111 aaaba

#1354173
b1 aaaam
b10 aaaan
b1 aaabb

#1354174
b1 aaaal
b1 aaaay
b1 aaaaz
b10000010 aaabe

#1354175
b1100010111101011 aaaaw
b1100010111101011 aaabd

#1375006
b10000010 aaaam
b1000 aaaan
b1 aaaao

#1375008
b11011101010110 aaaaa

#1395839
b10000010 aaaba

#1395840
b1100010111101011 aaaam
b10 aaaan
b1100010111101011 aaabb

#1395841
b11011101010110 aaabe

#1395842
b1111111111111111 aaaaw
b1111111111111111 aaabd

#1416673
b11011101010110 aaaam
b1000 aaaan
b1100010111101011 aaaao

#1416675
b1111111111111111 aaaaa

#1437506
b11011101010110 aaaba

#1437507
b1111111111111111 aaaam
b10 aaaan
b1111111111111111 aaabb

#1437508
b1111111111111111 aaabe

#1458340
b1000 aaaan
b1111111111111111 aaaao

#1479173
b100111 aaaam
b1111111111111111 aaaba

#1500006
b1100010111101011 aaaak
b111 aaaal
b100110 aaaam
b100111 aaaba

#1520839
b1111111111111111 aaaak
b1 aaaam
b1100010111101011 aaaay
b1100010111101011 aaaaz
b100110 aaaba

#1541672
b100001 aaaam
b10 aaaan
b1111111111111111 aaaay
b1 aaaba
b100001 aaabb

#1562505
b1100010111101011 aaaam
b1000 aaaan

#1562506
b1 aaaal
b1111111111111111 aaaaz

#1583338
b1100010111101011 aaaba

#1583339
b100111 aaaam
b10 aaaan
b100111 aaabb

#1604172
b100001 aaaaa
b110 aaaab
b1111111111111111 aaaam
b1000 aaaan
b100001 aaabf

#1625005
b100111 aaaaa
b1111111111111111 aaaba
b100111 aaabf

#1625006
b1 aaaam
b10 aaaan
b1 aaabb

#1645839
b1 aaaaa
b1 aaabf

#1666673
b1100010111101011 aaaam
b1100010111101011 aaabb

#1687506
b1100010111101011 aaaaa
b1100010111101011 aaabf

#1708340
b1111111111111111 aaaam
b1111111111111111 aaabb

#1729173
b1111111111111111 aaaaa
b1111111111111111 aaabf

#101479173
b100110 aaaam
b100111 aaaao
b11 aaaap
b100110 aaabb

#101520840
b100111 aaaam
b101000 aaaao
b100111 aaabb

#101541672
b100000 aaaak
b100000 aaaaz

#101541673
b1000 aaaan

#101562505
b100110 aaaak
b111 aaaal

#101562506
b101000 aaaam
b100111 aaaba

#101562507
b11000001 aaaao

#101583338
b100111 aaaak
b100110 aaaay

#101583339
b110001001111111 aaaam
b10 aaaan
b101000 aaaba
b110001001111111 aaabb

#101604171
b100110 aaaak
b1 aaaal
b100111 aaaay
b100110 aaaaz

#101604172
b11000001 aaaam
b1000 aaaan

#101604174
b11000010 aaaao

#101625004
b110001001111111 aaaak
b111 aaaal
b100000 aaaaw
b1010 aaaax

#101625005
b11000001 aaaba

#101625006
b1011001110100000 aaaam
b10 aaaan
b1011001110100000 aaabb

#101645837
b100110 aaaaw
b110001001111111 aaaay
b100000 aaabc

#101645838
b110111000 aaaak
b1 aaaal
b110111000 aaaaz

#101645839
b11000010 aaaam
b1000 aaaan

#101645841
b1111000 aaaao

#101666670
b100110 aaabc

#101666671
b1011001110100000 aaaak
b111 aaaal
b110111000 aaaaw

#101666672
b11000010 aaaba

#101666673
b1011110101111111 aaaam
b10 aaaan
b1011110101111111 aaabb

#101687504
b1011001110100000 aaaay
b110111000 aaabc

#101687505
b10111011 aaaak
b1 aaaal
b10111011 aaaaz

#101687506
b1111000 aaaam
b1000 aaaan

#101687508
b101001 aaaao

#101708338
b1011110101111111 aaaak
b111 aaaal
b10111011 aaaaw

#101708339
b1111000 aaaba

#101708340
b1010110100101010 aaaam
b10 aaaan
b1010110100101010 aaabb

#101729171
b1011110101111111 aaaay
b10111011 aaabc

#101729172
b101111000 aaaak
b1 aaaal
b101111000 aaaaz

#101729173
b101001 aaaam
b1000 aaaan

#101729175
b101011 aaaao

#101750005
b1010110100101010 aaaak
b111 aaaal
b101111000 aaaaw

#101750006
b100111 aaaaa
b0 aaaab
b101001 aaaba

#101750007
b11111001100110 aaaam
b10 aaaan
b11111001100110 aaabb

#101770838
b1010110100101010 aaaay
b101111000 aaabc

#101770839
b1011110 aaaak
b1 aaaal
b1011110 aaaaz
b100111 aaabe

#101770840
b101011 aaaam
b1000 aaaan

#101770842
b11111 aaaao

#101791672
b11111001100110 aaaak
b111 aaaal
b1011110 aaaaw

#101791673
b100001 aaaaa
b101011 aaaba

#101791674
b1110001100010000 aaaam
b10 aaaan
b1110001100010000 aaabb

#101812505
b11111001100110 aaaay
b1011110 aaabc

#101812506
b101101100 aaaak
b1 aaaal
b101101100 aaaaz
b100001 aaabe

#101812507
b11111 aaaam
b1000 aaaan

#101812509
b1101110 aaaao

#101833339
b1110001100010000 aaaak
b111 aaaal
b101101100 aaaaw

#101833340
b1011101010 aaaaa
b11111 aaaba

#101833341
b1010110010111001 aaaam
b10 aaaan
b1010110010111001 aaabb

#101854172
b1110001100010000 aaaay
b101101100 aaabc

#101854173
b111100110 aaaak
b1 aaaal
b111100110 aaaaz

#101854174
b1101110 aaaam
b1000 aaaan

#101854176
b11000000 aaaao

#101875006
b1010110010111001 aaaak
b111 aaaal
b111100110 aaaaw

#101875007
b1101110 aaaba

#101875008
b101111101000000 aaaam
b10 aaaan
b101111101000000 aaabb

#101895839
b1010110010111001 aaaay
b111100110 aaabc

#101895840
b100001000 aaaak
b1 aaaal
b100001000 aaaaz

#101895841
b11000000 aaaam
b1000 aaaan

#101895843
b1111 aaaao

#101916673
b101111101000000 aaaak
b111 aaaal
b100001000 aaaaw

#101916674
b11000000 aaaba

#101916675
b111100010001 aaaam
b10 aaaan
b111100010001 aaabb

#101937506
b101111101000000 aaaay
b100001000 aaabc

#101937507
b11011001 aaaak
b1 aaaal
b11011001 aaaaz

#101937508
b1111 aaaam
b1000 aaaan

#101937510
b10100101 aaaao

#101958340
b111100010001 aaaak
b111 aaaal
b11011001 aaaaw

#101958341
b1111 aaaba

#101958342
b110010101111000 aaaam
b10 aaaan
b110010101111000 aaabb

#101979173
b111100010001 aaaay
b11011001 aaabc

#101979174
b100001010 aaaak
b1 aaaal
b100001010 aaaaz

#101979175
b10100101 aaaam
b1000 aaaan

#101979177
b10111100 aaaao

#102000007
b110010101111000 aaaak
b111 aaaal
b100001010 aaaaw

#102000008
b10100101 aaaba

#102000009
b1001010000110010 aaaam
b10 aaaan
b1001010000110010 aaabb

#102020840
b110010101111000 aaaay
b100001010 aaabc

#102020841
b100011111 aaaak
b1 aaaal
b100011111 aaaaz

#102020842
b10111100 aaaam
b1000 aaaan

#102020844
b10100110 aaaao

#102041674
b1001010000110010 aaaak
b111 aaaal
b100011111 aaaaw

#102041675
b10111100 aaaba

#102041676
b11010111001100 aaaam
b10 aaaan
b11010111001100 aaabb

#102062507
b1001010000110010 aaaay
b100011111 aaabc

#102062508
b11111001 aaaak
b1 aaaal
b11111001 aaaaz

#102062509
b10100110 aaaam
b1000 aaaan

#102062511
b1100111 aaaao

#102083341
b11010111001100 aaaak
b111 aaaal
b11111001 aaaaw

#102083342
b10100110 aaaba

#102083343
b10010111011001 aaaam
b10 aaaan
b10010111011001 aaabb

#102104174
b11010111001100 aaaay
b11111001 aaabc

#102104175
b1010100 aaaak
b1 aaaal
b1010100 aaaaz

#102104176
b1100111 aaaam
b1000 aaaan

#102104178
b100011 aaaao

#102125008
b10010111011001 aaaak
b111 aaaal
b1010100 aaaaw

#102125009
b1100111 aaaba

#102125010
b1000101100001001 aaaam
b10 aaaan
b1000101100001001 aaabb

#102145841
b10010111011001 aaaay
b1010100 aaabc

#102145842
b11001000 aaaak
b1 aaaal
b11001000 aaaaz

#102145843
b100011 aaaam
b1000 aaaan

#102145845
b10010000 aaaao

#102166675
b1000101100001001 aaaak
b111 aaaal
b11001000 aaaaw

#102166676
b100011 aaaba

#102166677
b110111111001101 aaaam
b10 aaaan
b110111111001101 aaabb

#102187508
b1000101100001001 aaaay
b11001000 aaabc

#102187509
b1110 aaaak
b1 aaaal
b1110 aaaaz

#102187510
b10010000 aaaam
b1000 aaaan

#102187512
b11110010 aaaao

#102208342
b110111111001101 aaaak
b111 aaaal
b1110 aaaaw

#102208343
b10010000 aaaba

#102208344
b1111011100011101 aaaam
b10 aaaan
b1111011100011101 aaabb

#102229175
b110111111001101 aaaay
b1110 aaabc

#102229176
b100100110 aaaak
b1 aaaal
b100100110 aaaaz

#102229177
b11110010 aaaam
b1000 aaaan

#102229179
b10011010 aaaao

#102250009
b1111011100011101 aaaak
b111 aaaal
b100100110 aaaaw

#102250010
b11110010 aaaba

#102250011
b1111000010111110 aaaam
b10 aaaan
b1111000010111110 aaabb

#102270842
b1111011100011101 aaaay
b100100110 aaabc

#102270843
b1110010 aaaak
b1 aaaal
b1110010 aaaaz

#102270844
b10011010 aaaam
b1000 aaaan

#102270846
b110111 aaaao

#102291676
b1111000010111110 aaaak
b111 aaaal
b1110010 aaaaw

#102291677
b10011010 aaaba

#102291678
b110001100111101 aaaam
b10 aaaan
b110001100111101 aaabb

#102312509
b1111000010111110 aaaay
b1110010 aaabc

#102312510
b1010010 aaaak
b1 aaaal
b1010010 aaaaz

#102312511
b110111 aaaam
b1000 aaaan

#102312513
b111001 aaaao

#102333343
b110001100111101 aaaak
b111 aaaal
b1010010 aaaaw

#102333344
b110111 aaaba

#102333345
b1001111001011101 aaaam
b10 aaaan
b1001111001011101 aaabb

#102354176
b110001100111101 aaaay
b1010010 aaabc

#102354177
b111000011 aaaak
b1 aaaal
b111000011 aaaaz

#102354178
b111001 aaaam
b1000 aaaan

#102354180
b1111000 aaaao

#102375010
b1001111001011101 aaaak
b111 aaaal
b111000011 aaaaw

#102375011
b111001 aaaba

#102375012
b1011001110100110 aaaam
b10 aaaan
b1011001110100110 aaabb

#102395843
b1001111001011101 aaaay
b111000011 aaabc

#102395844
b101001000 aaaak
b1 aaaal
b101001000 aaaaz

#102395845
b1111000 aaaam
b1000 aaaan

#102395847
b11000011 aaaao

#102416677
b1011001110100110 aaaak
b111 aaaal
b101001000 aaaaw

#102416678
b1111000 aaaba

#102416679
b100110110110010 aaaam
b10 aaaan
b100110110110010 aaabb

#102437510
b1011001110100110 aaaay
b101001000 aaabc

#102437511
b101100110 aaaak
b1 aaaal
b101100110 aaaaz

#102437512
b11000011 aaaam
b1000 aaaan

#102437514
b11011111 aaaao

#102458344
b100110110110010 aaaak
b111 aaaal
b101100110 aaaaw

#102458345
b11000011 aaaba

#102458346
b1010101010111101 aaaam
b10 aaaan
b1010101010111101 aaabb

#102479177
b100110110110010 aaaay
b101100110 aaabc

#102479178
b1000010 aaaak
b1 aaaal
b1000010 aaaaz

#102479179
b11011111 aaaam
b1000 aaaan

#102479181
b1100100 aaaao

#102500011
b1010101010111101 aaaak
b111 aaaal
b1000010 aaaaw

#102500012
b11011111 aaaba

#102500013
b10001011101000 aaaam
b10 aaaan
b10001011101000 aaabb

#102520844
b1010101010111101 aaaay
b1000010 aaabc

#102520845
b110011010 aaaak
b1 aaaal
b110011010 aaaaz

#102520846
b1100100 aaaam
b1000 aaaan

#102520848
b111101 aaaao

#102541678
b10001011101000 aaaak
b111 aaaal
b110011010 aaaaw

#102541679
b1100100 aaaba

#102541680
b110011000000000 aaaam
b10 aaaan
b110011000000000 aaabb

#102562511
b10001011101000 aaaay
b110011010 aaabc

#102562512
b10100100 aaaak
b1 aaaal
b10100100 aaaaz

#102562513
b111101 aaaam
b1000 aaaan

#102562515
b100111 aaaao

#102583345
b110011000000000 aaaak
b111 aaaal
b10100100 aaaaw

#102583346
b111101 aaaba

#102583347
b111011000010111 aaaam
b10 aaaan
b111011000010111 aaabb

#102604178
b110011000000000 aaaay
b10100100 aaabc

#102604179
b1111011 aaaak
b1 aaaal
b1111011 aaaaz

#102604180
b100111 aaaam
b1000 aaaan

#102604182
b1111001100100100 aaaao

#102625012
b111011000010111 aaaak
b111 aaaal
b1111011 aaaaw

#102625013
b100111 aaaba

#102625014
b101011001110110 aaaam
b10 aaaan
b101011001110110 aaabb

#102645845
b111011000010111 aaaay
b1111011 aaabc

#102645846
b100101010 aaaak
b1 aaaal
b100101010 aaaaz

#102645847
b1111001100100100 aaaam
b1000 aaaan

#102645849
b1111111111111111 aaaao

#102666679
b101011001110110 aaaak
b111 aaaal
b100101010 aaaaw

#102666680
b1111001100100100 aaaba

#102666681
b1111111111111111 aaaam
b10 aaaan
b1111111111111111 aaabb

#102687512
b101011001110110 aaaay
b100101010 aaabc

#102687513
b110000001100111 aaaak
b1 aaaal
b110000001100111 aaaaz

#102687514
b1000 aaaan

#102708346
b1111111111111111 aaaak
b111 aaaal
b110000001100111 aaaaw

#102708347
b100111 aaaam
b1111111111111111 aaaba

#102708348
b101000 aaaam
b10 aaaan
b100111 aaaba
b101000 aaabb

#102729179
b1111111111111111 aaaay
b110000001100111 aaabc

#102729180
b11010110 aaaaa
b1 aaaal
b100001 aaaam
b1000 aaaan
b1111111111111111 aaaaz
b1011101010 aaabe

#102750013
b1011101010 aaaam
b1111111111111111 aaaaw
b100001 aaaba
b11010110 aaabe

#102770846
b11010110 aaaam
b100110 aaaaw
b100 aaaax
b1011101010 aaaba
b1111111111111111 aaabc
b100110 aaabd

#102770847
b101010001 aaaaa
b100111 aaaak
b100111 aaaaz

#102791679
b100111 aaaam
b10 aaaan
b11010110 aaaba
b100111 aaabb

#102791680
b101010001 aaabe

#102812512
b101010001 aaaam
b1000 aaaan
b101000 aaaao
b1001 aaaap

#102812513
b100000 aaaaw
b100000 aaabd

#102812514
b100111001 aaaaa
b100110 aaaak
b100110 aaaaz

#102833345
b100111 aaaao
b101010001 aaaba

#102833346
b1 aaaam
b10 aaaan
b1 aaabb

#102833347
b111 aaaal
b100111001 aaabe

#102854179
b100111001 aaaam
b1000 aaaan
b1 aaaao

#102854180
b100000 aaaak
b1 aaaaw
b100110 aaaay
b1 aaabd

#102854181
b101100111010100 aaaaa

#102875012
b100111001 aaaba

#102875013
b1 aaaak
b1100010111101011 aaaam
b10 aaaan
b100000 aaaay
b1100010111101011 aaabb

#102875014
b101100111010100 aaabe

#102895846
b1 aaaal
b101100111010100 aaaam
b1000 aaaan
b1100010111101011 aaaao
b1 aaaay
b1 aaaaz

#102895847
b1100010111101011 aaaaw
b1100010111101011 aaabd

#102895848
b1111111111111111 aaaaa

#102916679
b101100111010100 aaaba

#102916680
b1111111111111111 aaaam
b10 aaaan
b1111111111111111 aaabb

#102916681
b1111111111111111 aaabe

#102937513
b1000 aaaan
b1111111111111111 aaaao

#102937514
b1111111111111111 aaaaw
b1111111111111111 aaabd

#102958346
b100111 aaaam
b1111111111111111 aaaba

#102979179
b1100010111101011 aaaak
b111 aaaal
b100110 aaaam
b100111 aaaba

#103000012
b1111111111111111 aaaak
b1 aaaam
b1100010111101011 aaaay
b1100010111101011 aaaaz
b100110 aaaba

#103020845
b100001 aaaam
b10 aaaan
b1111111111111111 aaaay
b1 aaaba
b100001 aaabb

#103041678
b1100010111101011 aaaam
b1000 aaaan

#103041679
b1 aaaal
b1111111111111111 aaaaz

#103062511
b1100010111101011 aaaba

#103062512
b100111 aaaam
b10 aaaan
b100111 aaabb

#103083345
b100001 aaaaa
b110 aaaab
b1111111111111111 aaaam
b1000 aaaan
b100001 aaabf

#103104178
b100111 aaaaa
b1111111111111111 aaaba
b100111 aaabf

#103104179
b1 aaaam
b10 aaaan
b1 aaabb

#103125012
b1 aaaaa
b1 aaabf

#103145846
b1100010111101011 aaaam
b1100010111101011 aaabb

#103166679
b1100010111101011 aaaaa
b1100010111101011 aaabf

#103187513
b1111111111111111 aaaam
b1111111111111111 aaabb

#103208346
b1111111111111111 aaaaa
b1111111111111111 aaabf

#202958346
b100110 aaaam
b100111 aaaao
b11 aaaap
b100110 aaabb

#203000013
b100111 aaaam
b101000 aaaao
b100111 aaabb

#203020846
b100110 aaaak
b111 aaaal
b1000 aaaan

#203041679
b100111 aaaak
b101000 aaaam
b100110 aaaay
b100111 aaaba

#203041680
b1110111 aaaao

#203062512
b101110000011000 aaaam
b10 aaaan
b100111 aaaay
b101000 aaaba
b101110000011000 aaabb

#203083345
b101110000011000 aaaak
b1110111 aaaam
b1000 aaaan

#203083347
b1010101 aaaao

#203104178
b101110000011000 aaaay
b1110111 aaaba

#203104179
b111100111010001 aaaam
b10 aaaan
b111100111010001 aaabb

#203125012
b111100111010001 aaaak
b1010101 aaaam
b1000 aaaan

#203125014
b11101001 aaaao

#203145845
b111100111010001 aaaay
b1010101 aaaba

#203145846
b1111001101010000 aaaam
b10 aaaan
b1111001101010000 aaabb

