ExoMars2020/Network/traces/network.vcd
$date
     Oct 15, 2018       12:01:05
$end

$version
 SystemC 2.3.2-Accellera --- Oct  1 2018 18:40:03
$end

$timescale
     1 ps
$end

$scope module SystemC $end
$var wire   16  aaaaa  packet1_channel [15:0]  $end
$var wire   16  aaaad  packet2_channel [15:0]  $end
$var wire   16  aaaag  switched_packets_channels [15:0]  $end
$var wire   16  aaaaj  sink [15:0]  $end
$scope module gu $end
$var wire   16  aaaab  port1 [15:0]  $end
$var wire   16  aaaae  port2 [15:0]  $end
$upscope $end
$scope module pu $end
$var wire   16  aaaal  port [15:0]  $end
$upscope $end
$scope module ssu $end
$var wire   16  aaaai  ports(1) [15:0]  $end
$var wire   16  aaaak  ports(1) [15:0]  $end
$upscope $end
$scope module su $end
$var wire   16  aaaac  ports(1) [15:0]  $end
$var wire   16  aaaaf  ports(2) [15:0]  $end
$var wire   16  aaaah  ports(3) [15:0]  $end
$upscope $end
$upscope $end
$enddefinitions  $end

$comment
All initial values are dumped below at time 0 sec = 0 timescale units.
$end

$dumpvars
b100000 aaaaa
b100000 aaaab
b100000 aaaac
b100000 aaaad
b100000 aaaae
b100000 aaaaf
b0 aaaag
b0 aaaah
b0 aaaai
b0 aaaaj
b0 aaaak
b0 aaaal
$end

#41667
b100001 aaaaa
b100001 aaaab
b100010 aaaad
b100010 aaaae

#62500
b100001 aaaac
b100010 aaaaf
b100000 aaaag
b100000 aaaah

#83333
b100010 aaaag
b100010 aaaah
b100000 aaaai

#83334
b1011100 aaaaa
b1011100 aaaab
b100110 aaaad
b100110 aaaae

#104166
b100010 aaaai
b100000 aaaaj
b100000 aaaak

#104167
b100110 aaaaf
b100110 aaaag
b100110 aaaah

#124999
b100110 aaaai
b100010 aaaaj
b100010 aaaak
b100000 aaaal

#125001
b1100001 aaaad
b1100001 aaaae

#145832
b100110 aaaaj
b100110 aaaak
b100010 aaaal

#145834
b1100001 aaaaf
b1100001 aaaag
b1100001 aaaah

#166665
b100110 aaaal

#166667
b1100001 aaaai
b1100001 aaaaj
b1100001 aaaak

#166668
b110010 aaaad
b110010 aaaae

#187500
b1100001 aaaal

#187501
b110010 aaaaf
b110010 aaaag
b110010 aaaah

#208334
b110010 aaaai
b110010 aaaaj
b110010 aaaak

#208335
b11111 aaaad
b11111 aaaae

#229167
b110010 aaaal

#229168
b11111 aaaaf
b11111 aaaag
b11111 aaaah

#250001
b11111 aaaai
b11111 aaaaj
b11111 aaaak

#250002
b1001110 aaaad
b1001110 aaaae

#270834
b11111 aaaal

#270835
b1001110 aaaaf
b1001110 aaaag
b1001110 aaaah

#291668
b1001110 aaaai
b1001110 aaaaj
b1001110 aaaak

#291669
b111 aaaad
b111 aaaae

#312501
b1001110 aaaal

#312502
b111 aaaaf
b111 aaaag
b111 aaaah

#333335
b111 aaaai
b111 aaaaj
b111 aaaak

#333336
b101111 aaaad
b101111 aaaae

#354168
b111 aaaal

#354169
b101111 aaaaf
b101111 aaaag
b101111 aaaah

#375002
b101111 aaaai
b101111 aaaaj
b101111 aaaak

#375003
b1111001 aaaad
b1111001 aaaae

#395835
b101111 aaaal

#395836
b1111001 aaaaf
b1111001 aaaag
b1111001 aaaah

#416669
b1111001 aaaai
b1111001 aaaaj
b1111001 aaaak

#416670
b1001110 aaaad
b1001110 aaaae

#437502
b1111001 aaaal

#437503
b1001110 aaaaf
b1001110 aaaag
b1001110 aaaah

#458336
b1001110 aaaai
b1001110 aaaaj
b1001110 aaaak

#458337
b101101 aaaad
b101101 aaaae

#479169
b1001110 aaaal

#479170
b101101 aaaaf
b101101 aaaag
b101101 aaaah

#500003
b101101 aaaai
b101101 aaaaj
b101101 aaaak

#500004
b10001001111000 aaaad
b10001001111000 aaaae

#520836
b101101 aaaal

#520837
b10001001111000 aaaaf
b10001001111000 aaaag
b10001001111000 aaaah

#541670
b10001001111000 aaaai
b10001001111000 aaaaj
b10001001111000 aaaak

#541671
b1111111111111111 aaaad
b1111111111111111 aaaae

#562503
b10001001111000 aaaal

#562504
b1111111111111111 aaaaf
b1111111111111111 aaaag
b1111111111111111 aaaah

#583337
b100000 aaaag
b100000 aaaah
b1111111111111111 aaaai
b1111111111111111 aaaaj
b1111111111111111 aaaak

#604170
b10000 aaaaa
b10000 aaaab
b1011100 aaaac
b100001 aaaag
b100001 aaaah
b100000 aaaai
b100010 aaaaj
b100010 aaaal

#625003
b10000 aaaac
b1011100 aaaag
b1011100 aaaah
b100001 aaaai
b100000 aaaaj
b100000 aaaak

#645836
b10000 aaaag
b10000 aaaah
b1011100 aaaai
b100001 aaaaj
b100001 aaaak
b100000 aaaal

#645837
b1001 aaaaa
b1001 aaaab

#666669
b10000 aaaai
b1011100 aaaaj
b1011100 aaaak
b100001 aaaal

#666670
b1001 aaaac
b1001 aaaag
b1001 aaaah

#687502
b100000 aaaaj
b100000 aaaal

#687504
b1000111 aaaaa
b1000111 aaaab

#708335
b100010 aaaag
b100010 aaaai
b10000 aaaaj
b10000 aaaak

#708337
b1000111 aaaac

#729168
b100000 aaaag
b100010 aaaah
b100000 aaaai
b1001 aaaaj
b1001 aaaak
b10000 aaaal

#729171
b1010001 aaaaa
b1010001 aaaab

#750001
b1010001 aaaac
b100010 aaaad
b100010 aaaaf
b1000111 aaaag
b1000111 aaaah
b1 aaaaj
b1 aaaal

#770834
b100000 aaaad
b100010 aaaae
b100000 aaaaf
b1010001 aaaag
b1010001 aaaah
b1000111 aaaai
b1000111 aaaaj
b1000111 aaaak

#770838
b1001010 aaaaa
b1001010 aaaab

#791667
b100000 aaaae
b1 aaaag
b1 aaaai
b1010001 aaaaj
b1010001 aaaak
b1000111 aaaal

#791671
b1001010 aaaac

#812500
b1 aaaad
b1 aaaaf
b1001010 aaaag
b1001010 aaaah
b1100010111101011 aaaaj
b1100010111101011 aaaal

#812505
b1011011 aaaaa
b1011011 aaaab

#833333
b1 aaaae
b1100010111101011 aaaag
b1100010111101011 aaaai
b1001010 aaaaj
b1001010 aaaak

#833338
b1011011 aaaac

#854166
b1100010111101011 aaaad
b1100010111101011 aaaaf
b1011011 aaaag
b1011011 aaaah
b1001010 aaaal

#854167
b1111111111111111 aaaaj
b1111111111111111 aaaal

#854172
b1001110 aaaaa
b1001110 aaaab

#874999
b1100010111101011 aaaae
b1011011 aaaai

#875000
b1111111111111111 aaaag
b1111111111111111 aaaai
b1011011 aaaaj
b1011011 aaaak

#875005
b1001110 aaaac

#895833
b1111111111111111 aaaad
b1111111111111111 aaaaf
b1001110 aaaag
b1001110 aaaah
b1011011 aaaal

#895839
b1111010 aaaaa
b1111010 aaaab

#916666
b1111111111111111 aaaae
b1001110 aaaai
b1001110 aaaaj
b1001110 aaaak

#916672
b1111010 aaaac
b1111010 aaaag
b1111010 aaaah

#937499
b1001110 aaaal

#937505
b1111010 aaaai
b1111010 aaaaj
b1111010 aaaak

#937506
b111100 aaaaa
b111100 aaaab

#958338
b1111010 aaaal

#958339
b111100 aaaac
b111100 aaaag
b111100 aaaah

#979172
b111100 aaaai
b111100 aaaaj
b111100 aaaak

#979173
b1001101010101000 aaaaa
b1001101010101000 aaaab

#1000005
b111100 aaaal

#1000006
b1001101010101000 aaaac
b1001101010101000 aaaag
b1001101010101000 aaaah

#1020839
b1001101010101000 aaaai
b1001101010101000 aaaaj
b1001101010101000 aaaak

#1020840
b1111111111111111 aaaaa
b1111111111111111 aaaab

#1041672
b1001101010101000 aaaal

#1041673
b1111111111111111 aaaac
b1111111111111111 aaaag
b1111111111111111 aaaah

#1062506
b1111111111111111 aaaai
b1111111111111111 aaaaj
b1111111111111111 aaaak

#1083339
b100001 aaaaj
b100001 aaaal

#1104172
b100001 aaaak

#1125006
b100000 aaaaj
b100000 aaaal

#1145839
b100001 aaaag
b100001 aaaai
b100000 aaaak

#1166672
b100000 aaaag
b100001 aaaah
b100000 aaaai

#1166673
b1 aaaaj
b1 aaaal

#1187505
b100001 aaaaa
b100001 aaaac
b100000 aaaah

#1187506
b1 aaaag
b1 aaaai
b1 aaaak

#1208338
b100000 aaaaa
b100001 aaaab
b100000 aaaac
b1 aaaah

#1208340
b1100010111101011 aaaaj
b1100010111101011 aaaal

#1229171
b1 aaaaa
b100000 aaaab
b1 aaaac

#1229173
b1100010111101011 aaaag
b1100010111101011 aaaai
b1100010111101011 aaaak

#1250004
b1 aaaab

#1250006
b1100010111101011 aaaaa
b1100010111101011 aaaac
b1100010111101011 aaaah

#1250007
b1111111111111111 aaaaj
b1111111111111111 aaaal

#1270839
b1100010111101011 aaaab

#1270840
b1111111111111111 aaaag
b1111111111111111 aaaai
b1111111111111111 aaaak

#1291673
b1111111111111111 aaaaa
b1111111111111111 aaaac
b1111111111111111 aaaah

#1312506
b1111111111111111 aaaab

#100000000
b100000 aaaaa
b100000 aaaab
b100000 aaaad
b100000 aaaae

#100020833
b100000 aaaac
b100000 aaaaf

#100041667
b100001 aaaaa
b100001 aaaab
b100010 aaaad
b100010 aaaae

#100062500
b100001 aaaac
b100010 aaaaf
b100000 aaaag
b100000 aaaah

#100083333
b100001 aaaag
b100001 aaaah
b100000 aaaai

#100083334
b100101 aaaaa
b100101 aaaab
b1011100 aaaad
b1011100 aaaae

#100104166
b100001 aaaai
b100000 aaaaj
b100000 aaaak

#100104167
b100101 aaaac
b100101 aaaag
b100101 aaaah

#100124999
b100101 aaaai
b100001 aaaaj
b100001 aaaak
b100000 aaaal

#100125001
b101001 aaaaa
b101001 aaaab

#100145832
b100101 aaaaj
b100101 aaaak
b100001 aaaal

#100145834
b101001 aaaac
b101001 aaaag
b101001 aaaah

#100166665
b100101 aaaal

#100166667
b101001 aaaai
b101001 aaaaj
b101001 aaaak

#100166668
b10100 aaaaa
b10100 aaaab

#100187500
b101001 aaaal

#100187501
b10100 aaaac
b10100 aaaag
b10100 aaaah

#100208334
b10100 aaaai
b10100 aaaaj
b10100 aaaak

#100208335
b110001 aaaaa
b110001 aaaab

#100229167
b10100 aaaal

#100229168
b110001 aaaac
b110001 aaaag
b110001 aaaah

#100250001
b110001 aaaai
b110001 aaaaj
b110001 aaaak

#100250002
b101100 aaaaa
b101100 aaaab

#100270834
b110001 aaaal

#100270835
b101100 aaaac
b101100 aaaag
b101100 aaaah

#100291668
b101100 aaaai
b101100 aaaaj
b101100 aaaak

#100291669
b11110 aaaaa
b11110 aaaab

#100312501
b101100 aaaal

#100312502
b11110 aaaac
b11110 aaaag
b11110 aaaah

#100333335
b11110 aaaai
b11110 aaaaj
b11110 aaaak

#100333336
b11001 aaaaa
b11001 aaaab

#100354168
b11110 aaaal

#100354169
b11001 aaaac
b11001 aaaag
b11001 aaaah

#100375002
b11001 aaaai
b11001 aaaaj
b11001 aaaak

#100375003
b1001011 aaaaa
b1001011 aaaab

#100395835
b11001 aaaal

#100395836
b1001011 aaaac
b1001011 aaaag
b1001011 aaaah

#100416669
b1001011 aaaai
b1001011 aaaaj
b1001011 aaaak

#100416670
b1101010 aaaaa
b1101010 aaaab

#100437502
b1001011 aaaal

#100437503
b1101010 aaaac
b1101010 aaaag
b1101010 aaaah

#100458336
b1101010 aaaai
b1101010 aaaaj
b1101010 aaaak

#100458337
b1001100 aaaaa
b1001100 aaaab

#100479169
b1101010 aaaal

#100479170
b1001100 aaaac
b1001100 aaaag
b1001100 aaaah

#100500003
b1001100 aaaai
b1001100 aaaaj
b1001100 aaaak

#100500004
b111010011100111 aaaaa
b111010011100111 aaaab

#100520836
b1001100 aaaal

#100520837
b111010011100111 aaaac
b111010011100111 aaaag
b111010011100111 aaaah

#100541670
b111010011100111 aaaai
b111010011100111 aaaaj
b111010011100111 aaaak

#100541671
b1111111111111111 aaaaa
b1111111111111111 aaaab

#100562503
b111010011100111 aaaal

#100562504
b1111111111111111 aaaac
b1111111111111111 aaaag
b1111111111111111 aaaah

#100583337
b100000 aaaag
b100000 aaaah
b1111111111111111 aaaai
b1111111111111111 aaaaj
b1111111111111111 aaaak

#100604170
b1010101 aaaad
b1010101 aaaae
b1011100 aaaaf
b100010 aaaag
b100010 aaaah
b100000 aaaai
b100001 aaaaj
b100001 aaaal

#100625003
b1010101 aaaaf
b1011100 aaaag
b1011100 aaaah
b100010 aaaai
b100000 aaaaj
b100000 aaaak

#100645836
b1010101 aaaag
b1010101 aaaah
b1011100 aaaai
b100010 aaaaj
b100010 aaaak
b100000 aaaal

#100645837
b100110 aaaad
b100110 aaaae

#100666669
b1010101 aaaai
b1011100 aaaaj
b1011100 aaaak
b100010 aaaal

#100666670
b100110 aaaaf
b100110 aaaag
b100110 aaaah

#100687502
b100000 aaaaj
b100000 aaaal

#100687504
b1001011 aaaad
b1001011 aaaae

#100708335
b100001 aaaag
b100001 aaaai
b1010101 aaaaj
b1010101 aaaak

#100708337
b1001011 aaaaf

#100729168
b100000 aaaag
b100001 aaaah
b100000 aaaai
b100110 aaaaj
b100110 aaaak
b1010101 aaaal

#100729171
b101010 aaaad
b101010 aaaae

#100750001
b100001 aaaaa
b100001 aaaac
b101010 aaaaf
b1001011 aaaag
b1001011 aaaah
b1 aaaaj
b1 aaaal

#100770834
b100000 aaaaa
b100001 aaaab
b100000 aaaac
b101010 aaaag
b101010 aaaah
b1001011 aaaai
b1001011 aaaaj
b1001011 aaaak

#100770838
b100100 aaaad
b100100 aaaae

#100791667
b100000 aaaab
b1 aaaag
b1 aaaai
b101010 aaaaj
b101010 aaaak
b1001011 aaaal

#100791671
b100100 aaaaf

#100812500
b1 aaaaa
b1 aaaac
b100100 aaaag
b100100 aaaah
b1100010111101011 aaaaj
b1100010111101011 aaaal

#100812505
b110101 aaaad
b110101 aaaae

#100833333
b1 aaaab
b1100010111101011 aaaag
b1100010111101011 aaaai
b100100 aaaaj
b100100 aaaak

#100833338
b110101 aaaaf

#100854166
b1100010111101011 aaaaa
b1100010111101011 aaaac
b110101 aaaag
b110101 aaaah
b100100 aaaal

#100854167
b1111111111111111 aaaaj
b1111111111111111 aaaal

#100854172
b1110 aaaad
b1110 aaaae

#100874999
b1100010111101011 aaaab
b110101 aaaai

#100875000
b1111111111111111 aaaag
b1111111111111111 aaaai
b110101 aaaaj
b110101 aaaak

#100875005
b1110 aaaaf

#100895833
b1111111111111111 aaaaa
b1111111111111111 aaaac
b1110 aaaag
b1110 aaaah
b110101 aaaal

#100895839
b1101010 aaaad
b1101010 aaaae

#100916666
b1111111111111111 aaaab
b1110 aaaai
b1110 aaaaj
b1110 aaaak

#100916672
b1101010 aaaaf
b1101010 aaaag
b1101010 aaaah

#100937499
b1110 aaaal

#100937505
b1101010 aaaai
b1101010 aaaaj
b1101010 aaaak

#100937506
b100111 aaaad
b100111 aaaae

#100958338
b1101010 aaaal

#100958339
b100111 aaaaf
b100111 aaaag
b100111 aaaah

#100979172
b100111 aaaai
b100111 aaaaj
b100111 aaaak

#100979173
b1110010000011010 aaaad
b1110010000011010 aaaae

#101000005
b100111 aaaal

#101000006
b1110010000011010 aaaaf
b1110010000011010 aaaag
b1110010000011010 aaaah

#101020839
b1110010000011010 aaaai
b1110010000011010 aaaaj
b1110010000011010 aaaak

#101020840
b1111111111111111 aaaad
b1111111111111111 aaaae

#101041672
b1110010000011010 aaaal

#101041673
b1111111111111111 aaaaf
b1111111111111111 aaaag
b1111111111111111 aaaah

#101062506
b1111111111111111 aaaai
b1111111111111111 aaaaj
b1111111111111111 aaaak

#101083339
b100010 aaaaj
b100010 aaaal

#101104172
b100010 aaaak

#101125006
b100000 aaaaj
b100000 aaaal

#101145839
b100010 aaaag
b100010 aaaai
b100000 aaaak

#101166672
b100000 aaaag
b100010 aaaah
b100000 aaaai

#101166673
b1 aaaaj
b1 aaaal

#101187505
b100010 aaaad
b100010 aaaaf
b100000 aaaah

#101187506
b1 aaaag
b1 aaaai
b1 aaaak

#101208338
b100000 aaaad
b100010 aaaae
b100000 aaaaf
b1 aaaah

#101208340
b1100010111101011 aaaaj
b1100010111101011 aaaal

#101229171
b1 aaaad
b100000 aaaae
b1 aaaaf

#101229173
b1100010111101011 aaaag
b1100010111101011 aaaai
b1100010111101011 aaaak

#101250004
b1 aaaae

#101250006
b1100010111101011 aaaad
b1100010111101011 aaaaf
b1100010111101011 aaaah

#101250007
b1111111111111111 aaaaj
b1111111111111111 aaaal

#101270839
b1100010111101011 aaaae

#101270840
b1111111111111111 aaaag
b1111111111111111 aaaai
b1111111111111111 aaaak

#101291673
b1111111111111111 aaaad
b1111111111111111 aaaaf
b1111111111111111 aaaah

#101312506
b1111111111111111 aaaae

#200000000
b100000 aaaaa
b100000 aaaab
b100000 aaaad
b100000 aaaae

#200020833
b100000 aaaac
b100000 aaaaf

#200041667
b100001 aaaaa
b100001 aaaab
b100010 aaaad
b100010 aaaae

#200062500
b100001 aaaac
b100010 aaaaf
b100000 aaaag
b100000 aaaah

#200083333
b100010 aaaag
b100010 aaaah
b100000 aaaai

#200083334
b110 aaaaa
b110 aaaab
b1001100 aaaad
b1001100 aaaae

#200104166
b100010 aaaai
b100000 aaaaj
b100000 aaaak

#200104167
b1001100 aaaaf
b1001100 aaaag
b1001100 aaaah

#200124999
b1001100 aaaai
b100010 aaaaj
b100010 aaaak
b100000 aaaal

#200125001
b111001 aaaad
b111001 aaaae

#200145832
b1001100 aaaaj
b1001100 aaaak
b100010 aaaal

#200145834
b111001 aaaaf
b111001 aaaag
b111001 aaaah

#200166665
b1001100 aaaal

#200166667
b111001 aaaai
b111001 aaaaj
b111001 aaaak

#200166668
b100 aaaad
b100 aaaae

#200187500
b111001 aaaal

#200187501
b100 aaaaf
b100 aaaag
b100 aaaah

#200208334
b100 aaaai
b100 aaaaj
b100 aaaak

#200208335
b101000 aaaad
b101000 aaaae

#200229167
b100 aaaal

#200229168
b101000 aaaaf
b101000 aaaag
b101000 aaaah

#200250001
b101000 aaaai
b101000 aaaaj
b101000 aaaak

#200250002
b1110011 aaaad
b1110011 aaaae

#200270834
b101000 aaaal

#200270835
b1110011 aaaaf
b1110011 aaaag
b1110011 aaaah

#200291668
b1110011 aaaai
b1110011 aaaaj
b1110011 aaaak

#200291669
b111110 aaaad
b111110 aaaae

#200312501
b1110011 aaaal

#200312502
b111110 aaaaf
b111110 aaaag
b111110 aaaah

#200333335
b111110 aaaai
b111110 aaaaj
b111110 aaaak

#200333336
b101011 aaaad
b101011 aaaae

#200354168
b111110 aaaal

#200354169
b101011 aaaaf
b101011 aaaag
b101011 aaaah

#200375002
b101011 aaaai
b101011 aaaaj
b101011 aaaak

#200375003
b111 aaaad
b111 aaaae

#200395835
b101011 aaaal

#200395836
b111 aaaaf
b111 aaaag
b111 aaaah

#200416669
b111 aaaai
b111 aaaaj
b111 aaaak

#200416670
b1111011 aaaad
b1111011 aaaae

#200437502
b111 aaaal

#200437503
b1111011 aaaaf
b1111011 aaaag
b1111011 aaaah

#200458336
b1111011 aaaai
b1111011 aaaaj
b1111011 aaaak

#200458337
b1011 aaaad
b1011 aaaae

#200479169
b1111011 aaaal

#200479170
b1011 aaaaf
b1011 aaaag
b1011 aaaah

#200500003
b1011 aaaai
b1011 aaaaj
b1011 aaaak

#200500004
b1010000011001110 aaaad
b1010000011001110 aaaae

#200520836
b1011 aaaal

#200520837
b1010000011001110 aaaaf
b1010000011001110 aaaag
b1010000011001110 aaaah

#200541670
b1010000011001110 aaaai
b1010000011001110 aaaaj
b1010000011001110 aaaak

#200541671
b1111111111111111 aaaad
b1111111111111111 aaaae

#200562503
b1010000011001110 aaaal

#200562504
b1111111111111111 aaaaf
b1111111111111111 aaaag
b1111111111111111 aaaah

#200583337
b100000 aaaag
b100000 aaaah
b1111111111111111 aaaai
b1111111111111111 aaaaj
b1111111111111111 aaaak

#200604170
b10 aaaaa
b10 aaaab
b110 aaaac
b100001 aaaag
b100001 aaaah
b100000 aaaai
b100010 aaaaj
b100010 aaaal

#200625003
b10 aaaac
b110 aaaag
b110 aaaah
b100001 aaaai
b100000 aaaaj
b100000 aaaak

#200645836
b10 aaaag
b10 aaaah
b110 aaaai
b100001 aaaaj
b100001 aaaak
b100000 aaaal

#200645837
b111001 aaaaa
b111001 aaaab

#200666669
b10 aaaai
b110 aaaaj
b110 aaaak
b100001 aaaal

#200666670
b111001 aaaac
b111001 aaaag
b111001 aaaah

#200687502
b100000 aaaaj
b100000 aaaal

#200687504
b101000 aaaaa
b101000 aaaab

#200708335
b100010 aaaag
b100010 aaaai
b10 aaaaj
b10 aaaak

#200708337
b101000 aaaac

#200729168
b100000 aaaag
b100010 aaaah
b100000 aaaai
b111001 aaaaj
b111001 aaaak
b10 aaaal

#200729171
b1110111 aaaaa
b1110111 aaaab

#200750001
b1110111 aaaac
b100010 aaaad
b100010 aaaaf
b101000 aaaag
b101000 aaaah
b1 aaaaj
b1 aaaal

#200770834
b100000 aaaad
b100010 aaaae
b100000 aaaaf
b1110111 aaaag
b1110111 aaaah
b101000 aaaai
b101000 aaaaj
b101000 aaaak

#200770838
b1100111 aaaaa
b1100111 aaaab

#200791667
b100000 aaaae
b1 aaaag
b1 aaaai
b1110111 aaaaj
b1110111 aaaak
b101000 aaaal

#200791671
b1100111 aaaac

#200812500
b1 aaaad
b1 aaaaf
b1100111 aaaag
b1100111 aaaah
b1100010111101011 aaaaj
b1100010111101011 aaaal

#200812505
b101011 aaaaa
b101011 aaaab

#200833333
b1 aaaae
b1100010111101011 aaaag
b1100010111101011 aaaai
b1100111 aaaaj
b1100111 aaaak

#200833338
b101011 aaaac

#200854166
b1100010111101011 aaaad
b1100010111101011 aaaaf
b101011 aaaag
b101011 aaaah
b1100111 aaaal

#200854167
b1111111111111111 aaaaj
b1111111111111111 aaaal

#200854172
b100011 aaaaa
b100011 aaaab

#200874999
b1100010111101011 aaaae
b101011 aaaai

#200875000
b1111111111111111 aaaag
b1111111111111111 aaaai
b101011 aaaaj
b101011 aaaak

#200875005
b100011 aaaac

#200895833
b1111111111111111 aaaad
b1111111111111111 aaaaf
b100011 aaaag
b100011 aaaah
b101011 aaaal

#200895839
b1110001 aaaaa
b1110001 aaaab

#200916666
b1111111111111111 aaaae
b100011 aaaai
b100011 aaaaj
b100011 aaaak

#200916672
b1110001 aaaac
b1110001 aaaag
b1110001 aaaah

#200937499
b100011 aaaal

#200937505
b1110001 aaaai
b1110001 aaaaj
b1110001 aaaak

#200937506
b11000 aaaaa
b11000 aaaab

#200958338
b1110001 aaaal

#200958339
b11000 aaaac
b11000 aaaag
b11000 aaaah

#200979172
b11000 aaaai
b11000 aaaaj
b11000 aaaak

#200979173
b1100000110100110 aaaaa
b1100000110100110 aaaab

#201000005
b11000 aaaal

#201000006
b1100000110100110 aaaac
b1100000110100110 aaaag
b1100000110100110 aaaah

#201020839
b1100000110100110 aaaai
b1100000110100110 aaaaj
b1100000110100110 aaaak

#201020840
b1111111111111111 aaaaa
b1111111111111111 aaaab

#201041672
b1100000110100110 aaaal

#201041673
b1111111111111111 aaaac
b1111111111111111 aaaag
b1111111111111111 aaaah

#201062506
b1111111111111111 aaaai
b1111111111111111 aaaaj
b1111111111111111 aaaak

#201083339
b100001 aaaaj
b100001 aaaal

#201104172
b100001 aaaak

#201125006
b100000 aaaaj
b100000 aaaal

#201145839
b100001 aaaag
b100001 aaaai
b100000 aaaak

#201166672
b100000 aaaag
b100001 aaaah
b100000 aaaai

#201166673
b1 aaaaj
b1 aaaal

#201187505
b100001 aaaaa
b100001 aaaac
b100000 aaaah

#201187506
b1 aaaag
b1 aaaai
b1 aaaak

#201208338
b100000 aaaaa
b100001 aaaab
b100000 aaaac
b1 aaaah

#201208340
b1100010111101011 aaaaj
b1100010111101011 aaaal

#201229171
b1 aaaaa
b100000 aaaab
b1 aaaac

#201229173
b1100010111101011 aaaag
b1100010111101011 aaaai
b1100010111101011 aaaak

#201250004
b1 aaaab

#201250006
b1100010111101011 aaaaa
b1100010111101011 aaaac
b1100010111101011 aaaah

#201250007
b1111111111111111 aaaaj
b1111111111111111 aaaal

#201270839
b1100010111101011 aaaab

#201270840
b1111111111111111 aaaag
b1111111111111111 aaaai
b1111111111111111 aaaak

#201291673
b1111111111111111 aaaaa
b1111111111111111 aaaac
b1111111111111111 aaaah

#201312506
b1111111111111111 aaaab

