ExoMars2020/Network/traces/network.vcd
$date
     Nov 14, 2018       15:41:28
$end

$version
 SystemC 2.3.2-Accellera --- Oct  1 2018 18:40:03
$end

$timescale
     1 ps
$end

$scope module SystemC $end
$var wire   16  aaaaa  PanCam_channel_data [15:0]  $end
$var wire   32  aaaab  PanCam_channel_wid [31:0]  $end
$var wire   16  aaaac  NavCam_channel_data [15:0]  $end
$var wire   32  aaaad  NavCam_channel_wid [31:0]  $end
$var wire   16  aaaae  ISEM_channel_data [15:0]  $end
$var wire   32  aaaaf  ISEM_channel_wid [31:0]  $end
$var wire   16  aaaag  CLUPI_channel_data [15:0]  $end
$var wire   32  aaaah  CLUPI_channel_wid [31:0]  $end
$var wire   16  aaaai  Drill_channel_data [15:0]  $end
$var wire   32  aaaaj  Drill_channel_wid [31:0]  $end
$var wire   16  aaaak  Adron_channel_data [15:0]  $end
$var wire   32  aaaal  Adron_channel_wid [31:0]  $end
$var wire   16  aaaam  WISDOM_channel_data [15:0]  $end
$var wire   32  aaaan  WISDOM_channel_wid [31:0]  $end
$var wire   16  aaaao  Ma_MISS_channel_data [15:0]  $end
$var wire   32  aaaap  Ma_MISS_channel_wid [31:0]  $end
$var wire   16  aaaaq  MicrOmega_channel_data [15:0]  $end
$var wire   32  aaaar  MicrOmega_channel_wid [31:0]  $end
$var wire   16  aaaas  RLS_channel_data [15:0]  $end
$var wire   32  aaaat  RLS_channel_wid [31:0]  $end
$var wire   16  aaaau  MOMA_channel_data [15:0]  $end
$var wire   32  aaaav  MOMA_channel_wid [31:0]  $end
$var wire   16  aaaaw  PrintUnit_channel_data [15:0]  $end
$var wire   32  aaaax  PrintUnit_channel_wid [31:0]  $end
$var wire   16  aaaay  Adron_port_in [15:0]  $end
$var wire   16  aaaaz  Adron_port_out [15:0]  $end
$var wire   16  aaaba  WISDOM_port_in [15:0]  $end
$var wire   16  aaabb  WISDOM_port_out [15:0]  $end
$var wire   16  aaabc  PrintUnit_port_in [15:0]  $end
$var wire   16  aaabd  PrintUnit_port_out [15:0]  $end
$var wire   16  aaabe  router_port_adron_in [15:0]  $end
$var wire   16  aaabf  router_port_adron_out [15:0]  $end
$upscope $end
$enddefinitions  $end

$comment
All initial values are dumped below at time 0 sec = 0 timescale units.
$end

$dumpvars
b100111 aaaaa
b0 aaaab
b0 aaaac
b0 aaaad
b0 aaaae
b0 aaaaf
b0 aaaag
b0 aaaah
b0 aaaai
b0 aaaaj
b100000 aaaak
b1 aaaal
b100110 aaaam
b10 aaaan
b100111 aaaao
b11 aaaap
b0 aaaaq
b0 aaaar
b0 aaaas
b0 aaaat
b0 aaaau
b0 aaaav
b0 aaaaw
b0 aaaax
b0 aaaay
b100000 aaaaz
b0 aaaba
b100110 aaabb
b0 aaabc
b0 aaabd
b100111 aaabe
b0 aaabf
$end

#41667
b100001 aaaaa
b100110 aaaak
b100111 aaaam
b101000 aaaao
b100110 aaaaz
b100111 aaabb

#62500
b111 aaaal
b1000 aaaan
b100000 aaaaw
b1010 aaaax
b100001 aaabe

#83333
b100111 aaaak
b101000 aaaam
b100110 aaaaw
b100110 aaaay
b100111 aaaba
b100000 aaabc

#83334
b110010110 aaaaa
b11101110 aaaao

#104166
b1101101 aaaak
b1 aaaal
b110010010001100 aaaam
b10 aaaan
b100111 aaaay
b1101101 aaaaz
b101000 aaaba
b110010010001100 aaabb
b100110 aaabc

#124999
b110010010001100 aaaak
b111 aaaal
b11101110 aaaam
b1000 aaaan
b1101101 aaaaw

#125001
b1101101 aaaao

#145832
b110010010001100 aaaay
b11101110 aaaba
b1101101 aaabc

#145833
b110000100 aaaak
b1 aaaal
b111100100000111 aaaam
b10 aaaan
b110000100 aaaaz
b111100100000111 aaabb

#166666
b111100100000111 aaaak
b111 aaaal
b1101101 aaaam
b1000 aaaan
b110000100 aaaaw

#166668
b10101101 aaaao

#187499
b111100100000111 aaaay
b1101101 aaaba
b110000100 aaabc

#187500
b1010100 aaaak
b1 aaaal
b1100010010011011 aaaam
b10 aaaan
b1010100 aaaaz
b1100010010011011 aaabb

#208333
b1100010010011011 aaaak
b111 aaaal
b10101101 aaaam
b1000 aaaan
b1010100 aaaaw

#208335
b1110100 aaaao

#229166
b1100010010011011 aaaay
b10101101 aaaba
b1010100 aaabc

#229167
b101011001 aaaak
b1 aaaal
b100101101001001 aaaam
b10 aaaan
b101011001 aaaaz
b100101101001001 aaabb

#250000
b100101101001001 aaaak
b111 aaaal
b1110100 aaaam
b1000 aaaan
b101011001 aaaaw

#250002
b10101 aaaao

#270833
b100101101001001 aaaay
b1110100 aaaba
b101011001 aaabc

#270834
b11001 aaaak
b1 aaaal
b11101100001100 aaaam
b10 aaaan
b11001 aaaaz
b11101100001100 aaabb

#291667
b11101100001100 aaaak
b111 aaaal
b10101 aaaam
b1000 aaaan
b11001 aaaaw

#291669
b10101000 aaaao

#312500
b11101100001100 aaaay
b10101 aaaba
b11001 aaabc

#312501
b100011110 aaaak
b1 aaaal
b1000000010110110 aaaam
b10 aaaan
b100011110 aaaaz
b1000000010110110 aaabb

#333334
b1000000010110110 aaaak
b111 aaaal
b10101000 aaaam
b1000 aaaan
b100011110 aaaaw

#333336
b1010010 aaaao

#354167
b1000000010110110 aaaay
b10101000 aaaba
b100011110 aaabc

#354168
b10100100 aaaak
b1 aaaal
b1010101010010010 aaaam
b10 aaaan
b10100100 aaaaz
b1010101010010010 aaabb

#375001
b1010101010010010 aaaak
b111 aaaal
b1010010 aaaam
b1000 aaaan
b10100100 aaaaw

#375003
b10010011 aaaao

#395834
b1010101010010010 aaaay
b1010010 aaaba
b10100100 aaabc

#395835
b111010001 aaaak
b1 aaaal
b111001101010101 aaaam
b10 aaaan
b111010001 aaaaz
b111001101010101 aaabb

#416668
b111001101010101 aaaak
b111 aaaal
b10010011 aaaam
b1000 aaaan
b111010001 aaaaw

#416670
b110001 aaaao

#437501
b111001101010101 aaaay
b10010011 aaaba
b111010001 aaabc

#437502
b111101010 aaaak
b1 aaaal
b1010100100011 aaaam
b10 aaaan
b111101010 aaaaz
b1010100100011 aaabb

#458335
b1010100100011 aaaak
b111 aaaal
b110001 aaaam
b1000 aaaan
b111101010 aaaaw

#458337
b11111110 aaaao

#479168
b1010100100011 aaaay
b110001 aaaba
b111101010 aaabc

#479169
b110000111 aaaak
b1 aaaal
b1011101111100010 aaaam
b10 aaaan
b110000111 aaaaz
b1011101111100010 aaabb

#500002
b1011101111100010 aaaak
b111 aaaal
b11111110 aaaam
b1000 aaaan
b110000111 aaaaw

#500004
b10000011 aaaao

#520835
b1011101111100010 aaaay
b11111110 aaaba
b110000111 aaabc

#520836
b100111011 aaaak
b1 aaaal
b10010000000110 aaaam
b10 aaaan
b100111011 aaaaz
b10010000000110 aaabb

#541669
b10010000000110 aaaak
b111 aaaal
b10000011 aaaam
b1000 aaaan
b100111011 aaaaw

#541671
b101001 aaaao

#562502
b10010000000110 aaaay
b10000011 aaaba
b100111011 aaabc

#562503
b10011 aaaak
b1 aaaal
b1100111001000101 aaaam
b10 aaaan
b10011 aaaaz
b1100111001000101 aaabb

#583336
b1100111001000101 aaaak
b111 aaaal
b101001 aaaam
b1000 aaaan
b10011 aaaaw

#583338
b10001000 aaaao

#604169
b1100111001000101 aaaay
b101001 aaaba
b10011 aaabc

#604170
b100111001 aaaak
b1 aaaal
b10100010011100 aaaam
b10 aaaan
b100111001 aaaaz
b10100010011100 aaabb

#625003
b10100010011100 aaaak
b111 aaaal
b10001000 aaaam
b1000 aaaan
b100111001 aaaaw

#625005
b10100001 aaaao

#645836
b10100010011100 aaaay
b10001000 aaaba
b100111001 aaabc

#645837
b110101100 aaaak
b1 aaaal
b1010110110101001 aaaam
b10 aaaan
b110101100 aaaaz
b1010110110101001 aaabb

#666670
b1010110110101001 aaaak
b111 aaaal
b10100001 aaaam
b1000 aaaan
b110101100 aaaaw

#666672
b11111001 aaaao

#687503
b1010110110101001 aaaay
b10100001 aaaba
b110101100 aaabc

#687504
b10010111 aaaak
b1 aaaal
b100110111101110 aaaam
b10 aaaan
b10010111 aaaaz
b100110111101110 aaabb

#708337
b100110111101110 aaaak
b111 aaaal
b11111001 aaaam
b1000 aaaan
b10010111 aaaaw

#708339
b11110101 aaaao

#729170
b100110111101110 aaaay
b11111001 aaaba
b10010111 aaabc

#729171
b101010101 aaaak
b1 aaaal
b1101000110010111 aaaam
b10 aaaan
b101010101 aaaaz
b1101000110010111 aaabb

#750004
b1101000110010111 aaaak
b111 aaaal
b11110101 aaaam
b1000 aaaan
b101010101 aaaaw

#750006
b10110001 aaaao

#770837
b1101000110010111 aaaay
b11110101 aaaba
b101010101 aaabc

#770838
b101000010 aaaak
b1 aaaal
b1010010100111110 aaaam
b10 aaaan
b101000010 aaaaz
b1010010100111110 aaabb

#791671
b1010010100111110 aaaak
b111 aaaal
b10110001 aaaam
b1000 aaaan
b101000010 aaaaw

#791673
b10100110 aaaao

#812504
b1010010100111110 aaaay
b10110001 aaaba
b101000010 aaabc

#812505
b100101000 aaaak
b1 aaaal
b1101000111110101 aaaam
b10 aaaan
b100101000 aaaaz
b1101000111110101 aaabb

#833338
b1101000111110101 aaaak
b111 aaaal
b10100110 aaaam
b1000 aaaan
b100101000 aaaaw

#833340
b11100000 aaaao

#854171
b1101000111110101 aaaay
b10100110 aaaba
b100101000 aaabc

#854172
b110010001 aaaak
b1 aaaal
b1100000100001001 aaaam
b10 aaaan
b110010001 aaaaz
b1100000100001001 aaabb

#875005
b1100000100001001 aaaak
b111 aaaal
b11100000 aaaam
b1000 aaaan
b110010001 aaaaw

#875007
b1100100 aaaao

#895838
b1100000100001001 aaaay
b11100000 aaaba
b110010001 aaabc

#895839
b101101000 aaaak
b1 aaaal
b111101010110110 aaaam
b10 aaaan
b101101000 aaaaz
b111101010110110 aaabb

#916672
b111101010110110 aaaak
b111 aaaal
b1100100 aaaam
b1000 aaaan
b101101000 aaaaw

#916674
b10000 aaaao

#937505
b111101010110110 aaaay
b1100100 aaaba
b101101000 aaabc

#937506
b100101100 aaaak
b1 aaaal
b1001000111110101 aaaam
b10 aaaan
b100101100 aaaaz
b1001000111110101 aaabb

#958339
b1001000111110101 aaaak
b111 aaaal
b10000 aaaam
b1000 aaaan
b100101100 aaaaw

#958341
b10010 aaaao

#979172
b1001000111110101 aaaay
b10000 aaaba
b100101100 aaabc

#979173
b100010110 aaaak
b1 aaaal
b111010000101001 aaaam
b10 aaaan
b100010110 aaaaz
b111010000101001 aaabb

#1000006
b111010000101001 aaaak
b111 aaaal
b10010 aaaam
b1000 aaaan
b100010110 aaaaw

#1000008
b1011100 aaaao

#1020839
b111010000101001 aaaay
b10010 aaaba
b100010110 aaabc

#1020840
b1111100 aaaak
b1 aaaal
b1111101000101101 aaaam
b10 aaaan
b1111100 aaaaz
b1111101000101101 aaabb

#1041673
b1111101000101101 aaaak
b111 aaaal
b1011100 aaaam
b1000 aaaan
b1111100 aaaaw

#1041675
b10110111 aaaao

#1062506
b1111101000101101 aaaay
b1011100 aaaba
b1111100 aaabc

#1062507
b1101110 aaaak
b1 aaaal
b1000011100010001 aaaam
b10 aaaan
b1101110 aaaaz
b1000011100010001 aaabb

#1083340
b1000011100010001 aaaak
b111 aaaal
b10110111 aaaam
b1000 aaaan
b1101110 aaaaw

#1083342
b10010111 aaaao

#1104173
b1000011100010001 aaaay
b10110111 aaaba
b1101110 aaabc

#1104174
b111001111 aaaak
b1 aaaal
b101001001001010 aaaam
b10 aaaan
b111001111 aaaaz
b101001001001010 aaabb

#1125007
b101001001001010 aaaak
b111 aaaal
b10010111 aaaam
b1000 aaaan
b111001111 aaaaw

#1125009
b1100110100010 aaaao

#1145840
b101001001001010 aaaay
b10010111 aaaba
b111001111 aaabc

#1145841
b100000111000100 aaaak
b1 aaaal
b1000111110101 aaaam
b10 aaaan
b100000111000100 aaaaz
b1000111110101 aaabb

#1166674
b1000111110101 aaaak
b111 aaaal
b1100110100010 aaaam
b1000 aaaan
b100000111000100 aaaaw

#1166676
b1111111111111111 aaaao

#1187507
b1000111110101 aaaay
b1100110100010 aaaba
b100000111000100 aaabc

#1187508
b1111111111111111 aaaak
b1 aaaal
b1111111111111111 aaaam
b10 aaaan
b1111111111111111 aaaaz
b1111111111111111 aaabb

#1208341
b111 aaaal
b1000 aaaan
b1111111111111111 aaaaw

#1229174
b100111 aaaam
b100110 aaaaw
b100 aaaax
b1111111111111111 aaaay
b1111111111111111 aaaba
b1111111111111111 aaabc
b100110 aaabd

#1229175
b100111 aaaak
b1 aaaal
b100111 aaaaz

#1250007
b101101101 aaaaa
b100001 aaaam
b100111 aaaba
b110010110 aaabe

#1270840
b110010110 aaaam
b100001 aaaba
b101101101 aaabe

#1270841
b100000 aaaaw
b100000 aaabd

#1270842
b100110 aaaak
b100110 aaaaz

#1291673
b101000 aaaam
b10 aaaan
b110010110 aaaba
b101000 aaabb

#1291674
b1100111 aaaaa

#1291675
b111 aaaal

#1312506
b101101101 aaaam
b1000 aaaan
b1100111 aaabe

#1312508
b100000 aaaak
b1 aaaaw
b100110 aaaay
b1 aaabd

#1333339
b1100111 aaaam
b101101101 aaaba

#1333341
b1110111111 aaaaa
b1 aaaak
b100000 aaaay

#1354172
b100111 aaaam
b10 aaaan
b1100111 aaaba
b100111 aaabb

#1354174
b1 aaaal
b1 aaaay
b1 aaaaz
b1110111111 aaabe

#1354175
b1100010111101011 aaaaw
b1100010111101011 aaabd

#1375005
b1110111111 aaaam
b1000 aaaan
b101000 aaaao
b1001 aaaap

#1375008
b110111110111111 aaaaa

#1395838
b100111 aaaao
b1110111111 aaaba

#1395839
b1 aaaam
b10 aaaan
b1 aaabb

#1395841
b110111110111111 aaabe

#1395842
b1111111111111111 aaaaw
b1111111111111111 aaabd

#1416672
b110111110111111 aaaam
b1000 aaaan
b1 aaaao

#1416675
b1111111111111111 aaaaa

#1437505
b110111110111111 aaaba

#1437506
b1100010111101011 aaaam
b10 aaaan
b1100010111101011 aaabb

#1437508
b1111111111111111 aaabe

#1458339
b1111111111111111 aaaam
b1000 aaaan
b1100010111101011 aaaao

#1479172
b100111 aaaam
b1111111111111111 aaaba

#1500005
b1100010111101011 aaaak
b111 aaaal
b100110 aaaam
b100111 aaaba

#1520838
b1111111111111111 aaaak
b1 aaaam
b1100010111101011 aaaay
b1100010111101011 aaaaz
b100110 aaaba

#1541671
b1111111111111111 aaaam
b10 aaaan
b1111111111111111 aaaay
b1 aaaba
b1111111111111111 aaabb

#1562504
b1100010111101011 aaaam
b1000 aaaan
b1111111111111111 aaaao

#1562505
b1 aaaal
b1111111111111111 aaaaz

#1583337
b1100010111101011 aaaba

#1583338
b1111111111111111 aaaam

#1604171
b100001 aaaam
b10 aaaan
b1111111111111111 aaaba
b100001 aaabb

#1645838
b100111 aaaam
b100111 aaabb

#1666671
b100001 aaaaa
b110 aaaab
b100001 aaabf

#1687504
b100111 aaaaa
b100111 aaabf

#1687505
b1 aaaam
b1 aaabb

#1708338
b1 aaaaa
b1 aaabf

#1729172
b1100010111101011 aaaam
b1100010111101011 aaabb

#1750005
b1100010111101011 aaaaa
b1100010111101011 aaabf

#1770839
b1111111111111111 aaaam
b1111111111111111 aaabb

#1791672
b1111111111111111 aaaaa
b1111111111111111 aaabf

#101541671
b100000 aaaak
b100000 aaaaz

#101583337
b100111 aaaao
b11 aaaap

#101583338
b100110 aaaak
b100110 aaaaz

#101604171
b100110 aaaam
b100000 aaaaw
b1010 aaaax
b100110 aaabb

#101625004
b101000 aaaao
b100110 aaaaw
b100000 aaabc

#101625005
b10101101 aaaak
b10101101 aaaaz

#101645837
b100111 aaaam
b1000 aaaan
b100110 aaabc

#101645838
b10101101 aaaaw

#101666670
b101000 aaaam
b100111 aaaba

#101666671
b10100101 aaaao
b10101101 aaabc

#101666672
b1010 aaaak
b1010 aaaaz

#101687503
b100111 aaaam
b10 aaaan
b101000 aaaba
b100111 aaabb

#101687505
b1010 aaaaw

#101708336
b100110 aaaak
b111 aaaal
b10100101 aaaam
b1000 aaaan

#101708338
b10000110 aaaao
b1010 aaabc

#101729169
b100111 aaaak
b100110 aaaay
b10100101 aaaba

#101729170
b11001101111101 aaaam
b10 aaaan
b11001101111101 aaabb

#101750002
b101001100 aaaak
b1 aaaal
b100111 aaaay
b101001100 aaaaz

#101750003
b10000110 aaaam
b1000 aaaan

#101750005
b1010100 aaaao

#101770835
b11001101111101 aaaak
b111 aaaal
b101001100 aaaaw

#101770836
b10000110 aaaba

#101770837
b1101001110100110 aaaam
b10 aaaan
b1101001110100110 aaabb

#101791668
b11001101111101 aaaay
b101001100 aaabc

#101791669
b11011101 aaaak
b1 aaaal
b11011101 aaaaz

#101791670
b1010100 aaaam
b1000 aaaan

#101791672
b1010101 aaaao

#101812502
b1101001110100110 aaaak
b111 aaaal
b11011101 aaaaw

#101812503
b1010100 aaaba

#101812504
b101100110101111 aaaam
b10 aaaan
b101100110101111 aaabb

#101812505
b100111 aaaaa
b0 aaaab

#101833335
b1101001110100110 aaaay
b11011101 aaabc

#101833336
b100011000 aaaak
b1 aaaal
b100011000 aaaaz

#101833337
b1010101 aaaam
b1000 aaaan

#101833338
b100111 aaabe

#101833339
b11000111 aaaao

#101854169
b101100110101111 aaaak
b111 aaaal
b100011000 aaaaw

#101854170
b1010101 aaaba

#101854171
b1101101011100100 aaaam
b10 aaaan
b1101101011100100 aaabb

#101854172
b100001 aaaaa

#101875002
b101100110101111 aaaay
b100011000 aaabc

#101875003
b101011011 aaaak
b1 aaaal
b101011011 aaaaz

#101875004
b11000111 aaaam
b1000 aaaan

#101875005
b100001 aaabe

#101875006
b10010000 aaaao

#101895836
b1101101011100100 aaaak
b111 aaaal
b101011011 aaaaw

#101895837
b11000111 aaaba

#101895838
b1111011110110001 aaaam
b10 aaaan
b1111011110110001 aaabb

#101895839
b1100111110 aaaaa

#101916669
b1101101011100100 aaaay
b101011011 aaabc

#101916670
b110101001 aaaak
b1 aaaal
b110101001 aaaaz

#101916671
b10010000 aaaam
b1000 aaaan

#101916673
b1100110 aaaao

#101937503
b1111011110110001 aaaak
b111 aaaal
b110101001 aaaaw

#101937504
b10010000 aaaba

#101937505
b111111100000011 aaaam
b10 aaaan
b111111100000011 aaabb

#101958336
b1111011110110001 aaaay
b110101001 aaabc

#101958337
b1010100 aaaak
b1 aaaal
b1010100 aaaaz

#101958338
b1100110 aaaam
b1000 aaaan

#101958340
b100001 aaaao

#101979170
b111111100000011 aaaak
b111 aaaal
b1010100 aaaaw

#101979171
b1100110 aaaba

#101979172
b10101100010100 aaaam
b10 aaaan
b10101100010100 aaabb

#102000003
b111111100000011 aaaay
b1010100 aaabc

#102000004
b110001001 aaaak
b1 aaaal
b110001001 aaaaz

#102000005
b100001 aaaam
b1000 aaaan

#102000007
b110100 aaaao

#102020837
b10101100010100 aaaak
b111 aaaal
b110001001 aaaaw

#102020838
b100001 aaaba

#102020839
b1011110001011010 aaaam
b10 aaaan
b1011110001011010 aaabb

#102041670
b10101100010100 aaaay
b110001001 aaabc

#102041671
b110001001 aaaak
b1 aaaal

#102041672
b110100 aaaam
b1000 aaaan

#102041674
b10001101 aaaao

#102062504
b1011110001011010 aaaak
b111 aaaal

#102062505
b110100 aaaba

#102062506
b1110101011000 aaaam
b10 aaaan
b1110101011000 aaabb

#102083337
b1011110001011010 aaaay

#102083338
b1111 aaaak
b1 aaaal
b1111 aaaaz

#102083339
b10001101 aaaam
b1000 aaaan

#102083341
b10101110 aaaao

#102104171
b1110101011000 aaaak
b111 aaaal
b1111 aaaaw

#102104172
b10001101 aaaba

#102104173
b1010101000011110 aaaam
b10 aaaan
b1010101000011110 aaabb

#102125004
b1110101011000 aaaay
b1111 aaabc

#102125005
b111101100 aaaak
b1 aaaal
b111101100 aaaaz

#102125006
b10101110 aaaam
b1000 aaaan

#102125008
b11100011 aaaao

#102145838
b1010101000011110 aaaak
b111 aaaal
b111101100 aaaaw

#102145839
b10101110 aaaba

#102145840
b10010000010 aaaam
b10 aaaan
b10010000010 aaabb

#102166671
b1010101000011110 aaaay
b111101100 aaabc

#102166672
b100111100 aaaak
b1 aaaal
b100111100 aaaaz

#102166673
b11100011 aaaam
b1000 aaaan

#102166675
b11011010 aaaao

#102187505
b10010000010 aaaak
b111 aaaal
b100111100 aaaaw

#102187506
b11100011 aaaba

#102187507
b101101010100100 aaaam
b10 aaaan
b101101010100100 aaabb

#102208338
b10010000010 aaaay
b100111100 aaabc

#102208339
b100011110 aaaak
b1 aaaal
b100011110 aaaaz

#102208340
b11011010 aaaam
b1000 aaaan

#102208342
b11111110 aaaao

#102229172
b101101010100100 aaaak
b111 aaaal
b100011110 aaaaw

#102229173
b11011010 aaaba

#102229174
b1001010000111111 aaaam
b10 aaaan
b1001010000111111 aaabb

#102250005
b101101010100100 aaaay
b100011110 aaabc

#102250006
b11011111 aaaak
b1 aaaal
b11011111 aaaaz

#102250007
b11111110 aaaam
b1000 aaaan

#102250009
b1000100 aaaao

#102270839
b1001010000111111 aaaak
b111 aaaal
b11011111 aaaaw

#102270840
b11111110 aaaba

#102270841
b1001010111000101 aaaam
b10 aaaan
b1001010111000101 aaabb

#102291672
b1001010000111111 aaaay
b11011111 aaabc

#102291673
b110000011 aaaak
b1 aaaal
b110000011 aaaaz

#102291674
b1000100 aaaam
b1000 aaaan

#102291676
b11001110 aaaao

#102312506
b1001010111000101 aaaak
b111 aaaal
b110000011 aaaaw

#102312507
b1000100 aaaba

#102312508
b1110001010110 aaaam
b10 aaaan
b1110001010110 aaabb

#102333339
b1001010111000101 aaaay
b110000011 aaabc

#102333340
b111101100 aaaak
b1 aaaal
b111101100 aaaaz

#102333341
b11001110 aaaam
b1000 aaaan

#102333343
b11000101 aaaao

#102354173
b1110001010110 aaaak
b111 aaaal
b111101100 aaaaw

#102354174
b11001110 aaaba

#102354175
b1001001101000101 aaaam
b10 aaaan
b1001001101000101 aaabb

#102375006
b1110001010110 aaaay
b111101100 aaabc

#102375007
b100111011 aaaak
b1 aaaal
b100111011 aaaaz

#102375008
b11000101 aaaam
b1000 aaaan

#102375010
b11100011 aaaao

#102395840
b1001001101000101 aaaak
b111 aaaal
b100111011 aaaaw

#102395841
b11000101 aaaba

#102395842
b1000010101101011 aaaam
b10 aaaan
b1000010101101011 aaabb

#102416673
b1001001101000101 aaaay
b100111011 aaabc

#102416674
b101101101 aaaak
b1 aaaal
b101101101 aaaaz

#102416675
b11100011 aaaam
b1000 aaaan

#102416677
b11 aaaao

#102437507
b1000010101101011 aaaak
b111 aaaal
b101101101 aaaaw

#102437508
b11100011 aaaba

#102437509
b1000010110010011 aaaam
b10 aaaan
b1000010110010011 aaabb

#102458340
b1000010101101011 aaaay
b101101101 aaabc

#102458341
b1000000 aaaak
b1 aaaal
b1000000 aaaaz

#102458342
b11 aaaam
b1000 aaaan

#102458344
b10001101 aaaao

#102479174
b1000010110010011 aaaak
b111 aaaal
b1000000 aaaaw

#102479175
b11 aaaba

#102479176
b1100110000111111 aaaam
b10 aaaan
b1100110000111111 aaabb

#102500007
b1000010110010011 aaaay
b1000000 aaabc

#102500008
b11111001 aaaak
b1 aaaal
b11111001 aaaaz

#102500009
b10001101 aaaam
b1000 aaaan

#102500011
b111001 aaaao

#102520841
b1100110000111111 aaaak
b111 aaaal
b11111001 aaaaw

#102520842
b10001101 aaaba

#102520843
b1011100000011 aaaam
b10 aaaan
b1011100000011 aaabb

#102541674
b1100110000111111 aaaay
b11111001 aaabc

#102541675
b100001011 aaaak
b1 aaaal
b100001011 aaaaz

#102541676
b111001 aaaam
b1000 aaaan

#102541678
b10001111 aaaao

#102562508
b1011100000011 aaaak
b111 aaaal
b100001011 aaaaw

#102562509
b111001 aaaba

#102562510
b1111100101001 aaaam
b10 aaaan
b1111100101001 aaabb

#102583341
b1011100000011 aaaay
b100001011 aaabc

#102583342
b101110000 aaaak
b1 aaaal
b101110000 aaaaz

#102583343
b10001111 aaaam
b1000 aaaan

#102583345
b1101 aaaao

#102604175
b1111100101001 aaaak
b111 aaaal
b101110000 aaaaw

#102604176
b10001111 aaaba

#102604177
b1000000011110 aaaam
b10 aaaan
b1000000011110 aaabb

#102625008
b1111100101001 aaaay
b101110000 aaabc

#102625009
b111000011 aaaak
b1 aaaal
b111000011 aaaaz

#102625010
b1101 aaaam
b1000 aaaan

#102625012
b10111010 aaaao

#102645842
b1000000011110 aaaak
b111 aaaal
b111000011 aaaaw

#102645843
b1101 aaaba

#102645844
b101011010 aaaam
b10 aaaan
b101011010 aaabb

#102666675
b1000000011110 aaaay
b111000011 aaabc

#102666676
b1000100 aaaak
b1 aaaal
b1000100 aaaaz

#102666677
b10111010 aaaam
b1000 aaaan

#102666679
b11000001 aaaao

#102687509
b101011010 aaaak
b111 aaaal
b1000100 aaaaw

#102687510
b10111010 aaaba

#102687511
b11001110000111 aaaam
b10 aaaan
b11001110000111 aaabb

#102708342
b101011010 aaaay
b1000100 aaabc

#102708343
b1100011010011001 aaaak
b1 aaaal
b1100011010011001 aaaaz

#102708344
b11000001 aaaam
b1000 aaaan

#102708346
b1000101011101111 aaaao

#102729176
b11001110000111 aaaak
b111 aaaal
b1100011010011001 aaaaw

#102729177
b11000001 aaaba

#102729178
b1100001010110001 aaaam
b10 aaaan
b1100001010110001 aaabb

#102750009
b11001110000111 aaaay
b1100011010011001 aaabc

#102750010
b1111111111111111 aaaak
b1 aaaal
b1111111111111111 aaaaz

#102750011
b1000101011101111 aaaam
b1000 aaaan

#102750013
b1111111111111111 aaaao

#102770843
b1100001010110001 aaaak
b111 aaaal
b1111111111111111 aaaaw

#102770844
b1000101011101111 aaaba

#102770845
b1100010101110110 aaaam
b10 aaaan
b1100010101110110 aaabb

#102791676
b100110 aaaaw
b100 aaaax
b1100001010110001 aaaay
b1111111111111111 aaabc
b100110 aaabd

#102791678
b1100010101110110 aaaak
b1111111111111111 aaaam
b1000 aaaan

#102812511
b100111 aaaam
b1100010101110110 aaaay
b1111111111111111 aaaba

#102833343
b100000 aaaaw
b100000 aaabd

#102833344
b1001111011 aaaaa
b100001 aaaam
b100111 aaaba
b1100111110 aaabe

#102854177
b1100111110 aaaam
b100001 aaaba
b1001111011 aaabe

#102875010
b1111111111111111 aaaam
b10 aaaan
b1 aaaaw
b1100111110 aaaba
b1111111111111111 aaabb
b1 aaabd

#102875011
b1110110010 aaaaa

#102895843
b1111111111111111 aaaak
b1001111011 aaaam
b1000 aaaan
b1110110010 aaabe

#102916676
b100111 aaaak
b1 aaaal
b1110110010 aaaam
b1111111111111111 aaaay
b100111 aaaaz
b1001111011 aaaba

#102916678
b1101011000 aaaaa

#102937509
b100110 aaaak
b111 aaaal
b101000 aaaam
b10 aaaan
b1110110010 aaaba
b101000 aaabb

#102937511
b1101011000 aaabe

#102958342
b100000 aaaak
b1101011000 aaaam
b1000 aaaan
b1100010111101011 aaaaw
b100110 aaaay
b1100010111101011 aaabd

#102958345
b1001100100100 aaaaa

#102979175
b1 aaaak
b100000 aaaay
b1101011000 aaaba

#102979176
b100111 aaaam
b10 aaaan
b100111 aaabb

#102979178
b1001100100100 aaabe

#103000008
b100110 aaaak
b1 aaaal
b1 aaaay
b100110 aaaaz

#103000009
b1001100100100 aaaam
b1000 aaaan
b101000 aaaao
b1001 aaaap
b1111111111111111 aaaaw
b1111111111111111 aaabd

#103000012
b1111111111111111 aaaaa

#103020841
b1100010111101011 aaaak
b111 aaaal

#103020842
b100111 aaaao
b1001100100100 aaaba

#103020843
b1 aaaam
b10 aaaan
b1 aaabb

#103020845
b1111111111111111 aaabe

#103041674
b1111111111111111 aaaak
b1100010111101011 aaaay

#103041676
b1111111111111111 aaaam
b1000 aaaan
b1 aaaao

#103062507
b1 aaaak
b1 aaaal
b1111111111111111 aaaay
b1 aaaaz

#103062509
b100111 aaaam
b1111111111111111 aaaba

#103083342
b100110 aaaam
b100111 aaaba

#103104174
b1100010111101011 aaaak
b1100010111101011 aaaaz

#103104175
b1 aaaam
b100110 aaaba

#103125008
b1100010111101011 aaaam
b10 aaaan
b1 aaaba
b1100010111101011 aaabb

#103145841
b1111111111111111 aaaak
b1000 aaaan
b1100010111101011 aaaao
b1111111111111111 aaaaz

#103166674
b1111111111111111 aaaam
b1100010111101011 aaaba

#103187507
b10 aaaan
b1111111111111111 aaaba
b1111111111111111 aaabb

#103208340
b1111111111111111 aaaao

#103229174
b100001 aaaam
b100001 aaabb

#103270841
b100111 aaaam
b100111 aaabb

#103291674
b100001 aaaaa
b110 aaaab
b100001 aaabf

#103312507
b100111 aaaaa
b100111 aaabf

#103312508
b1 aaaam
b1 aaabb

#103333341
b1 aaaaa
b1 aaabf

#103354175
b1100010111101011 aaaam
b1100010111101011 aaabb

#103375008
b1100010111101011 aaaaa
b1100010111101011 aaabf

#103395842
b1111111111111111 aaaam
b1111111111111111 aaabb

#103416675
b1111111111111111 aaaaa
b1111111111111111 aaabf

#203062507
b100000 aaaak
b100000 aaaaz

#203104174
b100110 aaaak
b100110 aaaaz

#203125007
b100000 aaaaw
b1010 aaaax

#203145840
b100110 aaaaw
b100000 aaabc

#203145841
b111100011 aaaak
b111100011 aaaaz

#203166673
b100110 aaabc

#203166674
b111100011 aaaaw

#203187507
b100110 aaaam
b100110 aaabb
b111100011 aaabc

#203187508
b11000111 aaaak
b11000111 aaaaz

#203208341
b11000111 aaaaw

#203229173
b100111 aaaao
b11 aaaap

#203229174
b100111 aaaam
b100111 aaabb
b11000111 aaabc

#203229175
b101110000 aaaak
b101110000 aaaaz

#203250008
b100110 aaaak
b111 aaaal
b101110000 aaaaw

#203270840
b101000 aaaao

#203270841
b100111 aaaak
b1110111001100000 aaaam
b100110 aaaay
b1110111001100000 aaabb
b101110000 aaabc

#203291673
b100111 aaaam
b1000 aaaan

