ExoMars2020/Network/traces/network.vcd
$date
     Nov 02, 2018       14:34:53
$end

$version
 SystemC 2.3.2-Accellera --- Oct  2 2018 15:12:53
$end

$timescale
     1 ps
$end

$scope module SystemC $end
$var wire   16  aaaaa  PanCam_channel [15:0]  $end
$var wire   16  aaaab  NavCam_channel [15:0]  $end
$var wire   16  aaaac  ISEM_channel [15:0]  $end
$var wire   16  aaaad  CLUPI_channel [15:0]  $end
$var wire   16  aaaae  Drill_channel [15:0]  $end
$var wire   16  aaaaf  Adron_channel [15:0]  $end
$var wire   16  aaaag  WISDOM_channel [15:0]  $end
$var wire   16  aaaah  Ma_MISS_channel [15:0]  $end
$var wire   16  aaaai  MicrOmega_channel [15:0]  $end
$var wire   16  aaaaj  RLS_channel [15:0]  $end
$var wire   16  aaaak  MOMA_channel [15:0]  $end
$var wire   16  aaaal  PrintUnit_channel [15:0]  $end
$upscope $end
$enddefinitions  $end

$comment
All initial values are dumped below at time 0 sec = 0 timescale units.
$end

$dumpvars
b100000 aaaaa
b100000 aaaab
b100000 aaaac
b100000 aaaad
b100000 aaaae
b100000 aaaaf
b100110 aaaag
b100000 aaaah
b100000 aaaai
b100000 aaaaj
b100000 aaaak
b0 aaaal
$end

#41667
b100001 aaaaa
b100010 aaaab
b100011 aaaac
b100100 aaaad
b100101 aaaae
b100110 aaaaf
b100111 aaaag
b101000 aaaah
b101001 aaaai
b101010 aaaaj
b101011 aaaak

#62500
b100000 aaaal

#83333
b100111 aaaaf
b101000 aaaal

#83334
b111010111 aaaaa
b1100 aaaab
b1101101000101000 aaaac
b110011111001 aaaad
b10001 aaaae
b11111110001101 aaaag
b10000011 aaaah
b10110110 aaaai
b1010010 aaaaj
b11000 aaaak

#104166
b10100 aaaaf

#104167
b10000011 aaaal

#125001
b10101000000110 aaaag
b1000001 aaaah

#145834
b1000001 aaaal

#166668
b11001011 aaaah

#187501
b11001011 aaaal

#208335
b1001000 aaaah

#229168
b1001000 aaaal

#250002
b10000000 aaaah

#270835
b10000000 aaaal

#291669
b1100 aaaah

#312502
b1100 aaaal

#333336
b1111110 aaaah

#354169
b1111110 aaaal

#375003
b10100010 aaaah

#395836
b10100010 aaaal

#416670
b1011100010010010 aaaah

#437503
b1011100010010010 aaaal

#458337
b1111111111111111 aaaah

#479170
b1111111111111111 aaaal

#500003
b101000 aaaal

#520836
b100000 aaaal

#541669
b110011110 aaaaa
b100001 aaaal

#562502
b111010111 aaaal

#583335
b100000 aaaal

#583336
b1111110111 aaaaa

#604168
b101000 aaaah
b110011110 aaaal

#625001
b100000 aaaah
b1111110111 aaaal

#625003
b11001010 aaaaa

#645834
b1 aaaal

#666667
b1 aaaah
b11001010 aaaal

#666670
b1000100 aaaaa

#687501
b1100010111101011 aaaal

#708334
b1100010111101011 aaaah
b1000100 aaaal

#708337
b1111000111 aaaaa

#729168
b1111111111111111 aaaal

#750001
b1111111111111111 aaaah
b1111000111 aaaal

#750004
b100010110 aaaaa

#770837
b100010110 aaaal

#791671
b1011100100 aaaaa

#812504
b1011100100 aaaal

#833338
b1011101011001 aaaaa

#854171
b1011101011001 aaaal

#875005
b1111111111111111 aaaaa

#895838
b1111111111111111 aaaal

#916671
b100001 aaaal

#937504
b100000 aaaal

#958337
b1000111 aaaaj
b101010 aaaal

#979170
b1010010 aaaal

#1000003
b100000 aaaal

#1000004
b11110001 aaaaj

#1020836
b100001 aaaaa
b1000111 aaaal

#1041669
b100000 aaaaa
b11110001 aaaal

#1041671
b1010001 aaaaj

#1062502
b1 aaaal

#1083335
b1 aaaaa
b1010001 aaaal

#1083338
b1000101 aaaaj

#1104169
b1100010111101011 aaaal

#1125002
b1100010111101011 aaaaa
b1000101 aaaal

#1125005
b10111011 aaaaj

#1145836
b1111111111111111 aaaal

#1166669
b1111111111111111 aaaaa
b10111011 aaaal

#1166672
b10010010 aaaaj

#1187505
b10010010 aaaal

#1208339
b10110011 aaaaj

#1229172
b10110011 aaaal

#1250006
b11001011110100 aaaaj

#1270839
b11001011110100 aaaal

#1291673
b1111111111111111 aaaaj

#1312506
b1111111111111111 aaaal

#1333339
b101010 aaaal

#1354172
b100000 aaaal

#1375005
b11110000 aaaab
b100010 aaaal

#1395838
b1100 aaaal

#1416671
b100000 aaaal

#1416672
b1101100 aaaab

#1437504
b101010 aaaaj
b11110000 aaaal

#1458337
b100000 aaaaj
b1101100 aaaal

#1458339
b1110001 aaaab

#1479170
b1 aaaal

#1500003
b1 aaaaj
b1110001 aaaal

#1500006
b11000010 aaaab

#1520837
b1100010111101011 aaaal

#1541670
b1100010111101011 aaaaj
b11000010 aaaal

#1541673
b110 aaaab

#1562504
b1111111111111111 aaaal

#1583337
b1111111111111111 aaaaj
b110 aaaal

#1583340
b11111100 aaaab

#1604173
b11111100 aaaal

#1625007
b11011100 aaaab

#1645840
b11011100 aaaal

#1666674
b1111000010011000 aaaab

#1687507
b1111000010011000 aaaal

#1708341
b1111111111111111 aaaab

#1729174
b1111111111111111 aaaal

#1750007
b100010 aaaal

#1770840
b100000 aaaal

#1791673
b1110100001011100 aaaac
b100011 aaaal

#1812506
b1101101000101000 aaaal

#1833339
b100000 aaaal

#1833340
b111011110101110 aaaac

#1854172
b100010 aaaab
b1110100001011100 aaaal

#1875005
b100000 aaaab
b111011110101110 aaaal

#1875007
b1001001110111101 aaaac

#1895838
b1 aaaal

#1916671
b1 aaaab
b1001001110111101 aaaal

#1916674
b1010110011101101 aaaac

#1937505
b1100010111101011 aaaal

#1958338
b1100010111101011 aaaab
b1010110011101101 aaaal

#1958341
b110100110001111 aaaac

#1979172
b1111111111111111 aaaal

#2000005
b1111111111111111 aaaab
b110100110001111 aaaal

#2000008
b11110101101 aaaac

#2020841
b11110101101 aaaal

#2041675
b11011010100 aaaac

#2062508
b11011010100 aaaal

#2083342
b101101011001111 aaaac

#2104175
b101101011001111 aaaal

#2125009
b1111111111111111 aaaac

#2145842
b1111111111111111 aaaal

#2166675
b100011 aaaal

#2187508
b100000 aaaal

#2208341
b11011000 aaaae
b100101 aaaal

#2229174
b10001 aaaal

#2250007
b100000 aaaal

#2250008
b11010001 aaaae

#2270840
b100011 aaaac
b11011000 aaaal

#2291673
b100000 aaaac
b11010001 aaaal

#2291675
b10101010 aaaae

#2312506
b1 aaaal

#2333339
b1 aaaac
b10101010 aaaal

#2333342
b1111000 aaaae

#2354173
b1100010111101011 aaaal

#2375006
b1100010111101011 aaaac
b1111000 aaaal

#2375009
b1010000 aaaae

#2395840
b1111111111111111 aaaal

#2416673
b1111111111111111 aaaac
b1010000 aaaal

#2416676
b1111110 aaaae

#2437509
b1111110 aaaal

#2458343
b1011111 aaaae

#2479176
b1011111 aaaal

#2500010
b1100101111101100 aaaae

#2520843
b1100101111101100 aaaal

#2541677
b1111111111111111 aaaae

#2562510
b1111111111111111 aaaal

#2583343
b100101 aaaal

#2604176
b100000 aaaal

#2625009
b10011111 aaaad
b100100 aaaal

#2645842
b110011111001 aaaal

#2666675
b100000 aaaal

#2666676
b10001010000010 aaaad

#2687508
b100101 aaaae
b10011111 aaaal

#2708341
b100000 aaaae
b10001010000010 aaaal

#2708343
b101101010110 aaaad

#2729174
b1 aaaal

#2750007
b1 aaaae
b101101010110 aaaal

#2750010
b1001000101011 aaaad

#2770841
b1100010111101011 aaaal

#2791674
b1100010111101011 aaaae
b1001000101011 aaaal

#2791677
b1111000000001 aaaad

#2812508
b1111111111111111 aaaal

#2833341
b1111111111111111 aaaae
b1111000000001 aaaal

#2833344
b10000111010001 aaaad

#2854177
b10000111010001 aaaal

#2875011
b11000000110111 aaaad

#2895844
b11000000110111 aaaal

#2916678
b100011011110011 aaaad

#2937511
b100011011110011 aaaal

#2958345
b1111111111111111 aaaad

#2979178
b1111111111111111 aaaal

#3000011
b100100 aaaal

#3020844
b100000 aaaal

#3041677
b10101110 aaaak
b101011 aaaal

#3062510
b11000 aaaal

#3083343
b100000 aaaal

#3083344
b11110000 aaaak

#3104176
b100100 aaaad
b10101110 aaaal

#3125009
b100000 aaaad
b11110000 aaaal

#3125011
b10100110 aaaak

#3145842
b1 aaaal

#3166675
b1 aaaad
b10100110 aaaal

#3166678
b11001101 aaaak

#3187509
b1100010111101011 aaaal

#3208342
b1100010111101011 aaaad
b11001101 aaaal

#3208345
b10011111 aaaak

#3229176
b1111111111111111 aaaal

#3250009
b1111111111111111 aaaad
b10011111 aaaal

#3250012
b11000011 aaaak

#3270845
b11000011 aaaal

#3291679
b1000101 aaaak

#3312512
b1000101 aaaal

#3333346
b11100101011111 aaaak

#3354179
b11100101011111 aaaal

#3375013
b1111111111111111 aaaak

#3395846
b1111111111111111 aaaal

#3416679
b101011 aaaal

#3437512
b100000 aaaal

#3458345
b11111110001101 aaaaf
b1000010011011101 aaaag
b100110 aaaal

#3479178
b10101000000110 aaaaf
b10100 aaaal

#3500011
b1000010011011101 aaaaf
b100000 aaaal

#3500012
b10101111110111 aaaag

#3520844
b101011 aaaak
b101000101 aaaal

#3520845
b1110100 aaaaf

#3541677
b100000 aaaak

#3541678
b10101111110111 aaaaf
b1 aaaal

#3541679
b1101001110110111 aaaag

#3562511
b1 aaaak
b1110100 aaaal

#3562512
b11001101 aaaaf

#3583345
b1101001110110111 aaaaf
b1100010111101011 aaaal

#3583346
b1000010010011010 aaaag

#3604178
b1100010111101011 aaaak
b11001101 aa