ExoMars2020/Network/traces/network.vcd
$date
     Nov 06, 2018       14:53:39
$end

$version
 SystemC 2.3.2-Accellera --- Oct  1 2018 18:40:03
$end

$timescale
     1 ps
$end

$scope module SystemC $end
$var wire   16  aaaaa  PanCam_channel [15:0]  $end
$var wire   16  aaaab  NavCam_channel [15:0]  $end
$var wire   16  aaaac  ISEM_channel [15:0]  $end
$var wire   16  aaaad  CLUPI_channel [15:0]  $end
$var wire   16  aaaae  Drill_channel [15:0]  $end
$var wire   16  aaaaf  Adron_channel [15:0]  $end
$var wire   16  aaaag  WISDOM_channel [15:0]  $end
$var wire   16  aaaah  Ma_MISS_channel [15:0]  $end
$var wire   16  aaaai  MicrOmega_channel [15:0]  $end
$var wire   16  aaaaj  RLS_channel [15:0]  $end
$var wire   16  aaaak  MOMA_channel [15:0]  $end
$var wire   16  aaaal  PrintUnit_channel [15:0]  $end
$upscope $end
$enddefinitions  $end

$comment
All initial values are dumped below at time 0 sec = 0 timescale units.
$end

$dumpvars
b100000 aaaaa
b100000 aaaab
b100000 aaaac
b100000 aaaad
b100000 aaaae
b100000 aaaaf
b100000 aaaag
b100000 aaaah
b100000 aaaai
b100000 aaaaj
b100000 aaaak
b0 aaaal
$end

#41667
b100001 aaaaa
b100010 aaaab
b100011 aaaac
b100100 aaaad
b100101 aaaae
b100110 aaaaf
b100111 aaaag
b101000 aaaah
b101001 aaaai
b101010 aaaaj
b101011 aaaak

#62500
b100000 aaaal

#83333
b101000 aaaal

#83334
b111101110 aaaaa
b1111 aaaab
b1111111000011101 aaaac
b11100101011001 aaaad
b110111 aaaae
b101111001 aaaaf
b1100011110001110 aaaag
b11000111 aaaah
b1010101 aaaai
b1001110 aaaaj
b10001110 aaaak

#104167
b11000111 aaaal

#125001
b110000 aaaah

#145834
b110000 aaaal

#166668
b11111110 aaaah

#187501
b11111110 aaaal

#208335
b11100010 aaaah

#229168
b11100010 aaaal

#250002
b10101010 aaaah

#270835
b10101010 aaaal

#291669
b10001101 aaaah

#312502
b10001101 aaaal

#333336
b10010010 aaaah

#354169
b10010010 aaaal

#375003
b10111110 aaaah

#395836
b10111110 aaaal

#416670
b1000101 aaaah

#437503
b1000101 aaaal

#458337
b10101 aaaah

#479170
b10101 aaaal

#500004
b101100 aaaah

#520837
b101100 aaaal

#541671
b100110 aaaah

#562504
b100110 aaaal

#583338
b10001100 aaaah

#604171
b10001100 aaaal

#625005
b1010101 aaaah

#645838
b1010101 aaaal

#666672
b11011000 aaaah

#687505
b11011000 aaaal

#708339
b11000011 aaaah

#729172
b11000011 aaaal

#750006
b11011 aaaah

#770839
b11011 aaaal

#791673
b10110011 aaaah

#812506
b10110011 aaaal

#833340
b11110110 aaaah

#854173
b11110110 aaaal

#875007
b1010101 aaaah

#895840
b1010101 aaaal

#916674
b1010100 aaaah

#937507
b1010100 aaaal

#958341
b1000001 aaaah

#979174
b1000001 aaaal

#1000008
b11010000 aaaah

#1020841
b11010000 aaaal

#1041675
b1010110 aaaah

#1062508
b1010110 aaaal

#1083342
b10110 aaaah

#1104175
b10110 aaaal

#1125009
b111001000011001 aaaah

#1145842
b111001000011001 aaaal

#1166676
b1111111111111111 aaaah

#1187509
b1111111111111111 aaaal

#1208342
b101000 aaaal

#1229175
b100000 aaaal

#1250008
b1010101100 aaaaa
b100001 aaaal

#1270841
b111101110 aaaal

#1291674
b100000 aaaal

#1291675
b111111100 aaaaa

#1312507
b101000 aaaah
b1010101100 aaaal

#1333340
b100000 aaaah
b111111100 aaaal

#1333342
b1110001100 aaaaa

#1354173
b1 aaaal

#1375006
b1 aaaah
b1110001100 aaaal

#1375009
b1000011101000011 aaaaa

#1395840
b1100010111101011 aaaal

#1416673
b1100010111101011 aaaah
b1000011101000011 aaaal

#1416676
b1111111111111111 aaaaa

#1437507
b1111111111111111 aaaal

#1458340
b1111111111111111 aaaah

#1479173
b100001 aaaal

#1500006
b100000 aaaal

#1520839
b1001101 aaaaj
b101010 aaaal

#1541672
b1001110 aaaal

#1562505
b100000 aaaal

#1562506
b10011010 aaaaj

#1583338
b100001 aaaaa
b1001101 aaaal

#1604171
b100000 aaaaa
b10011010 aaaal

#1604173
b11101010 aaaaj

#1625004
b1 aaaal

#1645837
b1 aaaaa
b11101010 aaaal

#1645840
b11100010 aaaaj

#1666671
b1100010111101011 aaaal

#1687504
b1100010111101011 aaaaa
b11100010 aaaal

#1687507
b10000000 aaaaj

#1708338
b1111111111111111 aaaal

#1729171
b1111111111111111 aaaaa
b10000000 aaaal

#1729174
b11111000 aaaaj

#1750007
b11111000 aaaal

#1770841
b10111001 aaaaj

#1791674
b10111001 aaaal

#1812508
b10001110 aaaaj

#1833341
b10001110 aaaal

#1854175
b1011111 aaaaj

#1875008
b1011111 aaaal

#1895842
b111100 aaaaj

#1916675
b111100 aaaal

#1937509
b100010 aaaaj

#1958342
b100010 aaaal

#1979176
b11010110 aaaaj

#2000009
b11010110 aaaal

#2020843
b1111100 aaaaj

#2041676
b1111100 aaaal

#2062510
b10101110 aaaaj

#2083343
b10101110 aaaal

#2104177
b11001001 aaaaj

#2125010
b11001001 aaaal

#2145844
b110101 aaaaj

#2166677
b110101 aaaal

#2187511
b1 aaaaj

#2208344
b1 aaaal

#2229178
b10000010 aaaaj

#2250011
b10000010 aaaal

#2270845
b1101 aaaaj

#2291678
b1101 aaaal

#2312512
b111010 aaaaj

#2333345
b111010 aaaal

#2354179
b1011111 aaaaj

#2375012
b1011111 aaaal

#2395846
b10011011 aaaaj

#2416679
b10011011 aaaal

#2437513
b11100 aaaaj

#2458346
b11100 aaaal

#2479180
b1110000 aaaaj

#2500013
b1110000 aaaal

#2520847
b1100000001010 aaaaj

#2541680
b1100000001010 aaaal

#2562514
b1111111111111111 aaaaj

#2583347
b1111111111111111 aaaal

#2604180
b101010 aaaal

#2625013
b100000 aaaal

#2645846
b110111011100111 aaaag
b100111 aaaal

#2666679
b1100011110001110 aaaal

#2687512
b100000 aaaal

#2687513
b100100111000010 aaaag

#2708345
b101010 aaaaj
b110111011100111 aaaal

#2729178
b100000 aaaaj
b100100111000010 aaaal

#2729180
b1001111010101001 aaaag

#2750011
b1 aaaal

#2770844
b1 aaaaj
b1001111010101001 aaaal

#2770847
b1010100010110101 aaaag

#2791678
b1100010111101011 aaaal

#2812511
b1100010111101011 aaaaj
b1010100010110101 aaaal

#2812514
b1010011000000010 aaaag

#2833345
b1111111111111111 aaaal

#2854178
b1111111111111111 aaaaj
b1010011000000010 aaaal

#2854181
b1101111101000101 aaaag

#2875014
b1101111101000101 aaaal

#2895848
b1010000111110001 aaaag

#2916681
b1010000111110001 aaaal

#2937515
b10101000101000 aaaag

#2958348
b10101000101000 aaaal

#2979182
b1001111100100 aaaag

#3000015
b1001111100100 aaaal

#3020849
b1010101001110100 aaaag

#3041682
b1010101001110100 aaaal

#3062516
b110110011001001 aaaag

#3083349
b110110011001001 aaaal

#3104183
b1000111111110010 aaaag

#3125016
b1000111111110010 aaaal

#3145850
b100000110010010 aaaag

#3166683
b100000110010010 aaaal

#3187517
b1000010000101111 aaaag

#3208350
b1000010000101111 aaaal

#3229184
b1110110010000 aaaag

#3250017
b1110110010000 aaaal

#3270851
b1110000011000111 aaaag

#3291684
b1110000011000111 aaaal

#3312518
b1110101101011111 aaaag

#3333351
b1110101101011111 aaaal

#3354185
b1010111011101000 aaaag

#3375018
b1010111011101000 aaaal

#3395852
b1111110101111111 aaaag

#3416685
b1111110101111111 aaaal

#3437519
b111100101010001 aaaag

#3458352
b111100101010001 aaaal

#3479186
b1010011100100110 aaaag

#3500019
b1010011100100110 aaaal

#3520853
b1111000001000010 aaaag

#3541686
b1111000001000010 aaaal

#3562520
b1001100010100111 aaaag

#3583353
b1001100010100111 aaaal

#3604187
b1011100011000111 aaaag

#3625020
b1011100011000111 aaaal

#3645854
b1000100111101101 aaaag

#3666687
b1000100111101101 aaaal

#3687521
b1111111111111111 aaaag

#3708354
b1111111111111111 aaaal

#3729187
b100111 aaaal

#3750020
b100000 aaaal

#3770853
b101000000111100 aaaac
b100011 aaaal

#3791686
b1111111000011101 aaaal

#3812519
b100000 aaaal

#3812520
b101000101001101 aaaac

#3833352
b100111 aaaag
b101000000111100 aaaal

#3854185
b100000 aaaag
b101000101001101 aaaal

#3854187
b1111001100100100 aaaac

#3875018
b1 aaaal

#3895851
b1 aaaag
b1111001100100100 aaaal

#3895854
b1110110111010110 aaaac

#3916685
b1100010111101011 aaaal

#3937518
b1100010111101011 aaaag
b1110110111010110 aaaal

#3937521
b111011010111011 aaaac

#3958352
b1111111111111111 aaaal

#3979185
b1111111111111111 aaaag
b111011010111011 aaaal

#3979188
b111100110110011 aaaac

#4000021
b111100110110011 aaaal

#4020855
b1100101110001010 aaaac

#4041688
b1100101110001010 aaaal

#4062522
b1110000011100001 aaaac

#4083355
b1110000011100001 aaaal

#4104189
b1000000110000000 aaaac

#4125022
b1000000110000000 aaaal

#4145856
b101110110001101 aaaac

#4166689
b101110110001101 aaaal

#4187523
b1100110011100111 aaaac

#4208356
b1100110011100111 aaaal

#4229190
b110011101101100 aaaac

#4250023
b110011101101100 aaaal

#4270857
b101101000101010 aaaac

#4291690
b101101000101010 aaaal

#4312524
b1011011101 aaaac

#4333357
b1011011101 aaaal

#4354191
b1111000111001011 aaaac

#4375024
b1111000111001011 aaaal

#4395858
b1000111011010001 aaaac

#4416691
b1000111011010001 aaaal

#4437525
b1010100000 aaaac

#4458358
b1010100000 aaaal

#4479192
b110001001010101 aaaac

#4500025
b110001001010101 aaaal

#4520859
b101100110001000 aaaac

#4541692
b101100110001000 aaaal

#4562526
b1010100111011011 aaaac

#4583359
b1010100111011011 aaaal

#4604193
b11010111111111 aaaac

#4625026
b11010111111111 aaaal

#4645860
b1000010010110011 aaaac

#4666693
b1000010010110011 aaaal

#4687527
b1001011010001 aaaac

#4708360
b1001011010001 aaaal

#4729194
b100100000101000 aaaac

#4750027
b100100000101000 aaaal

#4770861
b101010111101110 aaaac

#4791694
b101010111101110 aaaal

#4812528
b1111111111111111 aaaac

#4833361
b1111111111111111 aaaal

#4854194
b100011 aaaal

#4875027
b100000 aaaal

#4895860
b10101110 aaaab
b100010 aaaal

#4916693
b1111 aaaal

#4937526
b100000 aaaal

#4937527
b1100110 aaaab

#4958359
b100011 aaaac
b10101110 aaaal

#4979192
b100000 aaaac
b1100110 aaaal

#4979194
b1111010 aaaab

#5000025
b1 aaaal

#5020858
b1 aaaac
b1111010 aaaal

#5020861
b11001001 aaaab

#5041692
b1100010111101011 aaaal

#5062525
b1100010111101011 aaaac
b11001001 aaaal

#5062528
b101 aaaab

#5083359
b1111111111111111 aaaal

#5104192
b1111111111111111 aaaac
b101 aaaal

#5104195
b1111011 aaaab

#5125028
b1111011 aaaal

#5145862
b11100011 aaaab

#5166695
b11100011 aaaal

#5187529
b111011 aaaab

#5208362
b111011 aaaal

#5229196
b110 aaaab

#5250029
b110 aaaal

#5270863
b1100000 aaaab

#5291696
b1100000 aaaal

#5312530
b1110001 aaaab

#5333363
b1110001 aaaal

#5354197
b10000101 aaaab

#5375030
b10000101 aaaal

#5395864
b11110101 aaaab

#5416697
b11110101 aaaal

#5437531
b111000 aaaab

#5458364
b111000 aaaal

#5479198
b11110100 aaaab

#5500031
b11110100 aaaal

#5520865
b1000101 aaaab

#5541698
b1000101 aaaal

#5562532
b11011111 aaaab

#5583365
b11011111 aaaal

#5604199
b100000 aaaab

#5625032
b100000 aaaal

#5645866
b100110 aaaab

#5666699
b100110 aaaal

#5687533
b11100010 aaaab

#5708366
b11100010 aaaal

#5729200
b11001100 aaaab

#5750033
b11001100 aaaal

#5770867
b1011000 aaaab

#5791700
b1011000 aaaal

#5812534
b1110011 aaaab

#5833367
b1110011 aaaal

#5854201
b11111110 aaaab

#5875034
b11111110 aaaal

#5895868
b1111110111111011 aaaab

#5916701
b1111110111111011 aaaal

#5937535
b1111111111111111 aaaab

#5958368
b1111111111111111 aaaal

#5979201
b100010 aaaal

#6000034
b100000 aaaal

#6020867
b10010101101000 aaaad
b100100 aaaal

#6041700
b11100101011001 aaaal

#6062533
b100000 aaaal

#6062534
b11010010000100 aaaad

#6083366
b100010 aaaab
b10010101101000 aaaal

#6104199
b100000 aaaab
b11010010000100 aaaal

#6104201
b1101000000010 aaaad

#6125032
b1 aaaal

#6145865
b1 aaaab
b1101000000010 aaaal

#6145868
b11100100001100 aaaad

#6166699
b1100010111101011 aaaal

#6187532
b1100010111101011 aaaab
b11100100001100 aaaal

#6187535
b11010010101 aaaad

#6208366
b1111111111111111 aaaal

#6229199
b1111111111111111 aaaab
b11010010101 aaaal

#6229202
b11100010010111 aaaad

#6250035
b11100010010111 aaaal

#6270869
b1100111001000 aaaad

#6291702
b1100111001000 aaaal

#6312536
b10100100101111 aaaad

#6333369
b10100100101111 aaaal

#6354203
b11100110011000 aaaad

#6375036
b11100110011000 aaaal

#6395870
b111000000010 aaaad

#6416703
b111000000010 aaaal

#6437537
b10111011000001 aaaad

#6458370
b10111011000001 aaaal

#6479204
b1001110110011 aaaad

#6500037
b1001110110011 aaaal

#6520871
b10111001000011 aaaad

#6541704
b10111001000011 aaaal

#6562538
b11101101001 aaaad

#6583371
b11101101001 aaaal

#6604205
b11100111000010 aaaad

#6625038
b11100111000010 aaaal

#6645872
b11101000000000 aaaad

#6666705
b11101000000000 aaaal

#6687539
b10000000110001 aaaad

#6708372
b10000000110001 aaaal

#6729206
b10101001110 aaaad

#6750039
b10101001110 aaaal

#6770873
b110101011011 aaaad

#6791706
b110101011011 aaaal

#6812540
b11000111010001 aaaad

#6833373
b11000111010001 aaaal

#6854207
b111001101010 aaaad

#6875040
b111001101010 aaaal

#6895874
b11010011001100 aaaad

#6916707
b11010011001100 aaaal

#6937541
b11000100101 aaaad

#6958374
b11000100101 aaaal

#6979208
b10111111111001 aaaad

#7000041
b10111111111001 aaaal

#7020875
b1101000001101101 aaaad

#7041708
b1101000001101101 aaaal

#7062542
b1111111111111111 aaaad

#7083375
b1111111111111111 aaaal

#7104208
b100100 aaaal

#7125041
b100000 aaaal

#7145874
b11111 aaaae
b100101 aaaal

#7166707
b110111 aaaal

#7187540
b100000 aaaal

#7187541
b1000000 aaaae

#7208373
b100100 aaaad
b11111 aaaal

#7229206
b100000 aaaad
b1000000 aaaal

#7229208
b10101101 aaaae

#7250039
b1 aaaal

#7270872
b1 aaaad
b10101101 aaaal

#7270875
b11101101 aaaae

#7291706
b1100010111101011 aaaal

#7312539
b1100010111101011 aaaad
b11101101 aaaal

#7312542
b11100010 aaaae

#7333373
b1111111111111111 aaaal

#7354206
b1111111111111111 aaaad
b11100010 aaaal

#7354209
b11010111 aaaae

#7375042
b11010111 aaaal

#7395876
b1111110 aaaae

#7416709
b1111110 aaaal

#7437543
b0 aaaae

#7458376
b0 aaaal

#7479210
b1001111 aaaae

#7500043
b1001111 aaaal

#7520877
b10101 aaaae

#7541710
b10101 aaaal

#7562544
b1011111 aaaae

#7583377
b1011111 aaaal

#7604211
b11110000 aaaae

#7625044
b11110000 aaaal

#7645878
b11101100 aaaae

#7666711
b11101100 aaaal

#7687545
b11001011 aaaae

#7708378
b11001011 aaaal

#7729212
b1111010 aaaae

#7750045
b1111010 aaaal

#7770879
b1010000 aaaae

#7791712
b1010000 aaaal

#7812546
b1000101 aaaae

#7833379
b1000101 aaaal

#7854213
b1011001 aaaae

#7875046
b1011001 aaaal

#7895880
b11011010 aaaae

#7916713
b11011010 aaaal

#7937547
b100111 aaaae

#7958380
b100111 aaaal

#7979214
b1011001 aaaae

#8000047
b1011001 aaaal

#8020881
b11010011 aaaae

#8041714
b11010011 aaaal

#8062548
b1010111 aaaae

#8083381
b1010111 aaaal

#8104215
b10010111 aaaae

#8125048
b10010111 aaaal

#8145882
b1110000110011011 aaaae

#8166715
b1110000110011011 aaaal

#8187549
b1111111111111111 aaaae

#8208382
b1111111111111111 aaaal

#8229215
b100101 aaaal

#8250048
b100000 aaaal

#8270881
b11101001 aaaaf
b100110 aaaal

#8291714
b101111001 aaaal

#8312547
b100000 aaaal

#8312548
b11111011 aaaaf

#8333380
b100101 aaaae
b11101001 aaaal

#8354213
b100000 aaaae
b11111011 aaaal

#8354215
b100000011 aaaaf

#8375046
b1 aaaal

#8395879
b1 aaaae
b100000011 aaaal

#8395882
b110011100 aaaaf

#8416713
b1100010111101011 aaaal

#8437546
b1100010111101011 aaaae
b110011100 aaaal

#8437549
b10101 aaaaf

#8458380
b1111111111111111 aaaal

#8479213
b1111111111111111 aaaae
b10101 aaaal

#8479216
b100011 aaaaf

#8500049
b100011 aaaal

#8520883
b1010011 aaaaf

#8541716
b1010011 aaaal

#8562550
b10000010 aaaaf

#8583383
b10000010 aaaal

#8604217
b110000110 aaaaf

#8625050
b110000110 aaaal

#8645884
b111001101 aaaaf

#8666717
b111001101 aaaal

#8687551
b111010001 aaaaf

#8708384
b111010001 aaaal

#8729218
b111001010 aaaaf

#8750051
b111001010 aaaal

#8770885
b1001111 aaaaf

#8791718
b1001111 aaaal

#8812552
b100100101 aaaaf

#8833385
b100100101 aaaal

#8854219
b100101010 aaaaf

#8875052
b100101010 aaaal

#8895886
b100 aaaaf

#8916719
b100 aaaal

#8937553
b100001100 aaaaf

#8958386
b100001100 aaaal

#8979220
b101 aaaaf

#9000053
b101 aaaal

#9020887
b10111111 aaaaf

#9041720
b10111111 aaaal

#9062554
b10100001 aaaaf

#9083387
b10100001 aaaal

#9104221
b111111001 aaaaf

#9125054
b111111001 aaaal

#9145888
b110100100 aaaaf

#9166721
b110100100 aaaal

#9187555
b110100001 aaaaf

#9208388
b110100001 aaaal

#9229222
b111110011 aaaaf

#9250055
b111110011 aaaal

#9270889
b101011111001100 aaaaf

#9291722
b101011111001100 aaaal

#9312556
b1111111111111111 aaaaf

#9333389
b1111111111111111 aaaal

#9354222
b100110 aaaal

#9375055
b100000 aaaal

#9395888
b10001111 aaaak
b101011 aaaal

#9416721
b10001110 aaaal

#9437554
b100000 aaaal

#9437555
b10110000 aaaak

#9458387
b100110 aaaaf
b10001111 aaaal

#9479220
b100000 aaaaf
b10110000 aaaal

#9479222
b10000000 aaaak

#9500053
b1 aaaal

#9520886
b1 aaaaf
b10000000 aaaal

#9520889
b10000110 aaaak

#9541720
b1100010111101011 aaaal

#9562553
b1100010111101011 aaaaf
b10000110 aaaal

#9562556
b1011100 aaaak

#9583387
b1111111111111111 aaaal

#9604220
b1111111111111111 aaaaf
b1011100 aaaal

#9604223
b11011 aaaak

#9625056
b11011 aaaal

#9645890
b10010101 aaaak

#9666723
b10010101 aaaal

#9687557
b1010000 aaaak

#9708390
b1010000 aaaal

#9729224
b1010010 aaaak

#9750057
b1010010 aaaal

#9770891
b1110000 aaaak

#9791724
b1110000 aaaal

#9812558
b110011 aaaak

#9833391
b110011 aaaal

#9854225
b1010001 aaaak

#9875058
b1010001 aaaal

#9895892
b10001110 aaaak

#9916725
b10001110 aaaal

#9937559
b110001 aaaak

#9958392
b110001 aaaal

#9979226
b10100001 aaaak

#10000059
b10100001 aaaal

#10020893
b1010011 aaaak

#10041726
b1010011 aaaal

#10062560
b11101110 aaaak

#10083393
b11101110 aaaal

#10104227
b10010110 aaaak

#10125060
b10010110 aaaal

#10145894
b10111100 aaaak

#10166727
b10111100 aaaal

#10187561
b10001000 aaaak

#10208394
b10001000 aaaal

#10229228
b1000100 aaaak

#10250061
b1000100 aaaal

#10270895
b10111011 aaaak

#10291728
b10111011 aaaal

#10312562
b10000111 aaaak

#10333395
b10000111 aaaal

#10354229
b101 aaaak

#10375062
b101 aaaal

#10395896
b100111110010111 aaaak

#10416729
b100111110010111 aaaal

#10437563
b1111111111111111 aaaak

#10458396
b1111111111111111 aaaal

#10479229
b101011 aaaal

#10500062
b100000 aaaal

#10520895
b101001 aaaal

#10541728
b1010101 aaaal

#10562561
b100000 aaaal

#10562562
b111111 aaaai

#10583394
b101011 aaaak
b1010101 aaaal

#10604227
b100000 aaaak
b111111 aaaal

#10604229
b11001101 aaaai

#10625060
b1 aaaal

#10645893
b1 aaaak
b11001101 aaaal

#10645896
b1111011 aaaai

#10666727
b1100010111101011 aaaal

#10687560
b1100010111101011 aaaak
b1111011 aaaal

#10687563
b1000101 aaaai

#10708394
b1111111111111111 aaaal

#10729227
b1111111111111111 aaaak
b1000101 aaaal

#10729230
b11001011 aaaai

#10750063
b11001011 aaaal

#10770897
b10101001 aaaai

#10791730
b10101001 aaaal

#10812564
b11110 aaaai

#10833397
b11110 aaaal

#10854231
b10010001 aaaai

#10875064
b10010001 aaaal

#10895898
b10110 aaaai

#10916731
b10110 aaaal

#10937565
b111001 aaaai

#10958398
b111001 aaaal

#10979232
b11000111 aaaai

#11000065
b11000111 aaaal

#11020899
b1011100 aaaai

#11041732
b1011100 aaaal

#11062566
b11100 aaaai

#11083399
b11100 aaaal

#11104233
b10110011 aaaai

#11125066
b10110011 aaaal

#11145900
b11111000 aaaai

#11166733
b11111000 aaaal

#11187567
b10100111 aaaai

#11208400
b10100111 aaaal

#11229234
b11001101 aaaai

#11250067
b11001101 aaaal

#11270901
b10111010 aaaai

#11291734
b10111010 aaaal

#11312568
b1010100 aaaai

#11333401
b1010100 aaaal

#11354235
b1000001 aaaai

#11375068
b1000001 aaaal

#11395902
b10101000 aaaai

#11416735
b10101000 aaaal

#11437569
b100100 aaaai

#11458402
b100100 aaaal

#11479236
b10000000 aaaai

#11500069
b10000000 aaaal

#11520903
b1100010111001001 aaaai

#11541736
b1100010111001001 aaaal

#11562570
b1111111111111111 aaaai

#11583403
b1111111111111111 aaaal

#11604236
b101001 aaaal

#11645903
b100000 aaaal

#11666736
b101001 aaaai

#11687569
b100000 aaaai

#11687570
b1 aaaal

#11708403
b1 aaaai

#11729237
b1100010111101011 aaaal

#11750070
b1100010111101011 aaaai

#11770904
b1111111111111111 aaaal

#11791737
b1111111111111111 aaaai

#101479173
b100000 aaaah

#101520840
b101000 aaaah

#101541673
b100000 aaaal

#101562506
b101000 aaaal

#101562507
b101111 aaaah

#101583340
b101111 aaaal

#101604174
b10111100 aaaah

#101625007
b10111100 aaaal

#101645841
b10101000 aaaah

#101666674
b10101000 aaaal

#101687508
b10010 aaaah

#101708341
b10010 aaaal

#101729175
b11101001 aaaah

#101750004
b100000 aaaaa

#101750008
b11101001 aaaal

#101770842
b1111010 aaaah

#101791671
b100001 aaaaa

#101791675
b1111010 aaaal

#101812509
b11111000 aaaah

#101833338
b1100110110 aaaaa

#101833342
b11111000 aaaal

#101854176
b100100 aaaah

#101875009
b100100 aaaal

#101895843
b10000101 aaaah

#101916676
b10000101 aaaal

#101937510
b10000011 aaaah

#101958343
b10000011 aaaal

#101979177
b1010000 aaaah

#102000010
b1010000 aaaal

#102020844
b10001100 aaaah

#102041677
b10001100 aaaal

#102062511
b11011 aaaah

#102083344
b11011 aaaal

#102104178
b11101111 aaaah

#102125011
b11101111 aaaal

#102145845
b10 aaaah

#102166678
b10 aaaal

#102187512
b110111 aaaah

#102208345
b110111 aaaal

#102229179
b1100110 aaaah

#102250012
b1100110 aaaal

#102270846
b11101010 aaaah

#102291679
b11101010 aaaal

#102312513
b11010001 aaaah

#102333346
b11010001 aaaal

#102354180
b11101111 aaaah

#102375013
b11101111 aaaal

#102395847
b10010000 aaaah

#102416680
b10010000 aaaal

#102437514
b1110100 aaaah

#102458347
b1110100 aaaal

#102479181
b10111011 aaaah

#102500014
b10111011 aaaal

#102520848
b1000110 aaaah

#102541681
b1000110 aaaal

#102562515
b11000001 aaaah

#102583348
b11000001 aaaal

#102604182
b100000011100100 aaaah

#102625015
b100000011100100 aaaal

#102645849
b1111111111111111 aaaah

#102666682
b1111111111111111 aaaal

#102687515
b101000 aaaal

#102708348
b100000 aaaal

#102729181
b11111001 aaaaa
b100001 aaaal

#102750014
b1100110110 aaaal

#102770847
b100000 aaaal

#102770848
b1001010111 aaaaa

#102791680
b101000 aaaah
b11111001 aaaal

#102812513
b100000 aaaah
b1001010111 aaaal

#102812515
b1011010101 aaaaa

#102833346
b1 aaaal

#102854179
b1 aaaah
b1011010101 aaaal

#102854182
b1001010011110110 aaaaa

#102875011
b100000 aaaaj

#102875013
b1100010111101011 aaaal

#102895846
b1100010111101011 aaaah
b1001010011110110 aaaal

#102895849
b1111111111111111 aaaaa

#102916678
b101010 aaaaj

#102916680
b1111111111111111 aaaal

#102937513
b1111111111111111 aaaah

#102958345
b10101101 aaaaj

#102958346
b100001 aaaal

#102979179
b100000 aaaal

#103000012
b11100001 aaaaj
b101010 aaaal

#103020845
b10101101 aaaal

#103041678
b100000 aaaal

#103041679
b11010100 aaaaj

#103062511
b100001 aaaaa
b11100001 aaaal

#103083344
b100000 aaaaa
b11010100 aaaal

#103083346
b10001010 aaaaj

#103104177
b1 aaaal

#103125010
b1 aaaaa
b10001010 aaaal

#103125013
b11101111 aaaaj

#103145844
b1100010111101011 aaaal

#103166677
b1100010111101011 aaaaa
b11101111 aaaal

#103166680
b1010010 aaaaj

#103187511
b1111111111111111 aaaal

#103208344
b1111111111111111 aaaaa
b1010010 aaaal

#103208347
b10001001 aaaaj

#103229180
b10001001 aaaal

#103250014
b10000101 aaaaj

#103270847
b10000101 aaaal

#103291681
b11110000 aaaaj

#103312514
b11110000 aaaal

#103333348
b1011 aaaaj

#103354181
b1011 aaaal

#103375015
b101011 aaaaj

#103395848
b101011 aaaal

#103416682
b10110000 aaaaj

#103437515
b10110000 aaaal

#103458349
b1001101 aaaaj

#103479182
b1001101 aaaal

#103500016
b11111000 aaaaj

#103520849
b11111000 aaaal

#103541683
b100001 aaaaj

#103562516
b100001 aaaal

#103583350
b111000 aaaaj

#103604183
b111000 aaaal

#103625017
b1001 aaaaj

#103645850
b1001 aaaal

#103666684
b11101101 aaaaj

#103687517
b11101101 aaaal

#103708351
b1111001 aaaaj

#103729184
b1111001 aaaal

#103750018
b10111101 aaaaj

#103770851
b10111101 aaaal

#103791685
b1100101 aaaaj

#103812518
b1100101 aaaal

#103833352
b1011101 aaaaj

#103854185
b1011101 aaaal

#103875019
b10000110 aaaaj

#103895852
b10000110 aaaal

#103916686
b1000111 aaaaj

#103937519
b1000111 aaaal

#103958353
b10010000 aaaaj

#103979186
b10010000 aaaal

#104000018
b100000 aaaag

#104000020
b11011011000110 aaaaj

#104020853
b11011011000110 aaaal

#104041685
b100111 aaaag

#104041687
b1111111111111111 aaaaj

#104062520
b1111111111111111 aaaal

#104083352
b1001100100100011 aaaag

#104083353
b101010 aaaal

#104104186
b100000 aaaal

#104125019
b1100001001111100 aaaag
b100111 aaaal

#104145852
b1001100100100011 aaaal

#104166685
b100000 aaaal

#104166686
b11101010010000 aaaag

#104187518
b101010 aaaaj
b1100001001111100 aaaal

#104208351
b100000 aaaaj
b11101010010000 aaaal

#104208353
b1011001011001100 aaaag

#104229184
b1 aaaal

#104250017
b1 aaaaj
b1011001011001100 aaaal

#104250020
b1100100011001000 aaaag

#104270851
b1100010111101011 aaaal

#104291684
b1100010111101011 aaaaj
b1100100011001000 aaaal

#104291687
b1010100111111001 aaaag

#104312518
b1111111111111111 aaaal

#104333351
b1111111111111111 aaaaj
b1010100111111001 aaaal

#104333354
b1111011000011011 aaaag

#104354187
b1111011000011011 aaaal

#104375021
b110110011010110 aaaag

#104395854
b110110011010110 aaaal

#104416688
b101100100111000 aaaag

#104437521
b101100100111000 aaaal

#104458355
b1000001111101000 aaaag

#104479188
b1000001111101000 aaaal

#104500022
b1100010111010101 aaaag

#104520855
b1100010111010101 aaaal

#104541689
b101110011001100 aaaag

#104562522
b101110011001100 aaaal

#104583356
b1101100011 aaaag

#104604189
b1101100011 aaaal

#104625023
b1001000000010111 aaaag

#104645856
b1001000000010111 aaaal

#104666690
b1110000101000000 aaaag

#104687523
b1110000101000000 aaaal

#104708357
b1100100111110001 aaaag

#104729190
b1100100111110001 aaaal

#104750024
b1111000000111110 aaaag

#104770857
b1111000000111110 aaaal

#104791691
b1010001001100100 aaaag

#104812524
b1010001001100100 aaaal

#104833358
b10001100110110 aaaag

#104854191
b10001100110110 aaaal

#104875025
b101101111011110 aaaag

#104895858
b101101111011110 aaaal

#104916692
b110110100001111 aaaag

#104937525
b110110100001111 aaaal

#104958359
b1001101011001111 aaaag

#104979192
b1001101011001111 aaaal

#105000026
b100001101101100 aaaag

#105020859
b100001101101100 aaaal

#105041693
b1010001001100011 aaaag

#105062526
b1010001001100011 aaaal

#105083360
b11111110011111 aaaag

#105104193
b11111110011111 aaaal

#105125025
b100000 aaaac

#105125027
b1001000111010 aaaag

#105145860
b1001000111010 aaaal

#105166692
b100011 aaaac

#105166694
b1111111111111111 aaaag

#105187527
b1111111111111111 aaaal

#105208359
b1001101110111001 aaaac

#105208360
b100111 aaaal

#105229193
b100000 aaaal

#105250026
b1100001111000110 aaaac
b100011 aaaal

#105270859
b1001101110111001 aaaal

#105291692
b100000 aaaal

#105291693
b1000011000000100 aaaac

#105312525
b100111 aaaag
b1100001111000110 aaaal

#105333358
b100000 aaaag
b1000011000000100 aaaal

#105333360
b1010011000110111 aaaac

#105354191
b1 aaaal

#105375024
b1 aaaag
b1010011000110111 aaaal

#105375027
b1000101001 aaaac

#105395858
b1100010111101011 aaaal

#105416691
b1100010111101011 aaaag
b1000101001 aaaal

#105416694
b10001110010 aaaac

#105437525
b1111111111111111 aaaal

#105458358
b1111111111111111 aaaag
b10001110010 aaaal

#105458361
b1101111 aaaac

#105479194
b1101111 aaaal

#105500028
b1101001111000010 aaaac

#105520861
b1101001111000010 aaaal

#105541695
b11011101011110 aaaac

#105562528
b11011101011110 aaaal

#105583362
b1010001001010100 aaaac

#105604195
b1010001001010100 aaaal

#105625029
b1100000010111111 aaaac

#105645862
b1100000010111111 aaaal

