ExoMars2020/Network/traces/network.vcd
$date
     Nov 16, 2018       11:56:18
$end

$version
 SystemC 2.3.2-Accellera --- Oct  1 2018 18:40:03
$end

$timescale
     1 ps
$end

$scope module SystemC $end
$var wire   16  aaaaa  PanCam_channel_data [15:0]  $end
$var wire   32  aaaab  PanCam_channel_wid [31:0]  $end
$var wire   16  aaaac  NavCam_channel_data [15:0]  $end
$var wire   32  aaaad  NavCam_channel_wid [31:0]  $end
$var wire   16  aaaae  ISEM_channel_data [15:0]  $end
$var wire   32  aaaaf  ISEM_channel_wid [31:0]  $end
$var wire   16  aaaag  CLUPI_channel_data [15:0]  $end
$var wire   32  aaaah  CLUPI_channel_wid [31:0]  $end
$var wire   16  aaaai  Drill_channel_data [15:0]  $end
$var wire   32  aaaaj  Drill_channel_wid [31:0]  $end
$var wire   16  aaaak  Adron_channel_data [15:0]  $end
$var wire   32  aaaal  Adron_channel_wid [31:0]  $end
$var wire   16  aaaam  WISDOM_channel_data [15:0]  $end
$var wire   32  aaaan  WISDOM_channel_wid [31:0]  $end
$var wire   16  aaaao  Ma_MISS_channel_data [15:0]  $end
$var wire   32  aaaap  Ma_MISS_channel_wid [31:0]  $end
$var wire   16  aaaaq  MicrOmega_channel_data [15:0]  $end
$var wire   32  aaaar  MicrOmega_channel_wid [31:0]  $end
$var wire   16  aaaas  RLS_channel_data [15:0]  $end
$var wire   32  aaaat  RLS_channel_wid [31:0]  $end
$var wire   16  aaaau  MOMA_channel_data [15:0]  $end
$var wire   32  aaaav  MOMA_channel_wid [31:0]  $end
$var wire   16  aaaaw  PrintUnit_channel_data [15:0]  $end
$var wire   32  aaaax  PrintUnit_channel_wid [31:0]  $end
$var wire   16  aaaay  PrintUnit_port_in [15:0]  $end
$var wire   16  aaaaz  PrintUnit_port_out [15:0]  $end
$var wire   16  aaaba  router_port_adron_in [15:0]  $end
$var wire   16  aaabb  router_port_adron_out [15:0]  $end
$upscope $end
$enddefinitions  $end

$comment
All initial values are dumped below at time 0 sec = 0 timescale units.
$end

$dumpvars
b0 aaaaa
b0 aaaab
b0 aaaac
b0 aaaad
b0 aaaae
b0 aaaaf
b0 aaaag
b0 aaaah
b0 aaaai
b0 aaaaj
b100000 aaaak
b0 aaaal
b0 aaaam
b0 aaaan
b0 aaaao
b0 aaaap
b0 aaaaq
b0 aaaar
b0 aaaas
b0 aaaat
b0 aaaau
b0 aaaav
b0 aaaaw
b0 aaaax
b0 aaaay
b0 aaaaz
b100000 aaaba
b0 aaabb
$end

#41667
b100110 aaaak

#62500
b100000 aaaaw
b100 aaaax
b100110 aaaba

#83333
b100110 aaaaw
b100000 aaaay

#83334
b10010111 aaaak

#104166
b100110 aaaay

#104167
b10010111 aaaaw
b10010111 aaaba

#125000
b10010111 aaaay

#125001
b111010001 aaaak

#145834
b111010001 aaaaw
b111010001 aaaba

#166667
b111010001 aaaay

#166668
b101101001 aaaak

#187501
b101101001 aaaaw
b101101001 aaaba

#208334
b101101001 aaaay

#208335
b100011001011111 aaaak

#229168
b100011001011111 aaaaw
b100011001011111 aaaba

#250001
b100011001011111 aaaay

#250002
b101100001 aaaak

#270835
b101100001 aaaaw
b101100001 aaaba

#291668
b101100001 aaaay

#291669
b10100100 aaaak

#312502
b10100100 aaaaw
b10100100 aaaba

#333335
b10100100 aaaay

#333336
b1000110010001111 aaaak

#354169
b1000110010001111 aaaaw
b1000110010001111 aaaba

#375002
b1000110010001111 aaaay

#375003
b101010001 aaaak

#395836
b101010001 aaaaw
b101010001 aaaba

#416669
b101010001 aaaay

#416670
b110111010100000 aaaak

#437503
b110111010100000 aaaaw
b110111010100000 aaaba

#458336
b110111010100000 aaaay

#458337
b1111111111111111 aaaak

#479170
b1111111111111111 aaaaw
b1111111111111111 aaaba

#500003
b100110 aaaaw
b1 aaaax
b1111111111111111 aaaay
b100110 aaaaz

#541670
b100000 aaaaw
b100000 aaaaz

#562503
b100110 aaaak
b11 aaaal
b100110 aaabb

#583336
b100000 aaaak
b100000 aaabb

#583337
b0 aaaaw
b0 aaaaz

#604170
b0 aaaak
b0 aaabb

#666671
b1111111111111111 aaaaw
b1111111111111111 aaaaz

#687504
b1111111111111111 aaaak
b1111111111111111 aaabb

#708337
b100000 aaaak
b0 aaaal

#729170
b100000 aaaba

#750004
b100110 aaaak

#770837
b100000 aaaaw
b100 aaaax
b100110 aaaba

#791670
b100110 aaaaw
b100000 aaaay

#791671
b10010111 aaaak

#812503
b100110 aaaay

#812504
b10010111 aaaaw
b10010111 aaaba

#833337
b10010111 aaaay

#833338
b111010001 aaaak

#854171
b111010001 aaaaw
b111010001 aaaba

#875004
b111010001 aaaay

#875005
b101101001 aaaak

#895838
b101101001 aaaaw
b101101001 aaaba

#916671
b101101001 aaaay

#916672
b100101010 aaaak

#937505
b100101010 aaaaw
b100101010 aaaba

#958338
b100101010 aaaay

#958339
b101100001 aaaak

#979172
b101100001 aaaaw
b101100001 aaaba

#1000005
b101100001 aaaay

#1000006
b10100100 aaaak

#1020839
b10100100 aaaaw
b10100100 aaaba

#1041672
b10100100 aaaay

#1041673
b100110000 aaaak

#1062506
b100110000 aaaaw
b100110000 aaaba

#1083339
b100110000 aaaay

#1083340
b101010001 aaaak

#1104173
b101010001 aaaaw
b101010001 aaaba

#1125006
b101010001 aaaay

#1125007
b110111010100000 aaaak

#1145840
b110111010100000 aaaaw
b110111010100000 aaaba

#1166673
b110111010100000 aaaay

#1166674
b1111111111111111 aaaak

#1187507
b1111111111111111 aaaaw
b1111111111111111 aaaba

#1208340
b100110 aaaaw
b1 aaaax
b1111111111111111 aaaay
b100110 aaaaz

#1250007
b100000 aaaaw
b100000 aaaaz

#1270840
b100110 aaaak
b11 aaaal
b100110 aaabb

#1291673
b100000 aaaak
b100000 aaabb

#1291674
b1 aaaaw
b1 aaaaz

#1312507
b1 aaaak
b1 aaabb

#1333341
b1100010111101011 aaaaw
b1100010111101011 aaaaz

#1354174
b1100010111101011 aaaak
b1100010111101011 aaabb

#1375008
b1111111111111111 aaaaw
b1111111111111111 aaaaz

#1395841
b1111111111111111 aaaak
b1111111111111111 aaabb

#101416674
b100000 aaaak
b0 aaaal

#101437507
b100000 aaaba

#101458341
b100110 aaaak

#101479174
b100000 aaaaw
b100 aaaax
b100110 aaaba

#101500007
b100110 aaaaw
b100000 aaaay

#101500008
b101000111 aaaak

#101520840
b100110 aaaay

#101520841
b101000111 aaaaw
b101000111 aaaba

#101541674
b101000111 aaaay

#101541675
b100010010 aaaak

#101562508
b100010010 aaaaw
b100010010 aaaba

#101583341
b100010010 aaaay

#101583342
b1001100 aaaak

#101604175
b1001100 aaaaw
b1001100 aaaba

#101625008
b1001100 aaaay

#101625009
b1000000 aaaak

#101645842
b1000000 aaaaw
b1000000 aaaba

#101666675
b1000000 aaaay

#101666676
b101110110 aaaak

#101687509
b101110110 aaaaw
b101110110 aaaba

#101708342
b101110110 aaaay

#101708343
b10111010 aaaak

#101729176
b10111010 aaaaw
b10111010 aaaba

#101750009
b10111010 aaaay

#101750010
b1010001 aaaak

#101770843
b1010001 aaaaw
b1010001 aaaba

#101791676
b1010001 aaaay

#101791677
b100011100 aaaak

#101812510
b100011100 aaaaw
b100011100 aaaba

#101833343
b100011100 aaaay

#101833344
b1010100101000110 aaaak

#101854177
b1010100101000110 aaaaw
b1010100101000110 aaaba

#101875010
b1010100101000110 aaaay

#101875011
b1111111111111111 aaaak

#101895844
b1111111111111111 aaaaw
b1111111111111111 aaaba

#101916677
b100110 aaaaw
b1 aaaax
b1111111111111111 aaaay
b100110 aaaaz

#101958344
b100000 aaaaw
b100000 aaaaz

#101979177
b100110 aaaak
b11 aaaal
b100110 aaabb

#102000010
b100000 aaaak
b100000 aaabb

#102000011
b0 aaaaw
b0 aaaaz

#102020844
b0 aaaak
b0 aaabb

#102083345
b1111111111111111 aaaaw
b1111111111111111 aaaaz

#102104178
b1111111111111111 aaaak
b1111111111111111 aaabb

#102125011
b100000 aaaak
b0 aaaal

#102145844
b100000 aaaba

#102166678
b100110 aaaak

#102187511
b100000 aaaaw
b100 aaaax
b100110 aaaba

#102208344
b100110 aaaaw
b100000 aaaay

#102208345
b101000111 aaaak

#102229177
b100110 aaaay

#102229178
b101000111 aaaaw
b101000111 aaaba

#102250011
b101000111 aaaay

#102250012
b100010010 aaaak

#102270845
b100010010 aaaaw
b100010010 aaaba

#102291678
b100010010 aaaay

#102291679
b1001100 aaaak

#102312512
b1001100 aaaaw
b1001100 aaaba

#102333345
b1001100 aaaay

#102333346
b1000000 aaaak

#102354179
b1000000 aaaaw
b1000000 aaaba

#102375012
b1000000 aaaay

#102375013
b101110110 aaaak

#102395846
b101110110 aaaaw
b101110110 aaaba

#102416679
b101110110 aaaay

#102416680
b10111010 aaaak

#102437513
b10111010 aaaaw
b10111010 aaaba

#102458346
b10111010 aaaay

#102458347
b1010001 aaaak

#102479180
b1010001 aaaaw
b1010001 aaaba

#102500013
b1010001 aaaay

#102500014
b100011100 aaaak

#102520847
b100011100 aaaaw
b100011100 aaaba

#102541680
b100011100 aaaay

#102541681
b1111000010010011 aaaak

#102562514
b1111000010010011 aaaaw
b1111000010010011 aaaba

#102583347
b1111000010010011 aaaay

#102583348
b1111111111111111 aaaak

#102604181
b1111111111111111 aaaaw
b1111111111111111 aaaba

#102625014
b100110 aaaaw
b1 aaaax
b1111111111111111 aaaay
b100110 aaaaz

#102666681
b100000 aaaaw
b100000 aaaaz

#102687514
b100110 aaaak
b11 aaaal
b100110 aaabb

#102708347
b100000 aaaak
b100000 aaabb

#102708348
b1 aaaaw
b1 aaaaz

#102729181
b1 aaaak
b1 aaabb

#102750015
b1100010111101011 aaaaw
b1100010111101011 aaaaz

#102770848
b1100010111101011 aaaak
b1100010111101011 aaabb

#102791682
b1111111111111111 aaaaw
b1111111111111111 aaaaz

#102812515
b1111111111111111 aaaak
b1111111111111111 aaabb

#202833348
b100000 aaaak
b0 aaaal

#202854181
b100000 aaaba

#202875015
b100110 aaaak

#202895848
b100000 aaaaw
b100 aaaax
b100110 aaaba

#202916681
b100110 aaaaw
b100000 aaaay

#202916682
b10111110 aaaak

#202937514
b100110 aaaay

#202937515
b10111110 aaaaw
b10111110 aaaba

#202958348
b10111110 aaaay

#202958349
b100001001 aaaak

#202979182
b10011001010000 aaaaw
b100001001 aaaba

#203000015
b10011001010000 aaaay

#203000016
b1001001 aaaak

#203020849
b1001001 aaaaw
b1001001 aaaba

#203041682
b1001001 aaaay

#203041683
b110110111 aaaak

#203062516
b110110111 aaaaw
b110110111 aaaba

#203083349
b110110111 aaaay

#203083350
b10011101 aaaak

#203104183
b10011101 aaaaw
b10011101 aaaba

#203125016
b10011101 aaaay

#203125017
b100100011 aaaak

#203145850
b100100011 aaaaw
b100100011 aaaba

#203166683
b100100011 aaaay

#203166684
b110001100 aaaak

#203187517
b110001100 aaaaw
b110001100 aaaba

#203208350
b110001100 aaaay

#203208351
b111011000 aaaak

#203229184
b111011000 aaaaw
b111011000 aaaba

#203250017
b111011000 aaaay

#203250018
b1001110010111000 aaaak

#203270851
b1001110010111000 aaaaw
b1001110010111000 aaaba

#203291684
b1001110010111000 aaaay

#203291685
b1111111111111111 aaaak

#203312518
b1111111111111111 aaaaw
b1111111111111111 aaaba

#203333351
b100110 aaaaw
b1 aaaax
b1111111111111111 aaaay
b100110 aaaaz

#203375018
b100000 aaaaw
b100000 aaaaz

#203395851
b100110 aaaak
b11 aaaal
b100110 aaabb

#203416684
b100000 aaaak
b100000 aaabb

#203416685
b0 aaaaw
b0 aaaaz

#203437518
b0 aaaak
b0 aaabb

#203500019
b1111111111111111 aaaaw
b1111111111111111 aaaaz

#203520852
b1111111111111111 aaaak
b1111111111111111 aaabb

#203541685
b100000 aaaak
b0 aaaal

#203562518
b100000 aaaba

#203583352
b100110 aaaak

#203604185
b100000 aaaaw
b100 aaaax
b100110 aaaba

#203625018
b100110 aaaaw
b100000 aaaay

#203625019
b10111110 aaaak

#203645851
b100110 aaaay

#203645852
b10111110 aaaaw
b10111110 aaaba

#203666685
b10111110 aaaay

#203666686
b100001001 aaaak

#203687519
b100001001 aaaaw
b100001001 aaaba

#203708352
b100001001 aaaay

#203708353
b1001001 aaaak

#203729186
b1001001 aaaaw
b1001001 aaaba

#203750019
b1001001 aaaay

#203750020
b110110111 aaaak

#203770853
b110110111 aaaaw
b110110111 aaaba

#203791686
b110110111 aaaay

#203791687
b10011101 aaaak

#203812520
b10011101 aaaaw
b10011101 aaaba

#203833353
b10011101 aaaay

#203833354
b100100011 aaaak

#203854187
b100100011 aaaaw
b100100011 aaaba

#203875020
b100100011 aaaay

#203875021
b110001100 aaaak

#203895854
b110001100 aaaaw
b110001100 aaaba

#203916687
b110001100 aaaay

#203916688
b111011000 aaaak

#203937521
b1101011000010101 aaaaw
b111011000 aaaba

#203958354
b1101011000010101 aaaay

#203958355
b1001110010111000 aaaak

#203979188
b1001110010111000 aaaaw
b1001110010111000 aaaba

#204000021
b1001110010111000 aaaay

#204000022
b1111111111111111 aaaak

#204020855
b1111111111111111 aaaaw
b1111111111111111 aaaba

#204041688
b100110 aaaaw
b1 aaaax
b1111111111111111 aaaay
b100110 aaaaz

#204083355
b100000 aaaaw
b100000 aaaaz

#204104188
b100110 aaaak
b11 aaaal
b100110 aaabb

#204125021
b100000 aaaak
b100000 aaabb

#204125022
b0 aaaaw
b0 aaaaz

#204145855
b0 aaaak
b0 aaabb

#204208356
b1111111111111111 aaaaw
b1111111111111111 aaaaz

#204229189
b1111111111111111 aaaak
b1111111111111111 aaabb

#204250022
b100000 aaaak
b0 aaaal

#204270855
b100000 aaaba

#204291689
b100110 aaaak

#204312522
b100000 aaaaw
b100 aaaax
b100110 aaaba

#204333355
b100110 aaaaw
b100000 aaaay

#204333356
b10111110 aaaak

#204354188
b100110 aaaay

#204354189
b10111110 aaaaw
b10111110 aaaba

#204375022
b10111110 aaaay

#204375023
b100001001 aaaak

#204395856
b100001001 aaaaw
b100001001 aaaba

#204416689
b100001001 aaaay

#204416690
b1001001 aaaak

#204437523
b1001001 aaaaw
b1001001 aaaba

#204458356
b1001001 aaaay

#204458357
b110110111 aaaak

#204479190
b110110111 aaaaw
b110110111 aaaba

#204500023
b110110111 aaaay

#204500024
b10011101 aaaak

#204520857
b10011101 aaaaw
b10011101 aaaba

#204541690
b10011101 aaaay

#204541691
b100100011 aaaak

#204562524
b100100011 aaaaw
b100100011 aaaba

#204583357
b100100011 aaaay

#204583358
b110001100 aaaak

#204604191
b110001100 aaaaw
b110001100 aaaba

#204625024
b110001100 aaaay

#204625025
b111011000 aaaak

#204645858
b111011000 aaaaw
b111011000 aaaba

#204666691
b111011000 aaaay

#204666692
b1001110010111000 aaaak

#204687525
b1001110010111000 aaaaw
b1001110010111000 aaaba

#204708358
b1001110010111000 aaaay

#204708359
b1111111111111111 aaaak

#204729192
b1111111111111111 aaaaw
b1111111111111111 aaaba

#204750025
b100110 aaaaw
b1 aaaax
b1111111111111111 aaaay
b100110 aaaaz

#204791692
b100000 aaaaw
b100000 aaaaz

#204812525
b100110 aaaak
b11 aaaal
b100110 aaabb

#204833358
b100000 aaaak
b100000 aaabb

#204833359
b1 aaaaw
b1 aaaaz

#204854192
b1 aaaak
b1 aaabb

#204875026
b1100010111101011 aaaaw
b1100010111101011 aaaaz

#204895859
b1100010111101011 aaaak
b1100010111101011 aaabb

#204916693
b1111111111111111 aaaaw
b1111111111111111 aaaaz

#204937526
b1111111111111111 aaaak
b1111111111111111 aaabb

