ExoMars2020/Network/traces/network.vcd
$date
     Nov 01, 2018       21:30:52
$end

$version
 SystemC 2.3.2-Accellera --- Oct  1 2018 18:40:03
$end

$timescale
     1 ps
$end

$scope module SystemC $end
$var wire   16  aaaaa  PanCam_channel [15:0]  $end
$var wire   16  aaaab  NavCam_channel [15:0]  $end
$var wire   16  aaaac  ISEM_channel [15:0]  $end
$var wire   16  aaaad  CLUPI_channel [15:0]  $end
$var wire   16  aaaae  Drill_channel [15:0]  $end
$var wire   16  aaaaf  Adron_channel [15:0]  $end
$var wire   16  aaaag  WISDOM_channel [15:0]  $end
$var wire   16  aaaah  Ma_MISS_channel [15:0]  $end
$var wire   16  aaaai  MicrOmega_channel [15:0]  $end
$var wire   16  aaaaj  RLS_channel [15:0]  $end
$var wire   16  aaaak  MOMA_channel [15:0]  $end
$var wire   16  aaaal  PrintUnit_channel [15:0]  $end
$upscope $end
$enddefinitions  $end

$comment
All initial values are dumped below at time 0 sec = 0 timescale units.
$end

$dumpvars
b100000 aaaaa
b100000 aaaab
b100000 aaaac
b100000 aaaad
b100000 aaaae
b100000 aaaaf
b100000 aaaag
b100000 aaaah
b100000 aaaai
b100000 aaaaj
b100000 aaaak
b0 aaaal
$end

#41667
b100001 aaaaa
b100010 aaaab
b100011 aaaac
b100100 aaaad
b100101 aaaae
b100110 aaaaf
b100111 aaaag
b101000 aaaah
b101001 aaaai
b101010 aaaaj
b101011 aaaak

#62500
b100000 aaaal

#83333
b101000 aaaal

#83334
b1101010 aaaaa
b11 aaaab
b1010011 aaaac
b110100 aaaad
b100110 aaaae
b1001100 aaaaf
b1000110 aaaag
b1 aaaah
b100010 aaaai
b1101001 aaaaj
b11100 aaaak

#104167
b1 aaaal

#125001
b1010 aaaah

#145834
b1010 aaaal

#166668
b111101 aaaah

#187501
b111101 aaaal

#208335
b1110101 aaaah

#229168
b1110101 aaaal

#250002
b1110000 aaaah

#270835
b1110000 aaaal

#291669
b1111111 aaaah

#312502
b1111111 aaaal

#333336
b1011110 aaaah

#354169
b1011110 aaaal

#375003
b1100010 aaaah

#395836
b1100010 aaaal

#416670
b111011 aaaah

#437503
b111011 aaaal

#458337
b111111 aaaah

#479170
b111111 aaaal

#500004
b111101 aaaah

#520837
b111101 aaaal

#541671
b1001001 aaaah

#562504
b1001001 aaaal

#583338
b1011011 aaaah

#604171
b1011011 aaaal

#625005
b10000 aaaah

#645838
b10000 aaaal

#666672
b1001101 aaaah

#687505
b1001101 aaaal

#708339
b11100 aaaah

#729172
b11100 aaaal

#750006
b110101 aaaah

#770839
b110101 aaaal

#791673
b1101111 aaaah

#812506
b1101111 aaaal

#833340
b1010001 aaaah

#854173
b1010001 aaaal

#875007
b110 aaaah

#895840
b110 aaaal

#916674
b1001001 aaaah

#937507
b1001001 aaaal

#958341
b110110 aaaah

#979174
b110110 aaaal

#1000008
b111 aaaah

#1020841
b111 aaaal

#1041675
b11010 aaaah

#1062508
b11010 aaaal

#1083342
b1100001 aaaah

#1104175
b1100001 aaaal

#1125009
b1110010101101010 aaaah

#1145842
b1110010101101010 aaaal

#1166676
b1111111111111111 aaaah

#1187509
b1111111111111111 aaaal

#1208342
b101000 aaaal

#1229175
b100000 aaaal

#1250008
b1111001 aaaaa
b100001 aaaal

#1270841
b1101010 aaaal

#1291674
b100000 aaaal

#1291675
b1 aaaaa

#1312507
b101000 aaaah
b1111001 aaaal

#1333340
b100000 aaaah
b1 aaaal

#1333342
b10000 aaaaa

#1375006
b1 aaaah
b10000 aaaal

#1375009
b101101100011 aaaaa

#1395840
b1100010111101011 aaaal

#1416673
b1100010111101011 aaaah
b101101100011 aaaal

#1416676
b1111111111111111 aaaaa

#1437507
b1111111111111111 aaaal

#1458340
b1111111111111111 aaaah

#1479173
b100001 aaaal

#1500006
b100000 aaaal

#1520839
b110101 aaaaj
b101010 aaaal

#1541672
b1101001 aaaal

#1562505
b100000 aaaal

#1562506
b100100 aaaaj

#1583338
b100001 aaaaa
b110101 aaaal

#1604171
b100000 aaaaa
b100100 aaaal

#1604173
b101 aaaaj

#1625004
b1 aaaal

#1645837
b1 aaaaa
b101 aaaal

#1645840
b111010 aaaaj

#1666671
b1100010111101011 aaaal

#1687504
b1100010111101011 aaaaa
b111010 aaaal

#1687507
b1011101 aaaaj

#1708338
b1111111111111111 aaaal

#1729171
b1111111111111111 aaaaa
b1011101 aaaal

#1729174
b10001 aaaaj

#1750007
b10001 aaaal

#1770841
b101011 aaaaj

#1791674
b101011 aaaal

#1812508
b1001100 aaaaj

#1833341
b1001100 aaaal

#1854175
b100000 aaaaj

#1875008
b100000 aaaal

#1895842
b110011 aaaaj

#1916675
b110011 aaaal

#1937509
b111110 aaaaj

#1958342
b111110 aaaal

#1979176
b1111110 aaaaj

#2000009
b1111110 aaaal

#2020843
b1111010 aaaaj

#2041676
b1111010 aaaal

#2062510
b1000010 aaaaj

#2083343
b1000010 aaaal

#2104177
b1000110 aaaaj

#2125010
b1000110 aaaal

#2145844
b1010010 aaaaj

#2166677
b1010010 aaaal

#2187511
b1110111 aaaaj

#2208344
b1110111 aaaal

#2229178
b1000110 aaaaj

#2250011
b1000110 aaaal

#2270845
b1010111 aaaaj

#2291678
b1010111 aaaal

#2312512
b11100 aaaaj

#2333345
b11100 aaaal

#2354179
b111111 aaaaj

#2375012
b111111 aaaal

#2395846
b1010101 aaaaj

#2416679
b1010101 aaaal

#2437513
b1110001 aaaaj

#2458346
b1110001 aaaal

#2520847
b1110111001011001 aaaaj

#2541680
b1110111001011001 aaaal

#2562514
b1111111111111111 aaaaj

#2583347
b1111111111111111 aaaal

#2604180
b101010 aaaal

#2625013
b100000 aaaal

#2645846
b100011 aaaag
b100111 aaaal

#2666679
b1000110 aaaal

#2687512
b100000 aaaal

#2687513
b11100 aaaag

#2708345
b101010 aaaaj
b100011 aaaal

#2729178
b100000 aaaaj
b11100 aaaal

#2729180
b100000 aaaag

#2750011
b1 aaaal

#2770844
b1 aaaaj
b100000 aaaal

#2770847
b110001 aaaag

#2791678
b1100010111101011 aaaal

#2812511
b1100010111101011 aaaaj
b110001 aaaal

#2812514
b100011 aaaag

#2833345
b1111111111111111 aaaal

#2854178
b1111111111111111 aaaaj
b100011 aaaal

#2854181
b10110 aaaag

#2875014
b10110 aaaal

#2895848
b1010000 aaaag

#2916681
b1010000 aaaal

#2937515
b11011 aaaag

#2958348
b11011 aaaal

#2979182
b1111101 aaaag

#3000015
b1111101 aaaal

#3020849
b1010000 aaaag

#3041682
b1010000 aaaal

#3062516
b100 aaaag

#3083349
b100 aaaal

#3104183
b1011000 aaaag

#3125016
b1011000 aaaal

#3145850
b1110 aaaag

#3166683
b1110 aaaal

#3187517
b1110101 aaaag

#3208350
b1110101 aaaal

#3229184
b1101111 aaaag

#3250017
b1101111 aaaal

#3270851
b100 aaaag

#3291684
b100 aaaal

#3312518
b1001110 aaaag

#3333351
b1001110 aaaal

#3354185
b1101110 aaaag

#3375018
b1101110 aaaal

#3395852
b1111100 aaaag

#3416685
b1111100 aaaal

#3437519
b1101110 aaaag

#3458352
b1101110 aaaal

#3479186
b1011100 aaaag

#3500019
b1011100 aaaal

#3520853
b1010 aaaag

#3541686
b1010 aaaal

#3562520
b1011011 aaaag

#3583353
b1011011 aaaal

#3604187
b10011 aaaag

#3625020
b10011 aaaal

#3645854
b1111110110110000 aaaag

#3666687
b1111110110110000 aaaal

#3687521
b1111111111111111 aaaag

#3708354
b1111111111111111 aaaal

#3729187
b100111 aaaal

#3750020
b100000 aaaal

#3770853
b1011101 aaaac
b100011 aaaal

#3791686
b1010011 aaaal

#3812519
b100000 aaaal

#3812520
b1101010 aaaac

#3833352
b100111 aaaag
b1011101 aaaal

#3854185
b100000 aaaag
b1101010 aaaal

#3854187
b10 aaaac

#3875018
b1 aaaal

#3895851
b1 aaaag
b10 aaaal

#3895854
b1011011 aaaac

#3916685
b1100010111101011 aaaal

#3937518
b1100010111101011 aaaag
b1011011 aaaal

#3937521
b1010 aaaac

#3958352
b1111111111111111 aaaal

#3979185
b1111111111111111 aaaag
b1010 aaaal

#3979188
b100001 aaaac

#4000021
b100001 aaaal

#4020855
b1001111 aaaac

#4041688
b1001111 aaaal

#4062522
b1011000 aaaac

#4083355
b1011000 aaaal

#4104189
b1100 aaaac

#4125022
b1100 aaaal

#4145856
b11001 aaaac

#4166689
b11001 aaaal

#4187523
b1011 aaaac

#4208356
b1011 aaaal

#4229190
b11010 aaaac

#4250023
b11010 aaaal

#4270857
b1110110 aaaac

#4291690
b1110110 aaaal

#4312524
b101 aaaac

#4333357
b101 aaaal

#4354191
b1010101 aaaac

#4375024
b1010101 aaaal

#4395858
b1011001 aaaac

#4416691
b1011001 aaaal

#4437525
b1011010 aaaac

#4458358
b1011010 aaaal

#4479192
b110101 aaaac

#4500025
b110101 aaaal

#4520859
b1000000 aaaac

#4541692
b1000000 aaaal

#4562526
b11010 aaaac

#4583359
b11010 aaaal

#4604193
b10 aaaac

#4625026
b10 aaaal

#4645860
b11110 aaaac

#4666693
b11110 aaaal

#4687527
b1111000 aaaac

#4708360
b1111000 aaaal

#4729194
b1011001 aaaac

#4750027
b1011001 aaaal

#4770861
b10001100 aaaac

#4791694
b10001100 aaaal

#4812528
b1111111111111111 aaaac

#4833361
b1111111111111111 aaaal

#4854194
b100011 aaaal

#4875027
b100000 aaaal

#4895860
b1011011 aaaab
b100010 aaaal

#4916693
b11 aaaal

#4937526
b100000 aaaal

#4937527
b10 aaaab

#4958359
b100011 aaaac
b1011011 aaaal

#4979192
b100000 aaaac
b10 aaaal

#4979194
b101010 aaaab

#5000025
b1 aaaal

#5020858
b1 aaaac
b101010 aaaal

#5020861
b1100110 aaaab

#5041692
b1100010111101011 aaaal

#5062525
b1100010111101011 aaaac
b1100110 aaaal

#5062528
b101111 aaaab

#5083359
b1111111111111111 aaaal

#5104192
b1111111111111111 aaaac
b101111 aaaal

#5104195
b1100000 aaaab

#5125028
b1100000 aaaal

#5145862
b11001 aaaab

#5166695
b11001 aaaal

#5187529
b1101010 aaaab

#5208362
b1101010 aaaal

#5229196
b10 aaaab

#5250029
b10 aaaal

#5270863
b11100 aaaab

#5291696
b11100 aaaal

#5312530
b1011111 aaaab

#5333363
b1011111 aaaal

#5354197
b100011 aaaab

#5375030
b100011 aaaal

#5395864
b11111 aaaab

#5416697
b11111 aaaal

#5437531
b1101100 aaaab

#5458364
b1101100 aaaal

#5479198
b110101 aaaab

#5500031
b110101 aaaal

#5520865
b1111011 aaaab

#5541698
b1111011 aaaal

#5562532
b101101 aaaab

#5583365
b101101 aaaal

#5604199
b110000 aaaab

#5625032
b110000 aaaal

#5645866
b110011 aaaab

#5666699
b110011 aaaal

#5687533
b1011000 aaaab

#5708366
b1011000 aaaal

#5729200
b1101010 aaaab

#5750033
b1101010 aaaal

#5770867
b110001 aaaab

#5791700
b110001 aaaal

#5812534
b1111100 aaaab

#5833367
b1111100 aaaal

#5854201
b111111 aaaab

#5875034
b111111 aaaal

#5895868
b101100010010001 aaaab

#5916701
b101100010010001 aaaal

#5937535
b1111111111111111 aaaab

#5958368
b1111111111111111 aaaal

#5979201
b100010 aaaal

#6000034
b100000 aaaal

#6020867
b111111 aaaad
b100100 aaaal

#6041700
b110100 aaaal

#6062533
b100000 aaaal

#6062534
b1011010 aaaad

#6083366
b100010 aaaab
b111111 aaaal

#6104199
b100000 aaaab
b1011010 aaaal

#6104201
b1001100 aaaad

#6125032
b1 aaaal

#6145865
b1 aaaab
b1001100 aaaal

#6145868
b1100001 aaaad

#6166699
b1100010111101011 aaaal

#6187532
b1100010111101011 aaaab
b1100001 aaaal

#6187535
b101100 aaaad

#6208366
b1111111111111111 aaaal

#6229199
b1111111111111111 aaaab
b101100 aaaal

#6229202
b110000 aaaad

#6250035
b110000 aaaal

#6270869
b1011111 aaaad

#6291702
b1011111 aaaal

#6312536
b1010100 aaaad

#6333369
b1010100 aaaal

#6354203
b1010011 aaaad

#6375036
b1010011 aaaal

#6395870
b1000010 aaaad

#6416703
b1000010 aaaal

#6437537
b1111011 aaaad

#6458370
b1111011 aaaal

#6479204
b110001 aaaad

#6500037
b110001 aaaal

#6520871
b110100 aaaad

#6541704
b110100 aaaal

#6562538
b111010 aaaad

#6583371
b111010 aaaal

#6604205
b1100111 aaaad

#6625038
b1100111 aaaal

#6645872
b1011101 aaaad

#6666705
b1011101 aaaal

#6687539
b100110 aaaad

#6708372
b100110 aaaal

#6729206
b101100 aaaad

#6750039
b101100 aaaal

#6770873
b100110 aaaad

#6791706
b100110 aaaal

#6812540
b100101 aaaad

#6833373
b100101 aaaal

#6854207
b1110111 aaaad

#6875040
b1110111 aaaal

#6895874
b100011 aaaad

#6916707
b100011 aaaal

#6937541
b101000 aaaad

#6958374
b101000 aaaal

#6979208
b100 aaaad

#7000041
b100 aaaal

#7020875
b1010010001111 aaaad

#7041708
b1010010001111 aaaal

#7062542
b1111111111111111 aaaad

#7083375
b1111111111111111 aaaal

#7104208
b100100 aaaal

#7125041
b100000 aaaal

#7145874
b101 aaaae
b100101 aaaal

#7166707
b100110 aaaal

#7187540
b100000 aaaal

#7187541
b11011 aaaae

#7208373
b100100 aaaad
b101 aaaal

#7229206
b100000 aaaad
b11011 aaaal

#7229208
b110000 aaaae

#7250039
b1 aaaal

#7270872
b1 aaaad
b110000 aaaal

#7270875
b11111 aaaae

#7291706
b1100010111101011 aaaal

#7312539
b1100010111101011 aaaad
b11111 aaaal

#7312542
b1100010 aaaae

#7333373
b1111111111111111 aaaal

#7354206
b1111111111111111 aaaad
b1100010 aaaal

#7354209
b101000 aaaae

#7375042
b101000 aaaal

#7395876
b1110000 aaaae

#7416709
b1110000 aaaal

#7437543
b1011001 aaaae

#7458376
b1011001 aaaal

#7479210
b1 aaaae

#7500043
b1 aaaal

#7520877
b100001 aaaae

#7541710
b100001 aaaal

#7562544
b1001110 aaaae

#7583377
b1001110 aaaal

#7604211
b1011110 aaaae

#7625044
b1011110 aaaal

#7645878
b1010110 aaaae

#7666711
b1010110 aaaal

#7687545
b1101 aaaae

#7708378
b1101 aaaal

#7729212
b1010000 aaaae

#7750045
b1010000 aaaal

#7770879
b1000 aaaae

#7791712
b1000 aaaal

#7812546
b100000 aaaae

#7833379
b100000 aaaal

#7854213
b1001000 aaaae

#7875046
b1001000 aaaal

#7895880
b1110100 aaaae

#7916713
b1110100 aaaal

#7937547
b1011010 aaaae

#7958380
b1011010 aaaal

#7979214
b111010 aaaae

#8000047
b111010 aaaal

#8020881
b10000 aaaae

#8041714
b10000 aaaal

#8062548
b101011 aaaae

#8083381
b101011 aaaal

#8104215
b1101001 aaaae

#8125048
b1101001 aaaal

#8145882
b1110100100001111 aaaae

#8166715
b1110100100001111 aaaal

#8187549
b1111111111111111 aaaae

#8208382
b1111111111111111 aaaal

#8229215
b100101 aaaal

#8250048
b100000 aaaal

#8270881
b1000000 aaaaf
b100110 aaaal

#8291714
b1001100 aaaal

#8312547
b100000 aaaal

#8312548
b1011100 aaaaf

#8333380
b100101 aaaae
b1000000 aaaal

#8354213
b100000 aaaae
b1011100 aaaal

#8354215
b110100 aaaaf

#8375046
b1 aaaal

#8395879
b1 aaaae
b110100 aaaal

#8395882
b1100101 aaaaf

#8416713
b1100010111101011 aaaal

#8437546
b1100010111101011 aaaae
b1100101 aaaal

#8437549
b101010 aaaaf

#8458380
b1111111111111111 aaaal

#8479213
b1111111111111111 aaaae
b101010 aaaal

#8520883
b1001100 aaaaf

#8541716
b1001100 aaaal

#8562550
b11000 aaaaf

#8583383
b11000 aaaal

#8604217
b110000 aaaaf

#8625050
b110000 aaaal

#8645884
b1010010 aaaaf

#8666717
b1010010 aaaal

#8687551
b101111 aaaaf

#8708384
b101111 aaaal

#8729218
b1011000 aaaaf

#8750051
b1011000 aaaal

#8770885
b111111 aaaaf

#8791718
b111111 aaaal

#8812552
b1111000 aaaaf

#8833385
b1111000 aaaal

#8854219
b1010010 aaaaf

#8875052
b1010010 aaaal

#8895886
b10000 aaaaf

#8916719
b10000 aaaal

#8937553
b1011000 aaaaf

#8958386
b1011000 aaaal

#8979220
b100110 aaaaf

#9000053
b100110 aaaal

#9020887
b1001010 aaaaf

#9041720
b1001010 aaaal

#9062554
b1101111 aaaaf

#9083387
b1101111 aaaal

#9104221
b1101101 aaaaf

#9125054
b1101101 aaaal

#9145888
b1001 aaaaf

#9166721
b1001 aaaal

#9187555
b100010 aaaaf

#9208388
b100010 aaaal

#9229222
b111101 aaaaf

#9250055
b111101 aaaal

#9270889
b110111100110000 aaaaf

#9291722
b110111100110000 aaaal

#9312556
b1111111111111111 aaaaf

#9333389
b1111111111111111 aaaal

#9354222
b100110 aaaal

#9375055
b100000 aaaal

#9395888
b111100 aaaak
b101011 aaaal

#9416721
b11100 aaaal

#9437554
b100000 aaaal

#9437555
b1101100 aaaak

#9458387
b100110 aaaaf
b111100 aaaal

#9479220
b100000 aaaaf
b1101100 aaaal

#9479222
b11000 aaaak

#9500053
b1 aaaal

#9520886
b1 aaaaf
b11000 aaaal

#9520889
b11011 aaaak

#9541720
b1100010111101011 aaaal

#9562553
b1100010111101011 aaaaf
b11011 aaaal

#9562556
b100101 aaaak

#9583387
b1111111111111111 aaaal

#9604220
b1111111111111111 aaaaf
b100101 aaaal

#9604223
b101001 aaaak

#9625056
b101001 aaaal

#9645890
b1111101 aaaak

#9666723
b1111101 aaaal

#9687557
b11000 aaaak

#9708390
b11000 aaaal

#9729224
b1100111 aaaak

#9750057
b1100111 aaaal

#9770891
b1110110 aaaak

#9791724
b1110110 aaaal

#9812558
b1110100 aaaak

#9833391
b1110100 aaaal

#9854225
b10001 aaaak

#9875058
b10001 aaaal

#9895892
b100 aaaak

#9916725
b100 aaaal

#9937559
b111001 aaaak

#9958392
b111001 aaaal

#9979226
b111110 aaaak

#10000059
b111110 aaaal

#10020893
b10110 aaaak

#10041726
b10110 aaaal

#10062560
b1110010 aaaak

#10083393
b1110010 aaaal

#10104227
b111111 aaaak

#10125060
b111111 aaaal

#10145894
b110111 aaaak

#10166727
b110111 aaaal

#10187561
b100011 aaaak

#10208394
b100011 aaaal

#10229228
b111010 aaaak

#10250061
b111010 aaaal

#10270895
b1011101 aaaak

#10291728
b1011101 aaaal

#10312562
b1100000 aaaak

#10333395
b1100000 aaaal

#10354229
b1100111 aaaak

#10375062
b1100111 aaaal

#10395896
b111100001010111 aaaak

#10416729
b111100001010111 aaaal

#10437563
b1111111111111111 aaaak

#10458396
b1111111111111111 aaaal

#10479229
b101011 aaaal

#10500062
b100000 aaaal

#10520895
b111001 aaaai
b101001 aaaal

#10541728
b100010 aaaal

#10562561
b100000 aaaal

#10562562
b101100 aaaai

#10583394
b101011 aaaak
b111001 aaaal

#10604227
b100000 aaaak
b101100 aaaal

#10604229
b11 aaaai

#10625060
b1 aaaal

#10645893
b1 aaaak
b11 aaaal

#10645896
b11100 aaaai

#10666727
b1100010111101011 aaaal

#10687560
b1100010111101011 aaaak
b11100 aaaal

#10687563
b10010 aaaai

#10708394
b1111111111111111 aaaal

#10729227
b1111111111111111 aaaak
b10010 aaaal

#10729230
b110110 aaaai

#10750063
b110110 aaaal

#10770897
b11 aaaai

#10791730
b11 aaaal

#10812564
b1001100 aaaai

#10833397
b1001100 aaaal

#10854231
b1110010 aaaai

#10875064
b1110010 aaaal

#10895898
b1100110 aaaai

#10916731
b1100110 aaaal

#10937565
b101011 aaaai

#10958398
b101011 aaaal

#10979232
b101010 aaaai

#11000065
b101010 aaaal

#11020899
b111101 aaaai

#11041732
b111101 aaaal

#11062566
b1101101 aaaai

#11083399
b1101101 aaaal

#11104233
b100000 aaaai

#11125066
b100000 aaaal

#11145900
b1010000 aaaai

#11166733
b1010000 aaaal

#11187567
b111001 aaaai

#11208400
b111001 aaaal

#11229234
b110011 aaaai

#11250067
b110011 aaaal

#11270901
b101011 aaaai

#11291734
b101011 aaaal

#11312568
b1111011 aaaai

#11333401
b1111011 aaaal

#11354235
b111111 aaaai

#11375068
b111111 aaaal

#11395902
b110001 aaaai

#11416735
b110001 aaaal

#11437569
b10110 aaaai

#11458402
b10110 aaaal

#11479236
b1101001 aaaai

#11500069
b1101001 aaaal

#11520903
b100000110000101 aaaai

#11541736
b100000110000101 aaaal

#11562570
b1111111111111111 aaaai

#11583403
b1111111111111111 aaaal

#11604236
b101001 aaaal

#11645903
b100000 aaaal

#11666736
b101001 aaaai

#11687569
b100000 aaaai

#11687570
b1 aaaal

#11708403
b1 aaaai

#11729237
b1100010111101011 aaaal

#11750070
b1100010111101011 aaaai

#11770904
b1111111111111111 aaaal

#11791737
b1111111111111111 aaaai

#101479173
b100000 aaaah

#101520840
b101000 aaaah

#101541673
b100000 aaaal

#101562506
b101000 aaaal

#101604174
b100110 aaaah

#101625007
b100110 aaaal

#101645841
b100101 aaaah

#101666674
b100101 aaaal

#101687508
b101110 aaaah

#101708341
b101110 aaaal

#101729175
b100001 aaaah

#101750004
b100000 aaaaa

#101750008
b100001 aaaal

#101770842
b110011 aaaah

#101791671
b100001 aaaaa

#101791675
b110011 aaaal

#101812509
b1011011 aaaah

#101833338
b1000 aaaaa

#101833342
b1011011 aaaal

#101854176
b1111110 aaaah

#101875009
b1111110 aaaal

#101895843
b1100111 aaaah

#101916676
b1100111 aaaal

#101937510
b11101 aaaah

#101958343
b11101 aaaal

#101979177
b11001 aaaah

#102000010
b11001 aaaal

#102020844
b100011 aaaah

#102041677
b100011 aaaal

#102062511
b1001110 aaaah

#102083344
b1001110 aaaal

#102104178
b101011 aaaah

#102125011
b101011 aaaal

#102145845
b11100 aaaah

#102166678
b11100 aaaal

#102187512
b0 aaaah

#102208345
b0 aaaal

#102229179
b1111000 aaaah

#102250012
b1111000 aaaal

#102270846
b1101001 aaaah

#102291679
b1101001 aaaal

#102312513
b1010001 aaaah

#102333346
b1010001 aaaal

#102354180
b10010 aaaah

#102375013
b10010 aaaal

#102395847
b1111 aaaah

#102416680
b1111 aaaal

#102437514
b100000 aaaah

#102458347
b100000 aaaal

#102479181
b1101110 aaaah

#102500014
b1101110 aaaal

#102520848
b1001001 aaaah

#102541681
b1001001 aaaal

#102562515
b1000010 aaaah

#102583348
b1000010 aaaal

#102604182
b1110001010011101 aaaah

#102625015
b1110001010011101 aaaal

#102645849
b1111111111111111 aaaah

#102666682
b1111111111111111 aaaal

#102687515
b101000 aaaal

#102708348
b100000 aaaal

#102729181
b1000001 aaaaa
b100001 aaaal

#102750014
b1000 aaaal

#102770847
b100000 aaaal

#102770848
b110001 aaaaa

#102791680
b101000 aaaah
b1000001 aaaal

#102812513
b100000 aaaah
b110001 aaaal

#102812515
b111010 aaaaa

#102833346
b1 aaaal

#102854179
b1 aaaah
b111010 aaaal

#102854182
b111001000100101 aaaaa

#102875011
b100000 aaaaj

#102875013
b1100010111101011 aaaal

#102895846
b1100010111101011 aaaah
b111001000100101 aaaal

#102895849
b1111111111111111 aaaaa

#102916678
b101010 aaaaj

#102916680
b1111111111111111 aaaal

#102937513
b1111111111111111 aaaah

#102958345
b111 aaaaj

#102958346
b100001 aaaal

#102979179
b100000 aaaal

#103000012
b100110 aaaaj
b101010 aaaal

#103020845
b111 aaaal

#103041678
b100000 aaaal

#103041679
b111110 aaaaj

#103062511
b100001 aaaaa
b100110 aaaal

#103083344
b100000 aaaaa
b111110 aaaal

#103083346
b11010 aaaaj

#103104177
b1 aaaal

#103125010
b1 aaaaa
b11010 aaaal

#103125013
b1000100 aaaaj

#103145844
b1100010111101011 aaaal

#103166677
b1100010111101011 aaaaa
b1000100 aaaal

#103166680
b1100000 aaaaj

#103187511
b1111111111111111 aaaal

#103208344
b1111111111111111 aaaaa
b1100000 aaaal

#103208347
b1100010 aaaaj

#103229180
b1100010 aaaal

#103250014
b100100 aaaaj

#103270847
b100100 aaaal

#103291681
b101011 aaaaj

#103312514
b101011 aaaal

#103333348
b110 aaaaj

#103354181
b110 aaaal

#103375015
b110110 aaaaj

#103395848
b110110 aaaal

#103416682
b101101 aaaaj

#103437515
b101101 aaaal

#103458349
b1011 aaaaj

#103479182
b1011 aaaal

#103500016
b0 aaaaj

#103520849
b0 aaaal

#103541683
b1111001 aaaaj

#103562516
b1111001 aaaal

#103583350
b1010101 aaaaj

#103604183
b1010101 aaaal

#103625017
b1100 aaaaj

#103645850
b1100 aaaal

#103666684
b1111111 aaaaj

#103687517
b1111111 aaaal

#103708351
b1100011 aaaaj

#103729184
b1100011 aaaal

#103750018
b1100110 aaaaj

#103770851
b1100110 aaaal

#103791685
b111 aaaaj

#103812518
b111 aaaal

#103833352
b101110 aaaaj

#103854185
b101110 aaaal

#103875019
b110101 aaaaj

#103895852
b110101 aaaal

#103916686
b1111011 aaaaj

#103937519
b1111011 aaaal

#103958353
b1000001 aaaaj

#103979186
b1000001 aaaal

#104000018
b100000 aaaag

#104000020
b1101100110001011 aaaaj

#104020853
b1101100110001011 aaaal

#104041685
b100111 aaaag

#104041687
b1111111111111111 aaaaj

#104062520
b1111111111111111 aaaal

#104083352
b11010 aaaag

#104083353
b101010 aaaal

#104104186
b100000 aaaal

#104125019
b1011011 aaaag
b100111 aaaal

#104145852
b11010 aaaal

#104166685
b100000 aaaal

#104166686
b11 aaaag

#104187518
b101010 aaaaj
b1011011 aaaal

#104208351
b100000 aaaaj
b11 aaaal

#104208353
b11011 aaaag

#104229184
b1 aaaal

#104250017
b1 aaaaj
b11011 aaaal

#104250020
b101010 aaaag

#104270851
b1100010111101011 aaaal

#104291684
b1100010111101011 aaaaj
b101010 aaaal

#104291687
b1100010 aaaag

#104312518
b1111111111111111 aaaal

#104333351
b1111111111111111 aaaaj
b1100010 aaaal

#104333354
b1001000 aaaag

#104354187
b1001000 aaaal

#104375021
b11000 aaaag

#104395854
b11000 aaaal

#104416688
b1010100 aaaag

#104437521
b1010100 aaaal

#104458355
b1011000 aaaag

#104479188
b1011000 aaaal

#104500022
b1100 aaaag

#104520855
b1100 aaaal

#104541689
b1110111 aaaag

#104562522
b1110111 aaaal

#104583356
b1100100 aaaag

#104604189
b1100100 aaaal

#104625023
b1011010 aaaag

#104645856
b1011010 aaaal

#104666690
b11 aaaag

#104687523
b11 aaaal

#104708357
b111011 aaaag

#104729190
b111011 aaaal

#104750024
b101 aaaag

#104770857
b101 aaaal

#104791691
b11101 aaaag

#104812524
b11101 aaaal

#104833358
b101 aaaag

#104854191
b101 aaaal

#104875025
b1101010 aaaag

#104895858
b1101010 aaaal

#104916692
b1001010 aaaag

#104937525
b1001010 aaaal

#104958359
b111001 aaaag

#104979192
b111001 aaaal

#105000026
b1 aaaag

#105020859
b1 aaaal

#105041693
b110001 aaaag

#105062526
b110001 aaaal

#105083360
b10 aaaag

#105104193
b10 aaaal

#105125025
b100000 aaaac

#105125027
b1110100001000101 aaaag

#105145860
b1110100001000101 aaaal

#105166692
b100011 aaaac

#105166694
b1111111111111111 aaaag

#105187527
b1111111111111111 aaaal

#105208359
b100000 aaaac

#105208360
b100111 aaaal

#105229193
b100000 aaaal

#105250026
b10110 aaaac
b100011 aaaal

#105270859
b100000 aaaal

#105291693
b1100111 aaaac

#105312525
b100111 aaaag
b10110 aaaal

#105333358
b100000 aaaag
b1100111 aaaal

#105333360
b1010 aaaac

#105354191
b1 aaaal

#105375024
b1 aaaag
b1010 aaaal

#105375027
b110111 aaaac

#105395858
b1100010111101011 aaaal

#105416691
b1100010111101011 aaaag
b110111 aaaal

#105416694
b1 aaaac

#105437525
b1111111111111111 aaaal

#105458358
b1111111111111111 aaaag
b1 aaaal

#105458361
b1111110 aaaac

#105479194
b1111110 aaaal

#105500028
b1101000 aaaac

#105520861
b1101000 aaaal

#105541695
b10101 aaaac

#105562528
b10101 aaaal

#105583362
b10010 aaaac

#105604195
b10010 aaaal

#105625029
b1011110 aaaac

#105645862
b1011110 aaaal

#105666696
b110111 aaaac

#105687529
b110111 aaaal

#105708363
b100 aaaac

#105729196
b100 aaaal

#105750030
b100110 aaaac

#105770863
b100110 aaaal

#105791697
b111111 aaaac

#105812530
b111111 aaaal

#105833364
b1111000 aaaac

#105854197
b1111000 aaaal

#105875031
b1101100 aaaac

#105895864
b1101100 aaaal

#105916698
b11110 aaaac

#105937531
b11110 aaaal

#105958365
b1010100 aaaac

#105979198
b1010100 aaaal

#106000032
b110101 aaaac

#106020865
b110101 aaaal

#106041699
b1011110 aaaac

#106062532
b1011110 aaaal

#106083366
b110010 aaaac

#106104199
b110010 aaaal

#106125033
b101001 aaaac

#106145866
b101001 aaaal

#106166700
b110010 aaaac

#106187533
b110010 aaaal

#106208367
b1011111 aaaac

#106229200
b1011111 aaaal

#106250032
b100000 aaaab

#106250034
b11110101001 aaaac

#106270867
b11110101001 aaaal

#106291699
b100010 aaaab

#106291701
b1111111111111111 aaaac

#106312534
b1111111111111111 aaaal

#106333366
b1111001 aaaab

#106333367
b100011 aaaal

#106354200
b100000 aaaal

#106375033
b1011001 aaaab
b100010 aaaal

#106395866
b1111001 aaaal

#106416699
b100000 aaaal

#106416700
b100111 aaaab

#106437532
b100011 aaaac
b1011001 aaaal

#106458365
b100000 aaaac
b100111 aaaal

#106458367
b101000 aaaab

#106479198
b1 aaaal

#106500031
b1 aaaac
b101000 aaaal

#106500034
b1011100 aaaab

#106520865
b1100010111101011 aaaal

#106541698
b1100010111101011 aaaac
b1011100 aaaal

#106541701
b110000 aaaab

#106562532
b1111111111111111 aaaal

#106583365
b1111111111111111 aaaac
b110000 aaaal

#106583368
b101011 aaaab

#106604201
b101011 aaaal

#106625035
b1001001 aaaab

#106645868
b1001001 aaaal

#106666702
b1101000 aaaab

#106687535
b1101000 aaaal

#106708369
b10000 aaaab

#106729202
b10000 aaaal

#106750036
b11100 aaaab

#106770869
b11100 aaaal

