ExoMars2020/Network/traces/network.vcd
$date
     Nov 09, 2018       14:22:00
$end

$version
 SystemC 2.3.2-Accellera --- Oct  1 2018 18:40:03
$end

$timescale
     1 ps
$end

$scope module SystemC $end
$var wire   16  aaaaa  PanCam_channel_data [15:0]  $end
$var wire   32  aaaab  PanCam_channel_wid [31:0]  $end
$var wire   16  aaaac  NavCam_channel_data [15:0]  $end
$var wire   32  aaaad  NavCam_channel_wid [31:0]  $end
$var wire   16  aaaae  ISEM_channel_data [15:0]  $end
$var wire   32  aaaaf  ISEM_channel_wid [31:0]  $end
$var wire   16  aaaag  CLUPI_channel_data [15:0]  $end
$var wire   32  aaaah  CLUPI_channel_wid [31:0]  $end
$var wire   16  aaaai  Drill_channel_data [15:0]  $end
$var wire   32  aaaaj  Drill_channel_wid [31:0]  $end
$var wire   16  aaaak  Adron_channel_data [15:0]  $end
$var wire   32  aaaal  Adron_channel_wid [31:0]  $end
$var wire   16  aaaam  WISDOM_channel_data [15:0]  $end
$var wire   32  aaaan  WISDOM_channel_wid [31:0]  $end
$var wire   16  aaaao  Ma_MISS_channel_data [15:0]  $end
$var wire   32  aaaap  Ma_MISS_channel_wid [31:0]  $end
$var wire   16  aaaaq  MicrOmega_channel_data [15:0]  $end
$var wire   32  aaaar  MicrOmega_channel_wid [31:0]  $end
$var wire   16  aaaas  RLS_channel_data [15:0]  $end
$var wire   32  aaaat  RLS_channel_wid [31:0]  $end
$var wire   16  aaaau  MOMA_channel_data [15:0]  $end
$var wire   32  aaaav  MOMA_channel_wid [31:0]  $end
$var wire   16  aaaaw  PrintUnit_channel_data [15:0]  $end
$var wire   32  aaaax  PrintUnit_channel_wid [31:0]  $end
$var wire   16  aaaay  Adron_port_in [15:0]  $end
$var wire   16  aaaaz  Adron_port_out [15:0]  $end
$var wire   16  aaaba  WISDOM_port_in [15:0]  $end
$var wire   16  aaabb  WISDOM_port_out [15:0]  $end
$var wire   16  aaabc  PrintUnit_port_in [15:0]  $end
$var wire   16  aaabd  PrintUnit_port_out [15:0]  $end
$var wire   16  aaabe  router_port_adron_in [15:0]  $end
$var wire   16  aaabf  router_port_adron_out [15:0]  $end
$upscope $end
$enddefinitions  $end

$comment
All initial values are dumped below at time 0 sec = 0 timescale units.
$end

$dumpvars
b0 aaaaa
b0 aaaab
b0 aaaac
b0 aaaad
b0 aaaae
b0 aaaaf
b0 aaaag
b0 aaaah
b0 aaaai
b0 aaaaj
b100000 aaaak
b0 aaaal
b100110 aaaam
b1 aaaan
b0 aaaao
b0 aaaap
b0 aaaaq
b0 aaaar
b0 aaaas
b0 aaaat
b0 aaaau
b0 aaaav
b0 aaaaw
b0 aaaax
b0 aaaay
b100000 aaaaz
b0 aaaba
b100110 aaabb
b0 aaabc
b0 aaabd
b100000 aaabe
b0 aaabf
$end

#41667
b100110 aaaak
b100111 aaaam
b100110 aaaaz
b100111 aaabb

#62500
b100 aaaal
b100000 aaaaw
b110 aaaax
b100110 aaabe
b100110 aaabf

#83333
b100111 aaaak
b100110 aaaaw
b100110 aaaay
b100000 aaabc
b100111 aaabf

#83334
b1110000000000011 aaaam
b1110000000000011 aaabb

#104166
b101100011 aaaak
b0 aaaal
b100111 aaaay
b101100011 aaaaz
b100110 aaabc

#124999
b1110000000000011 aaaak
b100 aaaal
b101100011 aaaaw
b101100011 aaabe
b1110000000000011 aaabf

#125001
b1111100111101110 aaaam
b1111100111101110 aaabb

#145832
b1110000000000011 aaaay
b101100011 aaabc

#145833
b111110101 aaaak
b0 aaaal
b111110101 aaaaz

#166666
b1111100111101110 aaaak
b100 aaaal
b111110101 aaaaw
b111110101 aaabe
b1111100111101110 aaabf

#166668
b11100000010010 aaaam
b11100000010010 aaabb

#187499
b1111100111101110 aaaay
b111110101 aaabc

#187500
b111001110 aaaak
b0 aaaal
b111001110 aaaaz

#208333
b11100000010010 aaaak
b100 aaaal
b111001110 aaaaw
b111001110 aaabe
b11100000010010 aaabf

#208335
b100111001100101 aaaam
b100111001100101 aaabb

#229166
b11100000010010 aaaay
b111001110 aaabc

#229167
b110101011 aaaak
b0 aaaal
b110101011 aaaaz

#250000
b100111001100101 aaaak
b100 aaaal
b110101011 aaaaw
b110101011 aaabe
b100111001100101 aaabf

#250002
b110110011000001 aaaam
b110110011000001 aaabb

#270833
b100111001100101 aaaay
b110101011 aaabc

#270834
b110100110 aaaak
b0 aaaal
b110100110 aaaaz

#291667
b110110011000001 aaaak
b100 aaaal
b110100110 aaaaw
b110100110 aaabe
b110110011000001 aaabf

#291669
b1001100101101000 aaaam
b1001100101101000 aaabb

#312500
b110110011000001 aaaay
b110100110 aaabc

#312501
b100001110 aaaak
b0 aaaal
b100001110 aaaaz

#333334
b1001100101101000 aaaak
b100 aaaal
b100001110 aaaaw
b100001110 aaabe
b1001100101101000 aaabf

#333336
b111110001011 aaaam
b111110001011 aaabb

#354167
b1001100101101000 aaaay
b100001110 aaabc

#354168
b10000100 aaaak
b0 aaaal
b10000100 aaaaz

#375001
b111110001011 aaaak
b100 aaaal
b10000100 aaaaw
b10000100 aaabe
b111110001011 aaabf

#375003
b111100101001001 aaaam
b111100101001001 aaabb

#395834
b111110001011 aaaay
b10000100 aaabc

#395835
b110100001 aaaak
b0 aaaal
b110100001 aaaaz

#416668
b111100101001001 aaaak
b100 aaaal
b110100001 aaaaw
b110100001 aaabe
b111100101001001 aaabf

#416670
b11000111101010 aaaam
b11000111101010 aaabb

#437501
b111100101001001 aaaay
b110100001 aaabc

#437502
b100010101 aaaak
b0 aaaal
b100010101 aaaaz

#458335
b11000111101010 aaaak
b100 aaaal
b100010101 aaaaw
b100010101 aaabe
b11000111101010 aaabf

#458337
b1011100110110 aaaam
b1011100110110 aaabb

#479168
b11000111101010 aaaay
b100010101 aaabc

#479169
b10101 aaaak
b0 aaaal
b10101 aaaaz

#500002
b1011100110110 aaaak
b100 aaaal
b10101 aaaaw
b10101 aaabe
b1011100110110 aaabf

#500004
b1010110100100011 aaaam
b1010110100100011 aaabb

#520835
b1011100110110 aaaay
b10101 aaabc

#520836
b101000011 aaaak
b0 aaaal
b101000011 aaaaz

#541669
b1010110100100011 aaaak
b100 aaaal
b101000011 aaaaw
b101000011 aaabe
b1010110100100011 aaabf

#541671
b100011010100 aaaam
b100011010100 aaabb

#562502
b1010110100100011 aaaay
b101000011 aaabc

#562503
b110110111 aaaak
b0 aaaal
b110110111 aaaaz

#583336
b100011010100 aaaak
b100 aaaal
b110110111 aaaaw
b110110111 aaabe
b100011010100 aaabf

#583338
b1001011110111000 aaaam
b1001011110111000 aaabb

#604169
b100011010100 aaaay
b110110111 aaabc

#604170
b1000101 aaaak
b0 aaaal
b1000101 aaaaz

#625003
b1001011110111000 aaaak
b100 aaaal
b1000101 aaaaw
b1000101 aaabe
b1001011110111000 aaabf

#625005
b100010001100011 aaaam
b100010001100011 aaabb

#645836
b1001011110111000 aaaay
b1000101 aaabc

#645837
b10101000 aaaak
b0 aaaal
b10101000 aaaaz

#666670
b100010001100011 aaaak
b100 aaaal
b10101000 aaaaw
b10101000 aaabe
b100010001100011 aaabf

#666672
b1111100100110 aaaam
b1111100100110 aaabb

#687503
b100010001100011 aaaay
b10101000 aaabc

#687504
b111100011 aaaak
b0 aaaal
b111100011 aaaaz

#708337
b1111100100110 aaaak
b100 aaaal
b111100011 aaaaw
b111100011 aaabe
b1111100100110 aaabf

#708339
b1011111100100110 aaaam
b1011111100100110 aaabb

#729170
b1111100100110 aaaay
b111100011 aaabc

#729171
b110000011 aaaak
b0 aaaal
b110000011 aaaaz

#750004
b1011111100100110 aaaak
b100 aaaal
b110000011 aaaaw
b110000011 aaabe
b1011111100100110 aaabf

#750006
b1010001011001001 aaaam
b1010001011001001 aaabb

#770837
b1011111100100110 aaaay
b110000011 aaabc

#770838
b100011010 aaaak
b0 aaaal
b100011010 aaaaz

#791671
b1010001011001001 aaaak
b100 aaaal
b100011010 aaaaw
b100011010 aaabe
b1010001011001001 aaabf

#791673
b10101110110011 aaaam
b10101110110011 aaabb

#812504
b1010001011001001 aaaay
b100011010 aaabc

#812505
b1110000 aaaak
b0 aaaal
b1110000 aaaaz

#833338
b10101110110011 aaaak
b100 aaaal
b1110000 aaaaw
b1110000 aaabe
b10101110110011 aaabf

#833340
b10000001001001 aaaam
b10000001001001 aaabb

#854171
b10101110110011 aaaay
b1110000 aaabc

#854172
b110100011 aaaak
b0 aaaal
b110100011 aaaaz

#875005
b10000001001001 aaaak
b100 aaaal
b110100011 aaaaw
b110100011 aaabe
b10000001001001 aaabf

#875007
b110100110001010 aaaam
b110100110001010 aaabb

#895838
b10000001001001 aaaay
b110100011 aaabc

#895839
b111001111 aaaak
b0 aaaal
b111001111 aaaaz

#916672
b110100110001010 aaaak
b100 aaaal
b111001111 aaaaw
b111001111 aaabe
b110100110001010 aaabf

#916674
b1110101111000111 aaaam
b1110101111000111 aaabb

#937505
b110100110001010 aaaay
b111001111 aaabc

#937506
b100110000 aaaak
b0 aaaal
b100110000 aaaaz

#958339
b1110101111000111 aaaak
b100 aaaal
b100110000 aaaaw
b100110000 aaabe
b1110101111000111 aaabf

#958341
b1110010111110011 aaaam
b1110010111110011 aaabb

#979172
b1110101111000111 aaaay
b100110000 aaabc

#979173
b1111100 aaaak
b0 aaaal
b1111100 aaaaz

#1000006
b1110010111110011 aaaak
b100 aaaal
b1111100 aaaaw
b1111100 aaabe
b1110010111110011 aaabf

#1000008
b100110010101111 aaaam
b100110010101111 aaabb

#1020839
b1110010111110011 aaaay
b1111100 aaabc

#1020840
b110010110 aaaak
b0 aaaal
b110010110 aaaaz

#1041673
b100110010101111 aaaak
b100 aaaal
b110010110 aaaaw
b110010110 aaabe
b100110010101111 aaabf

#1041675
b1100111011101011 aaaam
b1100111011101011 aaabb

#1062506
b100110010101111 aaaay
b110010110 aaabc

#1062507
b111010111 aaaak
b0 aaaal
b111010111 aaaaz

#1083340
b1100111011101011 aaaak
b100 aaaal
b111010111 aaaaw
b111010111 aaabe
b1100111011101011 aaabf

#1083342
b11010110111010 aaaam
b11010110111010 aaabb

#1104173
b1100111011101011 aaaay
b111010111 aaabc

#1104174
b111011110 aaaak
b0 aaaal
b111011110 aaaaz

#1125007
b11010110111010 aaaak
b100 aaaal
b111011110 aaaaw
b111011110 aaabe
b11010110111010 aaabf

#1125009
b101100010011101 aaaam
b101100010011101 aaabb

#1145840
b11010110111010 aaaay
b111011110 aaabc

#1145841
b100100000101010 aaaak
b0 aaaal
b100100000101010 aaaaz

#1166674
b101100010011101 aaaak
b100 aaaal
b100100000101010 aaaaw
b100100000101010 aaabe
b101100010011101 aaabf

#1166676
b1111111111111111 aaaam
b1111111111111111 aaabb

#1187507
b101100010011101 aaaay
b100100000101010 aaabc

#1187508
b1111111111111111 aaaak
b0 aaaal
b1111111111111111 aaaaz

#1208341
b100 aaaal
b1111111111111111 aaaaw
b1111111111111111 aaabe
b1111111111111111 aaabf

#1229174
b100110 aaaaw
b10 aaaax
b1111111111111111 aaaay
b1111111111111111 aaabc
b100110 aaabd

#1229175
b100111 aaaak
b0 aaaal
b100111 aaaaz

#1250008
b100111 aaabe

#1270841
b100000 aaaaw
b100000 aaabd

#1270842
b100110 aaaak
b100110 aaaaz

#1291675
b100 aaaal
b100111 aaaam
b101 aaaan
b100110 aaabe
b100110 aaabf

#1312508
b100000 aaaak
b100110 aaaam
b1 aaaaw
b100110 aaaay
b100111 aaaba
b1 aaabd
b100000 aaabf

#1333341
b1 aaaak
b100000 aaaay
b100110 aaaba
b1 aaabf

#1354174
b0 aaaal
b1 aaaay
b1 aaaaz

#1354175
b1100010111101011 aaaaw
b1100010111101011 aaabd

#1375007
b1 aaaam
b1 aaabe

#1375008
b1100010111101011 aaaak
b100 aaaal
b1100010111101011 aaabf

#1395840
b1 aaaba

#1395841
b0 aaaal
b1100010111101011 aaaay
b1100010111101011 aaaaz

#1395842
b1111111111111111 aaaaw
b1111111111111111 aaabd

#1416674
b1100010111101011 aaaam
b1100010111101011 aaabe

#1416675
b1111111111111111 aaaak
b100 aaaal
b1111111111111111 aaabf

#1437507
b1100010111101011 aaaba

#1437508
b0 aaaal
b1111111111111111 aaaay
b1111111111111111 aaaaz

#101437508
b100000 aaaak
b100000 aaaaz

#101458341
b100000 aaaam
b100000 aaabe

#101479174
b100000 aaaba

#101479175
b100110 aaaak
b100110 aaaaz

#101500008
b100110 aaaam
b100110 aaabe

#101520841
b100110 aaaba

#101520842
b111011111 aaaak
b111011111 aaaaz

#101541675
b111011111 aaaam
b111011111 aaabe

#101562508
b111011111 aaaba

#101562509
b1000000 aaaak
b1000000 aaaaz

#101583342
b1000000 aaaam
b1000000 aaabe

#101604175
b1000000 aaaba

#101604176
b1000101 aaaak
b1000101 aaaaz

#101625009
b1000101 aaaam
b1000101 aaabe

#101645842
b1000101 aaaba

#101645843
b110010111 aaaak
b110010111 aaaaz

#101666676
b110010111 aaaam
b110010111 aaabe

#101687509
b110010111 aaaba

#101687510
b110000110 aaaak
b110000110 aaaaz

#101708343
b110000110 aaaam
b110000110 aaabe

#101729176
b110000110 aaaba

#101729177
b10000010 aaaak
b10000010 aaaaz

#101750010
b10000010 aaaam
b10000010 aaabe

#101770843
b10000010 aaaba

#101812511
b11000101 aaaak
b11000101 aaaaz

#101833344
b11000101 aaaam
b11000101 aaabe

#101854177
b11000101 aaaba

#101854178
b100101010 aaaak
b100101010 aaaaz

#101875011
b100101010 aaaam
b100101010 aaabe

#101895844
b100101010 aaaba

#101895845
b100001010 aaaak
b100001010 aaaaz

#101916678
b100001010 aaaam
b100001010 aaabe

#101937511
b100001010 aaaba

#101937512
b10101000 aaaak
b10101000 aaaaz

#101958345
b10101000 aaaam
b10101000 aaabe

#101979178
b10101000 aaaba

#101979179
b110111010 aaaak
b110111010 aaaaz

#102000012
b110111010 aaaam
b110111010 aaabe

#102020845
b110111010 aaaba

#102020846
b111111001 aaaak
b111111001 aaaaz

#102041679
b111111001 aaaam
b111111001 aaabe

#102062512
b111111001 aaaba

#102062513
b10111101 aaaak
b10111101 aaaaz

#102083346
b10111101 aaaam
b10111101 aaabe

#102104179
b10111101 aaaba

#102104180
b100100101 aaaak
b100100101 aaaaz

#102125013
b100100101 aaaam
b100100101 aaabe

#102145846
b100100101 aaaba

#102145847
b101010100 aaaak
b101010100 aaaaz

#102166680
b101010100 aaaam
b101010100 aaabe

#102187513
b101010100 aaaba

#102187514
b10001101 aaaak
b10001101 aaaaz

#102208347
b10001101 aaaam
b10001101 aaabe

#102229180
b10001101 aaaba

#102229181
b1110010 aaaak
b1110010 aaaaz

#102250014
b1110010 aaaam
b1110010 aaabe

#102270847
b1110010 aaaba

#102270848
b11011011 aaaak
b11011011 aaaaz

#102291681
b11011011 aaaam
b11011011 aaabe

#102312514
b11011011 aaaba

#102312515
b100010011 aaaak
b100010011 aaaaz

#102333348
b100010011 aaaam
b100010011 aaabe

#102354181
b100010011 aaaba

#102354182
b1110 aaaak
b1110 aaaaz

#102375015
b1110 aaaam
b1110 aaabe

#102395848
b1110 aaaba

#102395849
b100111111 aaaak
b100111111 aaaaz

#102416682
b100111111 aaaam
b100111111 aaabe

#102437515
b100111111 aaaba

#102437516
b111001100 aaaak
b111001100 aaaaz

#102458349
b111001100 aaaam
b111001100 aaabe

#102479182
b111001100 aaaba

#102479183
b1111 aaaak
b1111 aaaaz

#102500016
b1111 aaaam
b1111 aaabe

#102520849
b1111 aaaba

#102520850
b101011011 aaaak
b101011011 aaaaz

#102541683
b101011011 aaaam
b101011011 aaabe

#102562516
b101011011 aaaba

#102562517
b1011111000001000 aaaak
b1011111000001000 aaaaz

#102583350
b1011111000001000 aaaam
b1011111000001000 aaabe

#102604183
b1011111000001000 aaaba

#102604184
b1111111111111111 aaaak
b1111111111111111 aaaaz

#102625017
b1111111111111111 aaaam
b1111111111111111 aaabe

#102645850
b100110 aaaam
b1 aaaan
b1111111111111111 aaaba
b100110 aaabb

#102687517
b100111 aaaam
b100111 aaabb

#102708350
b100110 aaaak
b100 aaaal
b100110 aaabf

#102729183
b100111 aaaak
b100110 aaaay
b100111 aaabf

#102729184
b0 aaaam
b0 aaabb

#102750016
b100111 aaaay

#102750017
b0 aaaak
b0 aaabf

#102770850
b0 aaaay

#102812518
b1111111111111111 aaaam
b1111111111111111 aaabb

#102833351
b1111111111111111 aaaak
b1111111111111111 aaabf

#102854184
b1111111111111111 aaaay

#202645850
b100110 aaaam
b100110 aaabb

#202687517
b100111 aaaam
b100111 aaabb

#202708350
b100110 aaaak
b100110 aaabf

#202729183
b100111 aaaak
b100110 aaaay
b100111 aaabf

#202729184
b1100011011010001 aaaam
b1100011011010001 aaabb

#202750016
b100111 aaaay

#202750017
b1100011011010001 aaaak
b1100011011010001 aaabf

#202770850
b1100011011010001 aaaay

#202770851
b101000100011010 aaaam
b101000100011010 aaabb

#202791684
b101000100011010 aaaak
b101000100011010 aaabf

#202812517
b101000100011010 aaaay

#202812518
b1111011011001 aaaam
b1111011011001 aaabb

#202833351
b1111011011001 aaaak
b1111011011001 aaabf

#202854184
b1111011011001 aaaay

#202854185
b1100100011110000 aaaam
b1100100011110000 aaabb

#202875018
b1100100011110000 aaaak
b1100100011110000 aaabf

#202895851
b1100100011110000 aaaay

#202895852
b1011111011100011 aaaam
b1011111011100011 aaabb

#202916685
b1011111011100011 aaaak
b1011111011100011 aaabf

#202937518
b1011111011100011 aaaay

#202937519
b101010101100001 aaaam
b101010101100001 aaabb

#202958352
b101010101100001 aaaak
b101010101100001 aaabf

#202979185
b101010101100001 aaaay

#202979186
b1000001110011110 aaaam
b1000001110011110 aaabb

#203000019
b1000001110011110 aaaak
b1000001110011110 aaabf

#203020852
b1000001110011110 aaaay

#203020853
b101101110001101 aaaam
b101101110001101 aaabb

#203041686
b101101110001101 aaaak
b101101110001101 aaabf

#203062519
b101101110001101 aaaay

#203062520
b101010100100010 aaaam
b101010100100010 aaabb

#203083353
b101010100100010 aaaak
b101010100100010 aaabf

#203104186
b101010100100010 aaaay

#203104187
b1110100101000101 aaaam
b1110100101000101 aaabb

#203125020
b1110100101000101 aaaak
b1110100101000101 aaabf

#203145853
b1110100101000101 aaaay

#203145854
b1010110010001001 aaaam
b1010110010001001 aaabb

#203166687
b1010110010001001 aaaak
b1010110010001001 aaabf

#203187520
b1010110010001001 aaaay

#203187521
b1001011101111001 aaaam
b1001011101111001 aaabb

#203208354
b1001011101111001 aaaak
b1001011101111001 aaabf

#203229187
b1001011101111001 aaaay

#203229188
b110010110 aaaam
b110010110 aaabb

#203250021
b110010110 aaaak
b110010110 aaabf

#203270854
b110010110 aaaay

#203270855
b10110111100011 aaaam
b10110111100011 aaabb

#203291688
b10110111100011 aaaak
b10110111100011 aaabf

#203312521
b10110111100011 aaaay

#203312522
b10110101010111 aaaam
b10110101010111 aaabb

#203333355
b10110101010111 aaaak
b10110101010111 aaabf

#203354188
b10110101010111 aaaay

#203354189
b1110001101011011 aaaam
b1110001101011011 aaabb

#203375022
b1110001101011011 aaaak
b1110001101011011 aaabf

#203395855
b1110001101011011 aaaay

#203395856
b101100000000101 aaaam
b101100000000101 aaabb

#203416689
b101100000000101 aaaak
b101100000000101 aaabf

#203437522
b101100000000101 aaaay

#203437523
b1011100001001011 aaaam
b1011100001001011 aaabb

#203458356
b1011100001001011 aaaak
b1011100001001011 aaabf

#203479189
b1011100001001011 aaaay

#203479190
b1010101100010110 aaaam
b1010101100010110 aaabb

#203500023
b1010101100010110 aaaak
b1010101100010110 aaabf

#203520856
b1010101100010110 aaaay

#203520857
b1001010100101000 aaaam
b1001010100101000 aaabb

#203541690
b1001010100101000 aaaak
b1001010100101000 aaabf

#203562523
b1001010100101000 aaaay

#203562524
b1110010110000111 aaaam
b1110010110000111 aaabb

#203583357
b1110010110000111 aaaak
b1110010110000111 aaabf

#203604190
b1110010110000111 aaaay

#203604191
b100100000101010 aaaam
b100100000101010 aaabb

#203625024
b100100000101010 aaaak
b100100000101010 aaabf

#203645857
b100100000101010 aaaay

#203645858
b110000000000010 aaaam
b110000000000010 aaabb

#203666691
b110000000000010 aaaak
b110000000000010 aaabf

#203687524
b110000000000010 aaaay

#203687525
b101101001111101 aaaam
b101101001111101 aaabb

#203708358
b101101001111101 aaaak
b101101001111101 aaabf

#203729191
b101101001111101 aaaay

#203729192
b101111101100110 aaaam
b101111101100110 aaabb

#203750025
b101111101100110 aaaak
b101111101100110 aaabf

#203770858
b101111101100110 aaaay

#203770859
b10100001011000 aaaam
b10100001011000 aaabb

#203791692
b10100001011000 aaaak
b10100001011000 aaabf

#203812525
b10100001011000 aaaay

#203812526
b1111111111111111 aaaam
b1111111111111111 aaabb

#203833359
b1111111111111111 aaaak
b1111111111111111 aaabf

#203854192
b100111 aaaak
b0 aaaal
b1111111111111111 aaaay
b100111 aaaaz

#203895859
b100110 aaaak
b100110 aaaaz

#203916692
b100110 aaabe

#203937526
b1 aaaak
b1 aaaaz

#203958359
b100110 aaaak
b100 aaaal
b1 aaabe
b100110 aaabf

#203979192
b1 aaaak
b100110 aaaay
b1 aaabf

#204000025
b1100010111101011 aaaak
b0 aaaal
b1 aaaay
b1100010111101011 aaaaz

#204020858
b100 aaaal
b1100010111101011 aaabe
b1100010111101011 aaabf

#204041691
b1100010111101011 aaaay

#204041692
b1111111111111111 aaaak
b0 aaaal
b1111111111111111 aaaaz

#204062525
b100 aaaal
b1111111111111111 aaabe
b1111111111111111 aaabf

#204083358
b1111111111111111 aaaay

